EESchema Schematic File Version 4
EELAYER 30 0
EELAYER END
$Descr A3 16535 11693
encoding utf-8
Sheet 1 4
Title ""
Date ""
Rev ""
Comp ""
Comment1 ""
Comment2 ""
Comment3 ""
Comment4 ""
$EndDescr
$Comp
L Connector:Conn_01x04_Male J3
U 1 1 64FB0B38
P 6275 6775
F 0 "J3" H 6383 7056 50  0000 C CNN
F 1 "Conn_01x04_Male" H 6383 6965 50  0000 C CNN
F 2 "Connector_Molex:Molex_KK-254_AE-6410-04A_1x04_P2.54mm_Vertical" H 6275 6775 50  0001 C CNN
F 3 "~" H 6275 6775 50  0001 C CNN
	1    6275 6775
	1    0    0    1   
$EndComp
$Comp
L power:GND #PWR012
U 1 1 64FB0B41
P 7000 6875
F 0 "#PWR012" H 7000 6625 50  0001 C CNN
F 1 "GND" H 7005 6702 50  0000 C CNN
F 2 "" H 7000 6875 50  0001 C CNN
F 3 "" H 7000 6875 50  0001 C CNN
	1    7000 6875
	1    0    0    -1  
$EndComp
Wire Wire Line
	6475 6575 6875 6575
Wire Wire Line
	6475 6675 7000 6675
Wire Wire Line
	6475 6775 7000 6775
Wire Wire Line
	6475 6875 7000 6875
Wire Notes Line
	8050 575  8050 11175
Wire Notes Line
	8050 11175 8100 11175
Wire Notes Line
	525  7775 5500 7775
$Comp
L Connector:Conn_01x06_Female J10
U 1 1 65746A18
P 15375 8600
F 0 "J10" H 15200 9125 50  0000 L CNN
F 1 "Conn_01x06_Female" H 15175 9025 50  0000 L CNN
F 2 "Connector_PinHeader_2.54mm:PinHeader_1x06_P2.54mm_Vertical" H 15375 8600 50  0001 C CNN
F 3 "~" H 15375 8600 50  0001 C CNN
	1    15375 8600
	1    0    0    -1  
$EndComp
Text Notes 15400 8950 0    63   ~ 0
VCC_4V\nRST\nRXD\nTXD\nGND\nDTR
$Comp
L Device:R R26
U 1 1 65756C4C
P 14250 8500
F 0 "R26" V 14350 8500 50  0000 C CNN
F 1 "10k" V 14425 8500 50  0000 C CNN
F 2 "Resistor_SMD:R_0603_1608Metric_Pad0.98x0.95mm_HandSolder" V 14180 8500 50  0001 C CNN
F 3 "~" H 14250 8500 50  0001 C CNN
	1    14250 8500
	0    1    1    0   
$EndComp
Wire Wire Line
	13925 8400 14000 8400
Wire Wire Line
	14000 8500 14000 8400
Connection ~ 14000 8400
Wire Wire Line
	14000 8400 15175 8400
Wire Wire Line
	14100 8500 14000 8500
Wire Wire Line
	14400 8500 15175 8500
Wire Wire Line
	15175 8600 14975 8600
Wire Wire Line
	15175 8700 14975 8700
$Comp
L power:GND #PWR017
U 1 1 6591512F
P 14025 9525
F 0 "#PWR017" H 14025 9275 50  0001 C CNN
F 1 "GND" H 14030 9352 50  0000 C CNN
F 2 "" H 14025 9525 50  0001 C CNN
F 3 "" H 14025 9525 50  0001 C CNN
	1    14025 9525
	1    0    0    -1  
$EndComp
Wire Wire Line
	15175 8800 14025 8800
Text Label 14975 8900 2    50   ~ 0
SIM800_Sleep
Wire Wire Line
	15175 8900 15050 8900
$Comp
L Device:R R28
U 1 1 65936E26
P 15050 9175
F 0 "R28" V 15150 9175 50  0000 C CNN
F 1 "10k" V 15225 9175 50  0000 C CNN
F 2 "Resistor_SMD:R_0603_1608Metric_Pad0.98x0.95mm_HandSolder" V 14980 9175 50  0001 C CNN
F 3 "~" H 15050 9175 50  0001 C CNN
	1    15050 9175
	-1   0    0    1   
$EndComp
Wire Wire Line
	15050 9025 15050 8900
Connection ~ 15050 8900
Wire Wire Line
	15050 8900 14975 8900
Wire Wire Line
	14025 8800 14025 9425
Wire Wire Line
	15050 9325 15050 9425
Wire Wire Line
	15050 9425 14025 9425
Connection ~ 14025 9425
Wire Wire Line
	14025 9425 14025 9525
Wire Notes Line
	5625 4350 8000 4350
Wire Notes Line
	5600 2675 8000 2675
Wire Notes Line
	5425 4525 5425 4500
Wire Notes Line
	550  5975 5475 5975
Wire Notes Line
	5625 5975 8000 5975
Wire Notes Line
	5575 7775 7975 7775
Wire Notes Line
	8025 9650 8025 9625
Wire Notes Line
	16000 5975 16000 5950
Wire Notes Line
	11575 650  11575 2700
Wire Wire Line
	9000 10125 8575 10125
Text Label 9000 10225 0    50   ~ 0
SDA
Text Label 9000 10325 0    50   ~ 0
SCL
Wire Wire Line
	9000 10225 8575 10225
Wire Wire Line
	8575 10325 9000 10325
Wire Wire Line
	8575 10525 8900 10525
$Comp
L Device:Jumper_NC_Small JP1
U 1 1 65ED71B3
P 8800 10425
F 0 "JP1" V 8875 9950 50  0000 C CNN
F 1 "Jumper_NC_Small" V 8800 9975 50  0000 C CNN
F 2 "Jumper:SolderJumper-2_P1.3mm_Open_Pad1.0x1.5mm" H 8800 10425 50  0001 C CNN
F 3 "~" H 8800 10425 50  0001 C CNN
	1    8800 10425
	1    0    0    -1  
$EndComp
Wire Wire Line
	8900 10425 8900 10525
Wire Wire Line
	8700 10425 8575 10425
Text Notes 13775 8050 0    50   ~ 0
SIM800 connector
Text Notes 11000 10100 0    50   ~ 0
BME280 module
Wire Notes Line
	11750 9925 10025 9925
Wire Notes Line
	9975 9925 8075 9925
Wire Notes Line
	8075 9975 8075 10000
Text Notes 9125 11100 0    50   ~ 0
SPS30 Connector
Text Notes 8975 875  0    50   ~ 0
Ultrasonic Transducer transmitter amplifier
Text Notes 6275 6300 0    50   ~ 0
Default UART Serial Comms port
Wire Notes Line
	525  9600 4425 9600
Wire Notes Line
	4425 9600 4425 9575
Text Notes 4850 11100 0    50   ~ 0
Memory card\nDDMMYY 6\nHHMMSS  6\nP 4\nT 4\nRH 4\nRain_MM 2\nWDir 4\nWSpeed 4 \nPM2.5 4 \nPM10  4 \n= 54
Text Label 7000 6775 0    50   ~ 0
TX1
Text Label 7000 6675 0    50   ~ 0
RX1
Text Label 14975 8700 2    50   ~ 0
SIM800_RX3
Text Label 14975 8600 2    50   ~ 0
SIM800_TX3
$Comp
L Connector:Conn_01x05_Male J4
U 1 1 65E46852
P 8375 10325
F 0 "J4" V 8200 10325 50  0000 C CNN
F 1 "Conn_01x05_Male" V 8275 10350 50  0000 C CNN
F 2 "Connector_Molex:Molex_KK-254_AE-6410-05A_1x05_P2.54mm_Vertical" H 8375 10325 50  0001 C CNN
F 3 "~" H 8375 10325 50  0001 C CNN
	1    8375 10325
	1    0    0    1   
$EndComp
Wire Wire Line
	4825 4950 4825 4825
Wire Wire Line
	4525 4950 4525 4825
$Comp
L Device:R R15
U 1 1 65F58901
P 4525 5100
F 0 "R15" H 4350 5125 50  0000 C CNN
F 1 "4.7k" H 4350 5050 50  0000 C CNN
F 2 "Resistor_SMD:R_0603_1608Metric_Pad0.98x0.95mm_HandSolder" V 4455 5100 50  0001 C CNN
F 3 "~" H 4525 5100 50  0001 C CNN
	1    4525 5100
	1    0    0    -1  
$EndComp
$Comp
L Device:R R16
U 1 1 65F432CA
P 4825 5100
F 0 "R16" H 5000 5150 50  0000 C CNN
F 1 "4.7k" H 5000 5050 50  0000 C CNN
F 2 "Resistor_SMD:R_0603_1608Metric_Pad0.98x0.95mm_HandSolder" V 4755 5100 50  0001 C CNN
F 3 "~" H 4825 5100 50  0001 C CNN
	1    4825 5100
	1    0    0    -1  
$EndComp
Text Label 10300 10875 2    50   ~ 0
SCL
Text Label 10300 10775 2    50   ~ 0
SDA
Connection ~ 6125 1850
Wire Wire Line
	6300 1850 6125 1850
Wire Wire Line
	5825 1850 6125 1850
Wire Wire Line
	5825 1725 5825 1850
Wire Wire Line
	5825 1375 5825 1425
$Comp
L SamacSys_Parts:PTS636_SP50_SMTR_LFS S2
U 1 1 6506585C
P 6300 1750
F 0 "S2" H 7028 1746 50  0000 L CNN
F 1 "PTS636_SP50_SMTR_LFS" H 7028 1655 50  0000 L CNN
F 2 "SamacSys_Parts:PTS636SP50SMTRLFS" H 7050 1850 50  0001 L CNN
F 3 "https://componentsearchengine.com/Datasheets/1/PTS636SP50SMTRLFS.pdf" H 7050 1750 50  0001 L CNN
F 4 "Tactile Switches Tact 50mA 12VDC, 6.0x3.5, 5.0mm H, 320gf, G leads, No ground pin, Black Actuator" H 7050 1650 50  0001 L CNN "Description"
F 5 "5.2" H 7050 1550 50  0001 L CNN "Height"
F 6 "611-PTS636SP50SMTRLF" H 7050 1450 50  0001 L CNN "Mouser Part Number"
F 7 "https://www.mouser.co.uk/ProductDetail/CK/PTS636-SP50-SMTR-LFS?qs=vLWxofP3U2yQrwr1QnrRJw%3D%3D" H 7050 1350 50  0001 L CNN "Mouser Price/Stock"
F 8 "C & K COMPONENTS" H 7050 1250 50  0001 L CNN "Manufacturer_Name"
F 9 "PTS636 SP50 SMTR LFS" H 7050 1150 50  0001 L CNN "Manufacturer_Part_Number"
	1    6300 1750
	1    0    0    -1  
$EndComp
$Comp
L power:GND #PWR020
U 1 1 6630E4C4
P 6125 1850
F 0 "#PWR020" H 6125 1600 50  0001 C CNN
F 1 "GND" H 6130 1677 50  0000 C CNN
F 2 "" H 6125 1850 50  0001 C CNN
F 3 "" H 6125 1850 50  0001 C CNN
	1    6125 1850
	1    0    0    -1  
$EndComp
$Comp
L Device:C C27
U 1 1 6630E4BC
P 5825 1575
F 0 "C27" H 5940 1621 50  0000 L CNN
F 1 "0.1uF" H 5940 1530 50  0000 L CNN
F 2 "Capacitor_SMD:C_0603_1608Metric_Pad1.08x0.95mm_HandSolder" H 5863 1425 50  0001 C CNN
F 3 "~" H 5825 1575 50  0001 C CNN
	1    5825 1575
	1    0    0    -1  
$EndComp
$Comp
L Connector:Conn_01x04_Male J1
U 1 1 6521FEE6
P 11500 10675
F 0 "J1" V 11300 10625 50  0000 C CNN
F 1 "Conn_01x04_Male" V 11400 10575 50  0000 C CNN
F 2 "Connector_Molex:Molex_KK-254_AE-6410-04A_1x04_P2.54mm_Vertical" H 11500 10675 50  0001 C CNN
F 3 "~" H 11500 10675 50  0001 C CNN
	1    11500 10675
	-1   0    0    -1  
$EndComp
$Comp
L SamacSys_Parts:STM32F103C8T6TR IC1
U 1 1 6526D757
P 2150 1825
F 0 "IC1" H 2975 725 50  0000 L CNN
F 1 "STM32F103C8T6TR" H 2775 575 50  0000 L CNN
F 2 "SamacSys_Parts:QFP50P900X900X160-48N" H 3800 2325 50  0001 L CNN
F 3 "http://media.digikey.com/pdf/Data%20Sheets/ST%20Microelectronics%20PDFS/STM32F103x8,B.pdf" H 3800 2225 50  0001 L CNN
F 4 "ARM Microcontrollers - MCU 32BIT Cortex M3 USB 7 TIMERS 2 ADCS CAN" H 3800 2125 50  0001 L CNN "Description"
F 5 "1.6" H 3800 2025 50  0001 L CNN "Height"
F 6 "511-STM32F103C8T6TR" H 3800 1925 50  0001 L CNN "Mouser Part Number"
F 7 "https://www.mouser.co.uk/ProductDetail/STMicroelectronics/STM32F103C8T6TR?qs=5HwTSiuA5HDxFj62n06yag%3D%3D" H 3800 1825 50  0001 L CNN "Mouser Price/Stock"
F 8 "STMicroelectronics" H 3800 1725 50  0001 L CNN "Manufacturer_Name"
F 9 "STM32F103C8T6TR" H 3800 1625 50  0001 L CNN "Manufacturer_Part_Number"
	1    2150 1825
	1    0    0    -1  
$EndComp
Text Label 3950 2325 0    50   ~ 0
RX1
Text Label 3950 2425 0    50   ~ 0
TX1
Text Label 3950 2525 0    50   ~ 0
WG_US_Tx_SqW
Text Label 3050 3625 3    50   ~ 0
SIM800_Sleep
Text Label 2450 3625 3    50   ~ 0
MEM_WP
Text Label 3150 3625 3    50   ~ 0
BOOT1
Text Label 3250 3625 3    50   ~ 0
SIM800_TX3
Text Label 3350 3625 3    50   ~ 0
SIM800_RX3
Text Label 2850 1125 1    50   ~ 0
BOOT0
Text Label 2950 1125 1    50   ~ 0
SDA
Text Label 3050 1125 1    50   ~ 0
SCL
Text Label 2150 1825 2    50   ~ 0
VBAT
Text Label 2950 3625 3    50   ~ 0
LED_OUT
Text Label 2150 2025 2    50   ~ 0
OSC32_IN
Text Label 2150 2125 2    50   ~ 0
OSC32_OUT
Text Label 2150 2225 2    50   ~ 0
OSC_IN
Text Label 2150 2325 2    50   ~ 0
OSC_OUT
Text Label 2150 2425 2    50   ~ 0
NRST
Text Label 2750 1125 1    50   ~ 0
MUX_S0
Text Label 2650 1125 1    50   ~ 0
MUX_S1
NoConn ~ 3950 2125
NoConn ~ 3950 2225
NoConn ~ 3950 2625
$Comp
L Device:C C1
U 1 1 654BBCD9
P 1075 2775
F 0 "C1" H 1190 2821 50  0000 L CNN
F 1 "0.1uF" H 1190 2730 50  0000 L CNN
F 2 "Capacitor_SMD:C_0603_1608Metric_Pad1.08x0.95mm_HandSolder" H 1113 2625 50  0001 C CNN
F 3 "~" H 1075 2775 50  0001 C CNN
	1    1075 2775
	1    0    0    -1  
$EndComp
$Comp
L Device:C C6
U 1 1 654DAF5C
P 1375 5225
F 0 "C6" H 1490 5271 50  0000 L CNN
F 1 "0.1uF" H 1490 5180 50  0000 L CNN
F 2 "Capacitor_SMD:C_0603_1608Metric_Pad1.08x0.95mm_HandSolder" H 1413 5075 50  0001 C CNN
F 3 "~" H 1375 5225 50  0001 C CNN
	1    1375 5225
	1    0    0    -1  
$EndComp
$Comp
L Device:C C7
U 1 1 654F99DB
P 1925 5225
F 0 "C7" H 2040 5271 50  0000 L CNN
F 1 "0.1uF" H 2040 5180 50  0000 L CNN
F 2 "Capacitor_SMD:C_0603_1608Metric_Pad1.08x0.95mm_HandSolder" H 1963 5075 50  0001 C CNN
F 3 "~" H 1925 5225 50  0001 C CNN
	1    1925 5225
	1    0    0    -1  
$EndComp
$Comp
L Device:C C9
U 1 1 6551850D
P 2400 5225
F 0 "C9" H 2515 5271 50  0000 L CNN
F 1 "0.1uF" H 2515 5180 50  0000 L CNN
F 2 "Capacitor_SMD:C_0603_1608Metric_Pad1.08x0.95mm_HandSolder" H 2438 5075 50  0001 C CNN
F 3 "~" H 2400 5225 50  0001 C CNN
	1    2400 5225
	1    0    0    -1  
$EndComp
Wire Notes Line
	550  4325 5475 4325
$Comp
L Device:Crystal Y1
U 1 1 655D713E
P 1650 6825
F 0 "Y1" V 1604 6956 50  0000 L CNN
F 1 "8MHz 30pF" V 1695 6956 50  0000 L CNN
F 2 "Crystal:Crystal_SMD_HC49-SD" H 1650 6825 50  0001 C CNN
F 3 "~" H 1650 6825 50  0001 C CNN
	1    1650 6825
	0    1    1    0   
$EndComp
$Comp
L Device:C C2
U 1 1 655D75A0
P 1025 6425
F 0 "C2" H 1140 6471 50  0000 L CNN
F 1 "20pF" H 1140 6380 50  0000 L CNN
F 2 "Capacitor_SMD:C_0603_1608Metric_Pad1.08x0.95mm_HandSolder" H 1063 6275 50  0001 C CNN
F 3 "~" H 1025 6425 50  0001 C CNN
	1    1025 6425
	0    1    1    0   
$EndComp
$Comp
L Device:C C4
U 1 1 655D7895
P 1025 7150
F 0 "C4" H 1140 7196 50  0000 L CNN
F 1 "20pF" H 1140 7105 50  0000 L CNN
F 2 "Capacitor_SMD:C_0603_1608Metric_Pad1.08x0.95mm_HandSolder" H 1063 7000 50  0001 C CNN
F 3 "~" H 1025 7150 50  0001 C CNN
	1    1025 7150
	0    1    1    0   
$EndComp
Wire Wire Line
	875  6425 600  6425
Wire Wire Line
	600  6425 600  7150
Wire Wire Line
	600  7150 875  7150
Wire Wire Line
	1175 6425 1650 6425
Wire Wire Line
	1650 6425 1650 6675
Wire Wire Line
	1650 6975 1650 7150
Wire Wire Line
	1650 7150 1175 7150
Connection ~ 1650 6425
Connection ~ 1650 7150
Text Label 2575 6425 0    50   ~ 0
OSC_IN
Text Label 2575 7150 0    50   ~ 0
OSC_OUT
Wire Wire Line
	3375 6450 3100 6450
Wire Wire Line
	3100 6450 3100 7175
Wire Wire Line
	3100 7175 3375 7175
Wire Wire Line
	3675 6450 4150 6450
Wire Wire Line
	4150 6450 4150 6625
Connection ~ 4150 6450
Text Label 5075 6450 0    50   ~ 0
OSC32_IN
Text Label 5075 7175 0    50   ~ 0
OSC32_OUT
Wire Wire Line
	4150 6450 5075 6450
$Comp
L Connector_Generic:Conn_02x03_Odd_Even J9
U 1 1 65754A75
P 2300 10450
F 0 "J9" H 3200 10900 50  0000 C CNN
F 1 "Conn_02x03_Odd_Even" H 3550 10775 50  0000 C CNN
F 2 "Connector_PinHeader_2.54mm:PinHeader_2x03_P2.54mm_Vertical" H 2300 10450 50  0001 C CNN
F 3 "~" H 2300 10450 50  0001 C CNN
	1    2300 10450
	1    0    0    -1  
$EndComp
$Comp
L Device:R R1
U 1 1 6575507A
P 1575 10450
F 0 "R1" V 1782 10450 50  0000 C CNN
F 1 "10k" V 1691 10450 50  0000 C CNN
F 2 "Resistor_SMD:R_0603_1608Metric_Pad0.98x0.95mm_HandSolder" V 1505 10450 50  0001 C CNN
F 3 "~" H 1575 10450 50  0001 C CNN
	1    1575 10450
	0    1    1    0   
$EndComp
$Comp
L Device:R R5
U 1 1 6575615C
P 3050 10450
F 0 "R5" V 3257 10450 50  0000 C CNN
F 1 "10k" V 3166 10450 50  0000 C CNN
F 2 "Resistor_SMD:R_0603_1608Metric_Pad0.98x0.95mm_HandSolder" V 2980 10450 50  0001 C CNN
F 3 "~" H 3050 10450 50  0001 C CNN
	1    3050 10450
	0    1    1    0   
$EndComp
Wire Wire Line
	2350 10050 2350 10175
Wire Wire Line
	2350 10175 1950 10175
Wire Wire Line
	1950 10175 1950 10350
Wire Wire Line
	1950 10350 2100 10350
Wire Wire Line
	2350 10175 2750 10175
Wire Wire Line
	2750 10175 2750 10350
Wire Wire Line
	2750 10350 2600 10350
Connection ~ 2350 10175
Wire Wire Line
	2100 10450 1725 10450
Wire Wire Line
	2600 10450 2900 10450
Text Label 1150 10450 2    50   ~ 0
BOOT0
Wire Wire Line
	1150 10450 1425 10450
Text Label 3600 10450 0    50   ~ 0
BOOT1
Wire Wire Line
	3200 10450 3600 10450
$Comp
L power:GND #PWR01
U 1 1 6583CBBE
P 2350 10900
F 0 "#PWR01" H 2350 10650 50  0001 C CNN
F 1 "GND" H 2355 10727 50  0000 C CNN
F 2 "" H 2350 10900 50  0001 C CNN
F 3 "" H 2350 10900 50  0001 C CNN
	1    2350 10900
	1    0    0    -1  
$EndComp
Wire Wire Line
	2100 10550 2100 10900
Wire Wire Line
	2100 10900 2350 10900
Wire Wire Line
	2350 10900 2600 10900
Wire Wire Line
	2600 10900 2600 10550
Connection ~ 2350 10900
$Comp
L SamacSys_Parts:AT24C512C-SSHD-T IC3
U 1 1 658B671E
P 5850 10525
F 0 "IC3" H 6350 10790 50  0000 C CNN
F 1 "AT24C512C-SSHD-T" H 6350 10699 50  0000 C CNN
F 2 "SamacSys_Parts:SOIC127P600X175-8N" H 6700 10625 50  0001 L CNN
F 3 "http://www.atmel.com/images/atmel-8720-seeprom-at24c512c-datasheet.pdf" H 6700 10525 50  0001 L CNN
F 4 "I2C-Compatible (2-wire) Serial EEPROM" H 6700 10425 50  0001 L CNN "Description"
F 5 "1.75" H 6700 10325 50  0001 L CNN "Height"
F 6 "556-AT24C512C-SSHD-T" H 6700 10225 50  0001 L CNN "Mouser Part Number"
F 7 "https://www.mouser.co.uk/ProductDetail/Microchip-Technology/AT24C512C-SSHD-T?qs=Oaf4mloV4cM7Q6xetGfOtg%3D%3D" H 6700 10125 50  0001 L CNN "Mouser Price/Stock"
F 8 "Microchip" H 6700 10025 50  0001 L CNN "Manufacturer_Name"
F 9 "AT24C512C-SSHD-T" H 6700 9925 50  0001 L CNN "Manufacturer_Part_Number"
	1    5850 10525
	1    0    0    -1  
$EndComp
Text Label 7125 10825 0    50   ~ 0
SDA
Wire Wire Line
	6850 10825 7125 10825
Wire Wire Line
	6850 10725 7125 10725
Text Label 7125 10725 0    50   ~ 0
SCL
Wire Wire Line
	5850 10525 5850 10625
Wire Wire Line
	5850 10625 5850 10725
Connection ~ 5850 10625
Wire Wire Line
	5850 10725 5850 10825
Connection ~ 5850 10725
$Comp
L power:GND #PWR02
U 1 1 65A4CAF2
P 5650 10825
F 0 "#PWR02" H 5650 10575 50  0001 C CNN
F 1 "GND" H 5655 10652 50  0000 C CNN
F 2 "" H 5650 10825 50  0001 C CNN
F 3 "" H 5650 10825 50  0001 C CNN
	1    5650 10825
	1    0    0    -1  
$EndComp
Wire Wire Line
	5650 10825 5850 10825
Connection ~ 5850 10825
Wire Wire Line
	6850 10075 6850 10525
$Comp
L Device:C C13
U 1 1 65AA0077
P 6975 10225
F 0 "C13" H 7090 10271 50  0000 L CNN
F 1 "0.1uF" H 7090 10180 50  0000 L CNN
F 2 "Capacitor_SMD:C_0603_1608Metric_Pad1.08x0.95mm_HandSolder" H 7013 10075 50  0001 C CNN
F 3 "~" H 6975 10225 50  0001 C CNN
	1    6975 10225
	1    0    0    -1  
$EndComp
Connection ~ 6975 10075
Wire Wire Line
	6975 10075 6850 10075
$Comp
L power:GND #PWR05
U 1 1 65AA0C22
P 6975 10375
F 0 "#PWR05" H 6975 10125 50  0001 C CNN
F 1 "GND" H 7150 10300 50  0000 C CNN
F 2 "" H 6975 10375 50  0001 C CNN
F 3 "" H 6975 10375 50  0001 C CNN
	1    6975 10375
	1    0    0    -1  
$EndComp
Text Label 7550 10625 0    50   ~ 0
MEM_WP
$Comp
L Device:R R21
U 1 1 65AF5CBC
P 7425 10325
F 0 "R21" V 7632 10325 50  0000 C CNN
F 1 "10k" V 7541 10325 50  0000 C CNN
F 2 "Resistor_SMD:R_0603_1608Metric_Pad0.98x0.95mm_HandSolder" V 7355 10325 50  0001 C CNN
F 3 "~" H 7425 10325 50  0001 C CNN
	1    7425 10325
	1    0    0    -1  
$EndComp
Wire Wire Line
	6850 10625 7425 10625
Connection ~ 7425 10625
Wire Wire Line
	7425 10625 7550 10625
Wire Wire Line
	7425 10475 7425 10625
Wire Wire Line
	6975 10075 7200 10075
Wire Wire Line
	7425 10175 7425 10075
Text Label 6575 1375 0    50   ~ 0
NRST
Wire Wire Line
	6300 1375 6300 1750
Wire Wire Line
	6300 1375 6575 1375
Connection ~ 6300 1375
$Comp
L Device:LED D2
U 1 1 65CA3DA1
P 6775 3300
F 0 "D2" H 6768 3045 50  0000 C CNN
F 1 "LED" H 6768 3136 50  0000 C CNN
F 2 "LED_SMD:LED_0603_1608Metric_Pad1.05x0.95mm_HandSolder" H 6775 3300 50  0001 C CNN
F 3 "~" H 6775 3300 50  0001 C CNN
	1    6775 3300
	0    -1   -1   0   
$EndComp
$Comp
L Device:R R6
U 1 1 65CA3DA8
P 6775 3600
F 0 "R6" H 6705 3554 50  0000 R CNN
F 1 "510" H 6705 3645 50  0000 R CNN
F 2 "Resistor_SMD:R_0603_1608Metric_Pad0.98x0.95mm_HandSolder" V 6705 3600 50  0001 C CNN
F 3 "~" H 6775 3600 50  0001 C CNN
	1    6775 3600
	-1   0    0    1   
$EndComp
Wire Wire Line
	6775 3075 6775 3150
Wire Wire Line
	6775 3750 6775 3950
$Comp
L Device:Battery_Cell BT1
U 1 1 65D4A84F
P 5075 8650
F 0 "BT1" H 5193 8746 50  0000 L CNN
F 1 "CR2032" H 5193 8655 50  0000 L CNN
F 2 "KiCAD libraries:Vertical_CR2302_holder" V 5075 8710 50  0001 C CNN
F 3 "~" V 5075 8710 50  0001 C CNN
	1    5075 8650
	1    0    0    -1  
$EndComp
$Comp
L power:GND #PWR04
U 1 1 65D4A855
P 5075 8925
F 0 "#PWR04" H 5075 8675 50  0001 C CNN
F 1 "GND" H 5080 8752 50  0000 C CNN
F 2 "" H 5075 8925 50  0001 C CNN
F 3 "" H 5075 8925 50  0001 C CNN
	1    5075 8925
	1    0    0    -1  
$EndComp
Wire Wire Line
	5075 8750 5075 8925
Text Label 5075 8350 2    50   ~ 0
VBAT
Wire Wire Line
	5075 8350 5075 8450
Wire Notes Line
	4475 11125 4500 11125
Wire Notes Line
	4525 9600 8000 9600
Wire Notes Line
	5525 600  5525 9575
Wire Notes Line
	4450 9600 4450 11200
Wire Notes Line
	4450 11200 4475 11200
Text Label 2650 3625 3    50   ~ 0
SPI_SCK
Text Label 2750 3625 3    50   ~ 0
SPI_MISO
Text Label 2850 3625 3    50   ~ 0
SPI_MOSI
Text Label 6775 3950 0    50   ~ 0
LED_OUT
Text Label 2550 3625 3    50   ~ 0
SPI_CS1
Wire Wire Line
	10300 10875 11300 10875
Wire Wire Line
	10300 10775 11300 10775
Text Label 4275 5750 2    50   ~ 0
SCL
Text Label 4275 5425 2    50   ~ 0
SDA
Wire Wire Line
	4525 4825 4675 4825
Wire Wire Line
	4675 4775 4675 4825
Connection ~ 4675 4825
Wire Wire Line
	4675 4825 4825 4825
Wire Wire Line
	4525 5250 4525 5425
Wire Notes Line
	3400 4350 3400 5925
Wire Notes Line
	9850 9950 9850 11200
Wire Notes Line
	4675 7800 4675 9550
$Comp
L power:GND #PWR018
U 1 1 6535F9E7
P 7525 8275
F 0 "#PWR018" H 7525 8025 50  0001 C CNN
F 1 "GND" H 7530 8102 50  0000 C CNN
F 2 "" H 7525 8275 50  0001 C CNN
F 3 "" H 7525 8275 50  0001 C CNN
	1    7525 8275
	1    0    0    -1  
$EndComp
Text Label 6600 8475 0    50   ~ 0
SPI_MOSI
Text Label 6600 8575 0    50   ~ 0
SPI_MISO
Text Label 6600 8675 0    50   ~ 0
SPI_SCK
Text Label 6600 8775 0    50   ~ 0
SPI_CS1
Wire Wire Line
	2450 775  2450 950 
Wire Wire Line
	1650 950  2450 950 
Connection ~ 2450 950 
Wire Wire Line
	2450 950  2450 1125
Wire Notes Line
	2875 4325 2875 5925
$Comp
L Device:C C12
U 1 1 656E4628
P 3525 7175
F 0 "C12" H 3640 7221 50  0000 L CNN
F 1 "10pF" H 3640 7130 50  0000 L CNN
F 2 "Capacitor_SMD:C_0603_1608Metric_Pad1.08x0.95mm_HandSolder" H 3563 7025 50  0001 C CNN
F 3 "~" H 3525 7175 50  0001 C CNN
	1    3525 7175
	0    1    1    0   
$EndComp
$Comp
L Device:C C10
U 1 1 656E4622
P 3525 6450
F 0 "C10" H 3640 6496 50  0000 L CNN
F 1 "10pF" H 3640 6405 50  0000 L CNN
F 2 "Capacitor_SMD:C_0603_1608Metric_Pad1.08x0.95mm_HandSolder" H 3563 6300 50  0001 C CNN
F 3 "~" H 3525 6450 50  0001 C CNN
	1    3525 6450
	0    1    1    0   
$EndComp
$Comp
L power:GND #PWR0102
U 1 1 654AE3C2
P 600 7325
F 0 "#PWR0102" H 600 7075 50  0001 C CNN
F 1 "GND" H 605 7152 50  0000 C CNN
F 2 "" H 600 7325 50  0001 C CNN
F 3 "" H 600 7325 50  0001 C CNN
	1    600  7325
	1    0    0    -1  
$EndComp
Wire Wire Line
	600  7325 600  7150
Connection ~ 600  7150
Wire Wire Line
	5825 1375 6300 1375
Text Notes 5875 1225 0    50   ~ 0
Reset circuit
Wire Wire Line
	4825 5250 4825 5750
Wire Wire Line
	4275 5425 4525 5425
Wire Wire Line
	4275 5750 4825 5750
NoConn ~ 3450 1125
Wire Wire Line
	6600 8275 7525 8275
$Comp
L Connector:Conn_01x06_Female J13
U 1 1 65709A15
P 6400 8475
F 0 "J13" H 6292 8860 50  0000 C CNN
F 1 "Conn_01x06_Female" H 6292 8769 50  0000 C CNN
F 2 "Connector_PinHeader_2.54mm:PinHeader_1x06_P2.54mm_Vertical" H 6400 8475 50  0001 C CNN
F 3 "~" H 6400 8475 50  0001 C CNN
	1    6400 8475
	-1   0    0    -1  
$EndComp
Wire Notes Line
	16100 500  16100 11325
Wire Notes Line
	16100 11325 650  11325
Text Label 3950 2825 0    50   ~ 0
WG_US_Tx_SqWN
Text Label 3950 2725 0    50   ~ 0
WG_Enable
$Sheet
S 1425 8300 2100 1150
U 6906B3BE
F0 "PS" 50
F1 "Power_supply.sch" 50
$EndSheet
Text Label 3250 1125 1    50   ~ 0
RG_Freq_SqW
Text Label 3350 1125 1    50   ~ 0
RG_Enable
$Sheet
S 9550 3300 725  550 
U 69125121
F0 "US_Transmitter" 50
F1 "WG_US_Transmitter.sch" 50
F2 "US_Tx_SqW" I L 9550 3575 50 
F3 "US_Tx_SqWN" I L 9550 3700 50 
$EndSheet
Text GLabel 1750 4775 1    50   Input ~ 0
3.3V
Wire Wire Line
	1375 5075 1750 5075
Wire Wire Line
	1925 5075 2400 5075
Connection ~ 1925 5075
Wire Wire Line
	1750 4775 1750 5075
Connection ~ 1750 5075
Wire Wire Line
	1750 5075 1925 5075
$Comp
L power:GND #PWR07
U 1 1 693FD180
P 1575 5525
F 0 "#PWR07" H 1575 5275 50  0001 C CNN
F 1 "GND" H 1580 5352 50  0000 C CNN
F 2 "" H 1575 5525 50  0001 C CNN
F 3 "" H 1575 5525 50  0001 C CNN
	1    1575 5525
	1    0    0    -1  
$EndComp
Wire Wire Line
	1375 5375 1375 5525
Wire Wire Line
	1375 5525 1575 5525
Wire Wire Line
	1575 5525 1925 5525
Wire Wire Line
	1925 5525 1925 5375
Connection ~ 1575 5525
Wire Wire Line
	1925 5525 2400 5525
Wire Wire Line
	2400 5525 2400 5375
Connection ~ 1925 5525
Text GLabel 4675 4775 1    50   Input ~ 0
3.3V
Text GLabel 7000 6475 2    50   Input ~ 0
3.3V
Wire Wire Line
	6875 6575 6875 6475
Wire Wire Line
	6875 6475 7000 6475
Text GLabel 7450 8575 2    50   Input ~ 0
3.3V
Wire Wire Line
	6600 8375 7325 8375
Wire Wire Line
	7325 8375 7325 8575
Wire Wire Line
	7325 8575 7450 8575
Text GLabel 2350 10050 1    50   Input ~ 0
3.3V
Text GLabel 7200 9925 1    50   Input ~ 0
3.3V
Wire Wire Line
	7200 9925 7200 10075
Connection ~ 7200 10075
Wire Wire Line
	7200 10075 7425 10075
Text GLabel 10075 10450 1    50   Input ~ 0
3.3V
Wire Wire Line
	10075 10450 10075 10675
Wire Wire Line
	10075 10675 11300 10675
Text GLabel 9000 10025 2    50   Input ~ 0
5V
Wire Wire Line
	9000 10025 9000 10125
Text GLabel 13925 8400 0    50   Input ~ 0
4.1V
Text GLabel 6775 3075 1    50   Input ~ 0
3.3V
Text GLabel 2450 775  1    50   Input ~ 0
3.3V
Wire Wire Line
	4550 1650 4550 1825
Text GLabel 4550 1650 1    50   Input ~ 0
3.3V
$Comp
L power:GND #PWR011
U 1 1 694D1F57
P 4550 1925
F 0 "#PWR011" H 4550 1675 50  0001 C CNN
F 1 "GND" H 4555 1752 50  0000 C CNN
F 2 "" H 4550 1925 50  0001 C CNN
F 3 "" H 4550 1925 50  0001 C CNN
	1    4550 1925
	1    0    0    -1  
$EndComp
Wire Wire Line
	3950 1925 4550 1925
Text GLabel 4050 3625 2    50   Input ~ 0
3.3V
$Comp
L power:GND #PWR09
U 1 1 694E95FD
P 4050 3800
F 0 "#PWR09" H 4050 3550 50  0001 C CNN
F 1 "GND" H 4055 3627 50  0000 C CNN
F 2 "" H 4050 3800 50  0001 C CNN
F 3 "" H 4050 3800 50  0001 C CNN
	1    4050 3800
	1    0    0    -1  
$EndComp
Wire Wire Line
	3450 3800 4050 3800
Wire Wire Line
	3450 3625 3450 3800
Text GLabel 1175 2425 0    50   Input ~ 0
3.3V
$Comp
L power:GND #PWR06
U 1 1 6954402C
P 1650 1250
F 0 "#PWR06" H 1650 1000 50  0001 C CNN
F 1 "GND" H 1655 1077 50  0000 C CNN
F 2 "" H 1650 1250 50  0001 C CNN
F 3 "" H 1650 1250 50  0001 C CNN
	1    1650 1250
	1    0    0    -1  
$EndComp
$Comp
L power:GND #PWR08
U 1 1 6954CFA2
P 1325 1050
F 0 "#PWR08" H 1325 800 50  0001 C CNN
F 1 "GND" H 1325 900 50  0000 C CNN
F 2 "" H 1325 1050 50  0001 C CNN
F 3 "" H 1325 1050 50  0001 C CNN
	1    1325 1050
	1    0    0    -1  
$EndComp
Wire Wire Line
	2550 1125 2550 850 
Wire Wire Line
	3950 1825 4550 1825
Wire Wire Line
	3550 3625 4050 3625
$Comp
L SamacSys_Parts:74HC4052D,653 IC4
U 1 1 69579CAC
P 13400 1125
F 0 "IC4" H 13900 1390 50  0000 C CNN
F 1 "74HC4052D,653" H 13900 1299 50  0000 C CNN
F 2 "SamacSys_Parts:SOIC127P600X175-16N" H 14250 1225 50  0001 L CNN
F 3 "https://assets.nexperia.com/documents/data-sheet/74HC_HCT4052.pdf" H 14250 1125 50  0001 L CNN
F 4 "74HC(T)4052 - Dual 4-channel analog multiplexer/demultiplexer@en-us" H 14250 1025 50  0001 L CNN "Description"
F 5 "1.75" H 14250 925 50  0001 L CNN "Height"
F 6 "771-74HC4052D-T" H 14250 825 50  0001 L CNN "Mouser Part Number"
F 7 "https://www.mouser.co.uk/ProductDetail/Nexperia/74HC4052D653?qs=P62ublwmbi9dOtwH%252Bhrppg%3D%3D" H 14250 725 50  0001 L CNN "Mouser Price/Stock"
F 8 "Nexperia" H 14250 625 50  0001 L CNN "Manufacturer_Name"
F 9 "74HC4052D,653" H 14250 525 50  0001 L CNN "Manufacturer_Part_Number"
	1    13400 1125
	1    0    0    -1  
$EndComp
Text Label 14800 1525 0    50   ~ 0
WG_US_Rx_Raw_N
Wire Wire Line
	14800 1525 14400 1525
Text Label 14800 1325 0    50   ~ 0
WG_US_Rx_Raw_SE
Wire Wire Line
	14800 1325 14400 1325
Text Label 14800 1225 0    50   ~ 0
WG_US_Rx_Raw_SW
Wire Wire Line
	14800 1225 14400 1225
Text Label 14800 1425 0    50   ~ 0
WG_US_Rx_Raw
Wire Wire Line
	14800 1425 14400 1425
Text Label 9175 6850 2    50   ~ 0
WG_US_Rx_Raw
Text Label 11075 6850 0    50   ~ 0
WG_US_Rx_Filt_Amp
Text Label 13000 1125 2    50   ~ 0
RG_Raw_RefC
Text Label 13000 1525 2    50   ~ 0
RG_Raw_EnvC
Text Label 13000 1225 2    50   ~ 0
RG_Raw_MainC
NoConn ~ 13400 1425
NoConn ~ 14400 1625
Text Label 13000 1325 2    50   ~ 0
RG_Raw
$Comp
L SamacSys_Parts:LM393BIDR IC2
U 1 1 69628FAB
P 12750 4475
F 0 "IC2" H 13400 4740 50  0000 C CNN
F 1 "LM393BIDR" H 13400 4649 50  0000 C CNN
F 2 "SamacSys_Parts:SOIC127P600X175-8N" H 13900 4575 50  0001 L CNN
F 3 "https://www.ti.com/lit/gpn/LM393B" H 13900 4475 50  0001 L CNN
F 4 "Analog Comparators Dual standard comparator 8-SOIC -40 to 85" H 13900 4375 50  0001 L CNN "Description"
F 5 "1.75" H 13900 4275 50  0001 L CNN "Height"
F 6 "595-LM393BIDR" H 13900 4175 50  0001 L CNN "Mouser Part Number"
F 7 "https://www.mouser.co.uk/ProductDetail/Texas-Instruments/LM393BIDR?qs=BJlw7L4Cy78N8CV%252BGpRosA%3D%3D" H 13900 4075 50  0001 L CNN "Mouser Price/Stock"
F 8 "Texas Instruments" H 13900 3975 50  0001 L CNN "Manufacturer_Name"
F 9 "LM393BIDR" H 13900 3875 50  0001 L CNN "Manufacturer_Part_Number"
	1    12750 4475
	1    0    0    -1  
$EndComp
Text Label 14725 5325 0    50   ~ 0
RG_Raw
Wire Wire Line
	14250 4675 14050 4675
$Comp
L Device:R R12
U 1 1 69641584
P 15225 5025
AR Path="/69641584" Ref="R12"  Part="1" 
AR Path="/692C545E/69641584" Ref="R?"  Part="1" 
F 0 "R12" H 15350 5050 50  0000 C CNN
F 1 "1.5k" H 15375 4950 50  0000 C CNN
F 2 "Resistor_SMD:R_0603_1608Metric_Pad0.98x0.95mm_HandSolder" V 15155 5025 50  0001 C CNN
F 3 "~" H 15225 5025 50  0001 C CNN
	1    15225 5025
	1    0    0    -1  
$EndComp
$Comp
L Device:R R11
U 1 1 6964158B
P 15225 4625
AR Path="/6964158B" Ref="R11"  Part="1" 
AR Path="/692C545E/6964158B" Ref="R?"  Part="1" 
F 0 "R11" H 15350 4650 50  0000 C CNN
F 1 "1.5k" H 15375 4550 50  0000 C CNN
F 2 "Resistor_SMD:R_0603_1608Metric_Pad0.98x0.95mm_HandSolder" V 15155 4625 50  0001 C CNN
F 3 "~" H 15225 4625 50  0001 C CNN
	1    15225 4625
	1    0    0    -1  
$EndComp
$Comp
L power:GND #PWR016
U 1 1 69641593
P 15225 5175
AR Path="/69641593" Ref="#PWR016"  Part="1" 
AR Path="/692C545E/69641593" Ref="#PWR?"  Part="1" 
F 0 "#PWR016" H 15225 4925 50  0001 C CNN
F 1 "GND" H 15230 5002 50  0000 C CNN
F 2 "" H 15225 5175 50  0001 C CNN
F 3 "" H 15225 5175 50  0001 C CNN
	1    15225 5175
	1    0    0    -1  
$EndComp
$Comp
L Device:R R10
U 1 1 69672005
P 14875 4725
AR Path="/69672005" Ref="R10"  Part="1" 
AR Path="/692C545E/69672005" Ref="R?"  Part="1" 
F 0 "R10" H 15000 4750 50  0000 C CNN
F 1 "1.5k" H 15025 4650 50  0000 C CNN
F 2 "Resistor_SMD:R_0603_1608Metric_Pad0.98x0.95mm_HandSolder" V 14805 4725 50  0001 C CNN
F 3 "~" H 14875 4725 50  0001 C CNN
	1    14875 4725
	1    0    0    -1  
$EndComp
Wire Wire Line
	14875 4875 15225 4875
Connection ~ 15225 4875
$Comp
L Device:R R8
U 1 1 69685E79
P 14425 5100
AR Path="/69685E79" Ref="R8"  Part="1" 
AR Path="/692C545E/69685E79" Ref="R?"  Part="1" 
F 0 "R8" H 14550 5125 50  0000 C CNN
F 1 "10k" H 14575 5025 50  0000 C CNN
F 2 "Resistor_SMD:R_0603_1608Metric_Pad0.98x0.95mm_HandSolder" V 14355 5100 50  0001 C CNN
F 3 "~" H 14425 5100 50  0001 C CNN
	1    14425 5100
	1    0    0    -1  
$EndComp
Wire Wire Line
	14050 4575 14225 4575
Wire Wire Line
	14625 4775 14625 4875
Wire Wire Line
	14625 4875 14875 4875
Connection ~ 14875 4875
Wire Wire Line
	15225 4775 15225 4875
Wire Wire Line
	14425 5250 14425 5325
Wire Notes Line
	14675 5350 14675 5475
Wire Notes Line
	14600 5475 14750 5475
Wire Notes Line
	14600 5525 14725 5525
Wire Notes Line
	14675 5525 14675 5700
Wire Notes Line
	14625 5700 14700 5700
Wire Notes Line
	14650 5725 14675 5725
Text Label 14875 4125 0    50   ~ 0
RG_Freq_SqW
Wire Wire Line
	14875 4575 14875 4350
Connection ~ 14875 4575
Text Label 12275 4675 2    50   ~ 0
WG_US_Rx_Filt_Amp
Wire Wire Line
	12750 4675 12275 4675
Wire Wire Line
	12525 4775 12750 4775
$Comp
L power:GND #PWR013
U 1 1 6973864D
P 12525 5050
AR Path="/6973864D" Ref="#PWR013"  Part="1" 
AR Path="/692C545E/6973864D" Ref="#PWR?"  Part="1" 
F 0 "#PWR013" H 12525 4800 50  0001 C CNN
F 1 "GND" H 12530 4877 50  0000 C CNN
F 2 "" H 12525 5050 50  0001 C CNN
F 3 "" H 12525 5050 50  0001 C CNN
	1    12525 5050
	1    0    0    -1  
$EndComp
Wire Wire Line
	12525 4775 12525 5050
Connection ~ 12525 4775
Text Label 12275 4475 2    50   ~ 0
WG_US_Rx_SqW
Wire Wire Line
	12750 4475 12625 4475
$Comp
L Device:R R4
U 1 1 6974FBB5
P 12625 4200
AR Path="/6974FBB5" Ref="R4"  Part="1" 
AR Path="/692C545E/6974FBB5" Ref="R?"  Part="1" 
F 0 "R4" V 12832 4200 50  0000 C CNN
F 1 "4.7k" V 12741 4200 50  0000 C CNN
F 2 "Resistor_SMD:R_0603_1608Metric_Pad0.98x0.95mm_HandSolder" V 12555 4200 50  0001 C CNN
F 3 "~" H 12625 4200 50  0001 C CNN
	1    12625 4200
	1    0    0    -1  
$EndComp
$Comp
L Device:R R7
U 1 1 6976583F
P 14225 4200
AR Path="/6976583F" Ref="R7"  Part="1" 
AR Path="/692C545E/6976583F" Ref="R?"  Part="1" 
F 0 "R7" V 14432 4200 50  0000 C CNN
F 1 "4.7k" V 14341 4200 50  0000 C CNN
F 2 "Resistor_SMD:R_0603_1608Metric_Pad0.98x0.95mm_HandSolder" V 14155 4200 50  0001 C CNN
F 3 "~" H 14225 4200 50  0001 C CNN
	1    14225 4200
	1    0    0    -1  
$EndComp
Wire Wire Line
	14225 4575 14225 4350
Connection ~ 14225 4575
Wire Wire Line
	12625 4475 12625 4350
Connection ~ 12625 4475
Wire Wire Line
	12625 3275 13425 3275
Text GLabel 13450 3125 2    50   Input ~ 0
3.3V
Wire Wire Line
	13450 3125 13425 3125
Wire Wire Line
	13425 3125 13425 3275
Connection ~ 13425 3275
Wire Wire Line
	13425 3275 13750 3275
Wire Wire Line
	12525 4575 12750 4575
Wire Wire Line
	12525 4575 12525 4775
$Comp
L Device:R R9
U 1 1 6980EE86
P 14575 3725
AR Path="/6980EE86" Ref="R9"  Part="1" 
AR Path="/69125121/6980EE86" Ref="R?"  Part="1" 
AR Path="/692C545E/6980EE86" Ref="R?"  Part="1" 
F 0 "R9" V 14675 3675 50  0000 C CNN
F 1 "1k" V 14475 3700 50  0000 C CNN
F 2 "Resistor_SMD:R_0603_1608Metric_Pad0.98x0.95mm_HandSolder" V 14505 3725 50  0001 C CNN
F 3 "~" H 14575 3725 50  0001 C CNN
	1    14575 3725
	0    1    1    0   
$EndComp
Wire Wire Line
	14850 3725 14725 3725
$Comp
L 2N2222A:2N2222A_SOT23 Q3
U 1 1 6980EE93
P 14325 3725
AR Path="/6980EE93" Ref="Q3"  Part="1" 
AR Path="/69125121/6980EE93" Ref="Q?"  Part="1" 
AR Path="/692C545E/6980EE93" Ref="Q?"  Part="1" 
F 0 "Q3" H 14524 3771 50  0000 L CNN
F 1 "2N2222A_SOT23" H 14524 3680 50  0000 L CNN
F 2 "SamacSys_Parts:SOT96P237X111-3N" H 14325 3725 50  0001 L BNN
F 3 "" H 14325 3725 50  0001 L BNN
F 4 "N/A" H 14325 3725 50  0001 L BNN "PARTREV"
F 5 "7.5 mm" H 14325 3725 50  0001 L BNN "MAXIMUM_PACKAGE_HEIGHT"
F 6 "121774" H 14325 3725 50  0001 L BNN "SNAPEDA_PACKAGE_ID"
F 7 "IPC 7351B" H 14325 3725 50  0001 L BNN "STANDARD"
F 8 "Diotec Semiconductor" H 14325 3725 50  0001 L BNN "MANUFACTURER"
	1    14325 3725
	-1   0    0    -1  
$EndComp
Wire Wire Line
	14425 5325 14725 5325
Connection ~ 14425 5325
Wire Wire Line
	14225 4575 14425 4575
Wire Wire Line
	14050 4775 14625 4775
Connection ~ 14425 4575
Wire Wire Line
	14425 4575 14875 4575
Wire Wire Line
	14250 4675 14250 5325
Wire Wire Line
	14250 5325 14425 5325
Wire Wire Line
	14425 4575 14425 4950
Wire Wire Line
	12625 3275 12625 4050
Wire Wire Line
	14225 3275 14225 3525
Text Label 14800 1725 0    50   ~ 0
MUX_S0
Wire Wire Line
	14800 1725 14400 1725
Text Label 14800 1825 0    50   ~ 0
MUX_S1
Wire Wire Line
	14800 1825 14400 1825
Wire Wire Line
	13400 1125 13000 1125
Wire Wire Line
	13400 1225 13000 1225
Wire Wire Line
	13400 1325 13000 1325
Wire Wire Line
	13400 1525 13000 1525
Wire Notes Line
	11575 2725 11575 5950
Wire Notes Line
	11575 5950 15950 5950
Wire Notes Line
	11525 2700 8150 2700
Wire Notes Line
	8150 3975 8150 3950
Text GLabel 14425 700  1    50   Input ~ 0
3.3V
Wire Wire Line
	14425 700  14425 750 
Wire Wire Line
	14425 1125 14400 1125
$Comp
L Device:C C3
U 1 1 69B06DBF
P 14900 750
F 0 "C3" V 14700 700 50  0000 L CNN
F 1 "0.1uF" V 14775 650 50  0000 L CNN
F 2 "Capacitor_SMD:C_0603_1608Metric_Pad1.08x0.95mm_HandSolder" H 14938 600 50  0001 C CNN
F 3 "~" H 14900 750 50  0001 C CNN
	1    14900 750 
	0    1    1    0   
$EndComp
Wire Wire Line
	14425 750  14750 750 
$Comp
L power:GND #PWR015
U 1 1 69B13A55
P 15150 850
F 0 "#PWR015" H 15150 600 50  0001 C CNN
F 1 "GND" H 15155 677 50  0000 C CNN
F 2 "" H 15150 850 50  0001 C CNN
F 3 "" H 15150 850 50  0001 C CNN
	1    15150 850 
	1    0    0    -1  
$EndComp
Wire Wire Line
	15050 750  15150 750 
Wire Wire Line
	15150 750  15150 850 
Connection ~ 14425 750 
Wire Wire Line
	14425 750  14425 1125
$Comp
L power:GND #PWR014
U 1 1 69B2D27C
P 13150 2050
F 0 "#PWR014" H 13150 1800 50  0001 C CNN
F 1 "GND" H 13155 1877 50  0000 C CNN
F 2 "" H 13150 2050 50  0001 C CNN
F 3 "" H 13150 2050 50  0001 C CNN
	1    13150 2050
	1    0    0    -1  
$EndComp
Wire Wire Line
	13400 1825 13150 1825
Wire Wire Line
	13150 1825 13150 2050
Wire Wire Line
	13400 1725 13150 1725
Wire Wire Line
	13150 1725 13150 1825
Connection ~ 13150 1825
Wire Wire Line
	13400 1625 13150 1625
Wire Wire Line
	13150 1625 13150 1725
Connection ~ 13150 1725
Text Label 14850 3725 0    50   ~ 0
RG_Enable
Text Label 9225 3575 2    50   ~ 0
WG_US_Tx_SqW
Text Label 9225 3700 2    50   ~ 0
WG_US_Tx_SqWN
Wire Wire Line
	9550 3700 9225 3700
Wire Wire Line
	9550 3575 9225 3575
$Comp
L Device:R R3
U 1 1 69BC6237
P 9025 1500
AR Path="/69BC6237" Ref="R3"  Part="1" 
AR Path="/69125121/69BC6237" Ref="R?"  Part="1" 
F 0 "R3" V 9125 1450 50  0000 C CNN
F 1 "1k" V 8925 1475 50  0000 C CNN
F 2 "Resistor_SMD:R_0603_1608Metric_Pad0.98x0.95mm_HandSolder" V 8955 1500 50  0001 C CNN
F 3 "~" H 9025 1500 50  0001 C CNN
	1    9025 1500
	0    -1   1    0   
$EndComp
Wire Wire Line
	8750 1500 8875 1500
Wire Wire Line
	9800 675  9800 850 
$Comp
L 2N2222A:2N2222A_SOT23 Q1
U 1 1 69BC6244
P 9700 1050
AR Path="/69BC6244" Ref="Q1"  Part="1" 
AR Path="/69125121/69BC6244" Ref="Q?"  Part="1" 
F 0 "Q1" H 9899 1096 50  0000 L CNN
F 1 "2N2222A_SOT23" H 9899 1005 50  0000 L CNN
F 2 "SamacSys_Parts:SOT96P237X111-3N" H 9700 1050 50  0001 L BNN
F 3 "" H 9700 1050 50  0001 L BNN
F 4 "N/A" H 9700 1050 50  0001 L BNN "PARTREV"
F 5 "7.5 mm" H 9700 1050 50  0001 L BNN "MAXIMUM_PACKAGE_HEIGHT"
F 6 "121774" H 9700 1050 50  0001 L BNN "SNAPEDA_PACKAGE_ID"
F 7 "IPC 7351B" H 9700 1050 50  0001 L BNN "STANDARD"
F 8 "Diotec Semiconductor" H 9700 1050 50  0001 L BNN "MANUFACTURER"
	1    9700 1050
	1    0    0    -1  
$EndComp
Wire Wire Line
	9800 1250 9800 1450
Wire Wire Line
	9800 1450 9925 1450
Text GLabel 9625 675  0    50   Input ~ 0
5V
Wire Wire Line
	9625 675  9800 675 
Text GLabel 9925 1450 2    50   Output ~ 0
WG_US_Power_5V
Wire Wire Line
	9800 1700 9800 1875
$Comp
L 2N2222A:2N2222A_SOT23 Q2
U 1 1 69BFA643
P 9700 2075
AR Path="/69BFA643" Ref="Q2"  Part="1" 
AR Path="/69125121/69BFA643" Ref="Q?"  Part="1" 
F 0 "Q2" H 9899 2121 50  0000 L CNN
F 1 "2N2222A_SOT23" H 9899 2030 50  0000 L CNN
F 2 "SamacSys_Parts:SOT96P237X111-3N" H 9700 2075 50  0001 L BNN
F 3 "" H 9700 2075 50  0001 L BNN
F 4 "N/A" H 9700 2075 50  0001 L BNN "PARTREV"
F 5 "7.5 mm" H 9700 2075 50  0001 L BNN "MAXIMUM_PACKAGE_HEIGHT"
F 6 "121774" H 9700 2075 50  0001 L BNN "SNAPEDA_PACKAGE_ID"
F 7 "IPC 7351B" H 9700 2075 50  0001 L BNN "STANDARD"
F 8 "Diotec Semiconductor" H 9700 2075 50  0001 L BNN "MANUFACTURER"
	1    9700 2075
	1    0    0    -1  
$EndComp
Wire Wire Line
	9800 2275 9800 2475
Wire Wire Line
	9800 2475 9925 2475
Text GLabel 9625 1700 0    50   Input ~ 0
3.3V
Wire Wire Line
	9625 1700 9800 1700
Text GLabel 9925 2475 2    50   Output ~ 0
WG_US_Power_3.3V
Wire Wire Line
	9250 1050 9250 1500
Wire Wire Line
	9250 1500 9175 1500
Wire Wire Line
	9250 1050 9600 1050
Wire Wire Line
	9250 1500 9250 2075
Wire Wire Line
	9250 2075 9600 2075
Connection ~ 9250 1500
Text Label 8750 1500 2    50   ~ 0
WG_Enable
NoConn ~ 3150 1125
$Comp
L Connector:Conn_01x04_Male J7
U 1 1 69C90CC7
P 14525 6750
F 0 "J7" H 14633 7031 50  0000 C CNN
F 1 "Conn_01x04_Male" H 14633 6940 50  0000 C CNN
F 2 "Connector_Molex:Molex_KK-254_AE-6410-04A_1x04_P2.54mm_Vertical" H 14525 6750 50  0001 C CNN
F 3 "~" H 14525 6750 50  0001 C CNN
	1    14525 6750
	1    0    0    1   
$EndComp
$Comp
L power:GND #PWR032
U 1 1 69C92FE3
P 15225 7050
AR Path="/69C92FE3" Ref="#PWR032"  Part="1" 
AR Path="/692C545E/69C92FE3" Ref="#PWR?"  Part="1" 
F 0 "#PWR032" H 15225 6800 50  0001 C CNN
F 1 "GND" H 15230 6877 50  0000 C CNN
F 2 "" H 15225 7050 50  0001 C CNN
F 3 "" H 15225 7050 50  0001 C CNN
	1    15225 7050
	1    0    0    -1  
$EndComp
Wire Wire Line
	14725 6850 15225 6850
Wire Wire Line
	15225 6850 15225 7050
Text Label 15125 6750 0    50   ~ 0
RG_Raw_RefC
Text Label 15125 6550 0    50   ~ 0
RG_Raw_MainC
Text Label 15125 6650 0    50   ~ 0
RG_Raw_EnvC
Wire Wire Line
	14725 6750 15125 6750
Wire Wire Line
	14725 6550 15125 6550
Wire Wire Line
	14725 6650 15125 6650
$Comp
L Connector:TestPoint TR1
U 1 1 69D1BA1B
P 15100 4350
F 0 "TR1" H 15158 4468 50  0000 L CNN
F 1 "TestPoint" H 15158 4377 50  0000 L CNN
F 2 "TestPoint:TestPoint_THTPad_1.0x1.0mm_Drill0.5mm" H 15300 4350 50  0001 C CNN
F 3 "~" H 15300 4350 50  0001 C CNN
	1    15100 4350
	1    0    0    -1  
$EndComp
Wire Wire Line
	15100 4350 14875 4350
Connection ~ 14875 4350
Wire Wire Line
	14875 4350 14875 4125
$Comp
L Connector:Conn_01x02_Male J8
U 1 1 69D358C5
P 12850 6425
F 0 "J8" H 12958 6606 50  0000 C CNN
F 1 "Conn_01x02_Male" H 12958 6515 50  0000 C CNN
F 2 "Connector_Molex:Molex_KK-254_AE-6410-02A_1x02_P2.54mm_Vertical" H 12850 6425 50  0001 C CNN
F 3 "~" H 12850 6425 50  0001 C CNN
	1    12850 6425
	1    0    0    -1  
$EndComp
Text Label 13050 6525 0    50   ~ 0
WG_US_Rx_Raw_N
$Comp
L power:GND #PWR033
U 1 1 69D54822
P 13875 6425
AR Path="/69D54822" Ref="#PWR033"  Part="1" 
AR Path="/692C545E/69D54822" Ref="#PWR?"  Part="1" 
F 0 "#PWR033" H 13875 6175 50  0001 C CNN
F 1 "GND" H 13880 6252 50  0000 C CNN
F 2 "" H 13875 6425 50  0001 C CNN
F 3 "" H 13875 6425 50  0001 C CNN
	1    13875 6425
	1    0    0    -1  
$EndComp
Wire Wire Line
	13050 6425 13875 6425
$Comp
L Connector:Conn_01x02_Male J11
U 1 1 69D751DF
P 12900 6900
F 0 "J11" H 13008 7081 50  0000 C CNN
F 1 "Conn_01x02_Male" H 13008 6990 50  0000 C CNN
F 2 "Connector_Molex:Molex_KK-254_AE-6410-02A_1x02_P2.54mm_Vertical" H 12900 6900 50  0001 C CNN
F 3 "~" H 12900 6900 50  0001 C CNN
	1    12900 6900
	1    0    0    -1  
$EndComp
Text Label 13100 7000 0    50   ~ 0
WG_US_Rx_Raw_SE
$Comp
L power:GND #PWR034
U 1 1 69D751E6
P 13925 6900
AR Path="/69D751E6" Ref="#PWR034"  Part="1" 
AR Path="/692C545E/69D751E6" Ref="#PWR?"  Part="1" 
F 0 "#PWR034" H 13925 6650 50  0001 C CNN
F 1 "GND" H 13930 6727 50  0000 C CNN
F 2 "" H 13925 6900 50  0001 C CNN
F 3 "" H 13925 6900 50  0001 C CNN
	1    13925 6900
	1    0    0    -1  
$EndComp
Wire Wire Line
	13100 6900 13925 6900
$Comp
L Connector:Conn_01x02_Male J12
U 1 1 69D8506E
P 12900 7350
F 0 "J12" H 13008 7531 50  0000 C CNN
F 1 "Conn_01x02_Male" H 13008 7440 50  0000 C CNN
F 2 "Connector_Molex:Molex_KK-254_AE-6410-02A_1x02_P2.54mm_Vertical" H 12900 7350 50  0001 C CNN
F 3 "~" H 12900 7350 50  0001 C CNN
	1    12900 7350
	1    0    0    -1  
$EndComp
Text Label 13100 7450 0    50   ~ 0
WG_US_Rx_Raw_SW
$Comp
L power:GND #PWR035
U 1 1 69D85075
P 13925 7350
AR Path="/69D85075" Ref="#PWR035"  Part="1" 
AR Path="/692C545E/69D85075" Ref="#PWR?"  Part="1" 
F 0 "#PWR035" H 13925 7100 50  0001 C CNN
F 1 "GND" H 13930 7177 50  0000 C CNN
F 2 "" H 13925 7350 50  0001 C CNN
F 3 "" H 13925 7350 50  0001 C CNN
	1    13925 7350
	1    0    0    -1  
$EndComp
Wire Wire Line
	13100 7350 13925 7350
Wire Notes Line
	14000 3425 15600 3425
Wire Notes Line
	15600 3425 15600 5850
Wire Notes Line
	15600 5850 14050 5850
Wire Notes Line
	14050 5850 14050 3425
Text Notes 14475 3350 0    50   ~ 0
Rain Sensor section
Wire Wire Line
	2550 850  1325 850 
Wire Wire Line
	1325 850  1325 1050
$Comp
L Device:R R31
U 1 1 65B043E4
P 9900 8050
F 0 "R31" V 10107 8050 50  0000 C CNN
F 1 "4.7k" V 10016 8050 50  0000 C CNN
F 2 "Resistor_SMD:R_0603_1608Metric_Pad0.98x0.95mm_HandSolder" V 9830 8050 50  0001 C CNN
F 3 "~" H 9900 8050 50  0001 C CNN
	1    9900 8050
	0    1    1    0   
$EndComp
$Comp
L Device:C C39
U 1 1 65B15265
P 9550 8350
F 0 "C39" H 9665 8396 50  0000 L CNN
F 1 "0.1uF" H 9665 8305 50  0000 L CNN
F 2 "Capacitor_SMD:C_0603_1608Metric_Pad1.08x0.95mm_HandSolder" H 9588 8200 50  0001 C CNN
F 3 "~" H 9550 8350 50  0001 C CNN
	1    9550 8350
	1    0    0    -1  
$EndComp
Wire Wire Line
	9750 8050 9550 8050
Wire Wire Line
	9550 8050 9550 8200
$Comp
L power:GND #PWR031
U 1 1 65B25F8B
P 9550 8500
AR Path="/65B25F8B" Ref="#PWR031"  Part="1" 
AR Path="/692C545E/65B25F8B" Ref="#PWR?"  Part="1" 
F 0 "#PWR031" H 9550 8250 50  0001 C CNN
F 1 "GND" H 9555 8327 50  0000 C CNN
F 2 "" H 9550 8500 50  0001 C CNN
F 3 "" H 9550 8500 50  0001 C CNN
	1    9550 8500
	1    0    0    -1  
$EndComp
Connection ~ 9550 8050
Text Label 9225 8050 2    50   ~ 0
WG_US_Tx_Rx_Phase_Diff_V
Text Label 9175 7075 2    50   ~ 0
WG_US_Tx_Rx_Phase_Diff_V
Wire Wire Line
	10900 6850 11075 6850
Wire Wire Line
	9175 7075 9400 7075
Text Label 11125 7075 0    50   ~ 0
WG_US_Tx_Rx_Phase_Diff_Amp_V
Wire Wire Line
	11125 7075 10900 7075
Wire Notes Line
	12625 5950 12625 7775
Wire Notes Line
	8125 7775 15950 7775
Wire Wire Line
	9400 6850 9175 6850
$Sheet
S 9400 6700 1500 475 
U 695CC68F
F0 "sheet695CC68B" 50
F1 "US_amplifier.sch" 50
F2 "40kHz_Raw_IP" I L 9400 6850 50 
F3 "40kHz_Filt_Amp_OP" O R 10900 6850 50 
F4 "Phase_Diff_V" I L 9400 7075 50 
F5 "Phase_Diff_Amp_V" O R 10900 7075 50 
$EndSheet
Wire Notes Line
	8100 5975 11550 5975
Wire Notes Line
	11550 5975 11550 5950
$Comp
L SamacSys_Parts:SN74LVC1G86DBVR IC8
U 1 1 65D6C44C
P 10675 8950
F 0 "IC8" H 11175 9215 50  0000 C CNN
F 1 "SN74LVC1G86DBVR" H 11175 9124 50  0000 C CNN
F 2 "SamacSys_Parts:SOT95P280X145-5N" H 11525 9050 50  0001 L CNN
F 3 "http://www.ti.com/lit/ds/symlink/sn74lvc1g86.pdf" H 11525 8950 50  0001 L CNN
F 4 "Single 2-Input Exclusive-OR Gate" H 11525 8850 50  0001 L CNN "Description"
F 5 "1.45" H 11525 8750 50  0001 L CNN "Height"
F 6 "595-SN74LVC1G86DBVR" H 11525 8650 50  0001 L CNN "Mouser Part Number"
F 7 "https://www.mouser.co.uk/ProductDetail/Texas-Instruments/SN74LVC1G86DBVR?qs=d9gICRQKuCcyH%2F0J6yE9tQ%3D%3D" H 11525 8550 50  0001 L CNN "Mouser Price/Stock"
F 8 "Texas Instruments" H 11525 8450 50  0001 L CNN "Manufacturer_Name"
F 9 "SN74LVC1G86DBVR" H 11525 8350 50  0001 L CNN "Manufacturer_Part_Number"
	1    10675 8950
	1    0    0    -1  
$EndComp
Text Label 10675 8950 2    50   ~ 0
WG_US_Tx_SqW
Text Label 10675 9050 2    50   ~ 0
WG_US_Rx_SqW
Text Label 10275 8050 0    50   ~ 0
XOR_output
Text Label 11675 8950 0    50   ~ 0
XOR_output
Text GLabel 12125 9050 2    50   Input ~ 0
3.3V
Wire Wire Line
	12125 9050 11875 9050
$Comp
L Device:C C41
U 1 1 65DD8D09
P 11875 9200
F 0 "C41" H 11990 9246 50  0000 L CNN
F 1 "0.1uF" H 11990 9155 50  0000 L CNN
F 2 "Capacitor_SMD:C_0603_1608Metric_Pad1.08x0.95mm_HandSolder" H 11913 9050 50  0001 C CNN
F 3 "~" H 11875 9200 50  0001 C CNN
	1    11875 9200
	1    0    0    -1  
$EndComp
Connection ~ 11875 9050
Wire Wire Line
	11875 9050 11675 9050
$Comp
L power:GND #PWR039
U 1 1 65DD8D11
P 11875 9350
AR Path="/65DD8D11" Ref="#PWR039"  Part="1" 
AR Path="/692C545E/65DD8D11" Ref="#PWR?"  Part="1" 
F 0 "#PWR039" H 11875 9100 50  0001 C CNN
F 1 "GND" H 11880 9177 50  0000 C CNN
F 2 "" H 11875 9350 50  0001 C CNN
F 3 "" H 11875 9350 50  0001 C CNN
	1    11875 9350
	1    0    0    -1  
$EndComp
$Comp
L power:GND #PWR038
U 1 1 65E20C5D
P 10625 9200
AR Path="/65E20C5D" Ref="#PWR038"  Part="1" 
AR Path="/692C545E/65E20C5D" Ref="#PWR?"  Part="1" 
F 0 "#PWR038" H 10625 8950 50  0001 C CNN
F 1 "GND" H 10630 9027 50  0000 C CNN
F 2 "" H 10625 9200 50  0001 C CNN
F 3 "" H 10625 9200 50  0001 C CNN
	1    10625 9200
	1    0    0    -1  
$EndComp
Wire Wire Line
	10675 9150 10625 9150
Wire Wire Line
	10625 9150 10625 9200
Wire Wire Line
	12350 4475 12275 4475
Wire Wire Line
	12625 4475 12350 4475
Connection ~ 12350 4475
$Comp
L Connector:TestPoint TW7
U 1 1 69D2B653
P 12350 4475
F 0 "TW7" H 12275 4700 50  0000 L CNN
F 1 "TestPoint" H 12175 4775 50  0000 L CNN
F 2 "TestPoint:TestPoint_THTPad_1.0x1.0mm_Drill0.5mm" H 12550 4475 50  0001 C CNN
F 3 "~" H 12550 4475 50  0001 C CNN
	1    12350 4475
	1    0    0    -1  
$EndComp
Wire Wire Line
	10050 8050 10275 8050
Wire Wire Line
	9225 8050 9550 8050
NoConn ~ 2150 1925
Text Label 1800 3550 2    50   ~ 0
WG_US_Tx_Rx_Phase_Diff_Amp_V
NoConn ~ 2150 2825
NoConn ~ 2150 2925
Wire Wire Line
	2150 2725 2000 2725
Wire Notes Line
	11650 2700 15925 2700
Wire Notes Line
	15925 2700 15925 2675
Wire Notes Line
	8125 4350 11450 4350
$Comp
L Device:R R36
U 1 1 65FE4B10
P 4600 7175
F 0 "R36" V 4807 7175 50  0000 C CNN
F 1 "0R" V 4716 7175 50  0000 C CNN
F 2 "Resistor_SMD:R_0603_1608Metric_Pad0.98x0.95mm_HandSolder" V 4530 7175 50  0001 C CNN
F 3 "~" H 4600 7175 50  0001 C CNN
	1    4600 7175
	0    1    1    0   
$EndComp
Wire Wire Line
	4750 7175 5075 7175
$Comp
L Device:CP1 C?
U 1 1 65FFA44D
P 1650 1100
AR Path="/6906B3BE/65FFA44D" Ref="C?"  Part="1" 
AR Path="/65FFA44D" Ref="C26"  Part="1" 
F 0 "C26" H 1765 1146 50  0000 L CNN
F 1 "10uF" H 1765 1055 50  0000 L CNN
F 2 "Capacitor_Tantalum_SMD:CP_EIA-3216-12_Kemet-S_Pad1.58x1.35mm_HandSolder" H 1650 1100 50  0001 C CNN
F 3 "~" H 1650 1100 50  0001 C CNN
	1    1650 1100
	1    0    0    -1  
$EndComp
Wire Wire Line
	2000 2725 2000 3550
Wire Wire Line
	1800 3550 2000 3550
$Comp
L Device:C C43
U 1 1 660359D2
P 1550 2775
F 0 "C43" H 1665 2821 50  0000 L CNN
F 1 "1uF" H 1665 2730 50  0000 L CNN
F 2 "Capacitor_SMD:C_0603_1608Metric_Pad1.08x0.95mm_HandSolder" H 1588 2625 50  0001 C CNN
F 3 "~" H 1550 2775 50  0001 C CNN
	1    1550 2775
	1    0    0    -1  
$EndComp
Connection ~ 1550 2625
Wire Wire Line
	2150 2525 1825 2525
Wire Wire Line
	1550 2625 2150 2625
Wire Wire Line
	1825 2525 1825 2925
Wire Wire Line
	1825 2925 1550 2925
Wire Wire Line
	1075 2625 1325 2625
Wire Wire Line
	1175 2425 1325 2425
Wire Wire Line
	1325 2425 1325 2625
Connection ~ 1325 2625
Wire Wire Line
	1325 2625 1550 2625
Wire Wire Line
	1075 2925 1325 2925
Connection ~ 1550 2925
$Comp
L power:GND #PWR03
U 1 1 66111878
P 1325 2925
F 0 "#PWR03" H 1325 2675 50  0001 C CNN
F 1 "GND" H 1330 2752 50  0000 C CNN
F 2 "" H 1325 2925 50  0001 C CNN
F 3 "" H 1325 2925 50  0001 C CNN
	1    1325 2925
	1    0    0    -1  
$EndComp
Connection ~ 1325 2925
Wire Wire Line
	1325 2925 1550 2925
$Comp
L power:GND #PWR042
U 1 1 66139E08
P 3100 7450
F 0 "#PWR042" H 3100 7200 50  0001 C CNN
F 1 "GND" H 3105 7277 50  0000 C CNN
F 2 "" H 3100 7450 50  0001 C CNN
F 3 "" H 3100 7450 50  0001 C CNN
	1    3100 7450
	1    0    0    -1  
$EndComp
Wire Wire Line
	3100 7175 3100 7450
Connection ~ 3100 7175
Wire Wire Line
	1650 7150 2025 7150
Wire Wire Line
	1650 6425 2575 6425
$Comp
L Device:R R2
U 1 1 66176C69
P 2175 7150
F 0 "R2" V 2382 7150 50  0000 C CNN
F 1 "390" V 2291 7150 50  0000 C CNN
F 2 "Resistor_SMD:R_0603_1608Metric_Pad0.98x0.95mm_HandSolder" V 2105 7150 50  0001 C CNN
F 3 "~" H 2175 7150 50  0001 C CNN
	1    2175 7150
	0    1    1    0   
$EndComp
Wire Wire Line
	2325 7150 2575 7150
Wire Notes Line
	12625 7825 12625 9900
$Comp
L Device:Crystal_GND23 Y2
U 1 1 661F1EDE
P 4150 6775
F 0 "Y2" V 4104 7019 50  0000 L CNN
F 1 "32786 Hz" V 4195 7019 50  0000 L CNN
F 2 "Crystal:Crystal_SMD_Abracon_ABS25-4Pin_8.0x3.8mm" H 4150 6775 50  0001 C CNN
F 3 "~" H 4150 6775 50  0001 C CNN
	1    4150 6775
	0    1    1    0   
$EndComp
Wire Wire Line
	3675 7175 4150 7175
Wire Wire Line
	4150 6925 4150 7175
Connection ~ 4150 7175
Wire Wire Line
	4150 7175 4450 7175
NoConn ~ 4350 6775
NoConn ~ 3950 6775
$Comp
L Device:C C5
U 1 1 662F988A
P 13425 3425
F 0 "C5" V 13225 3375 50  0000 L CNN
F 1 "0.1uF" V 13300 3325 50  0000 L CNN
F 2 "Capacitor_SMD:C_0603_1608Metric_Pad1.08x0.95mm_HandSolder" H 13463 3275 50  0001 C CNN
F 3 "~" H 13425 3425 50  0001 C CNN
	1    13425 3425
	1    0    0    -1  
$EndComp
$Comp
L power:GND #PWR010
U 1 1 662FBED3
P 13425 3575
AR Path="/662FBED3" Ref="#PWR010"  Part="1" 
AR Path="/692C545E/662FBED3" Ref="#PWR?"  Part="1" 
F 0 "#PWR010" H 13425 3325 50  0001 C CNN
F 1 "GND" H 13430 3402 50  0000 C CNN
F 2 "" H 13425 3575 50  0001 C CNN
F 3 "" H 13425 3575 50  0001 C CNN
	1    13425 3575
	1    0    0    -1  
$EndComp
$Comp
L power:GND #PWR0101
U 1 1 66309FB6
P 9150 10650
AR Path="/66309FB6" Ref="#PWR0101"  Part="1" 
AR Path="/692C545E/66309FB6" Ref="#PWR?"  Part="1" 
F 0 "#PWR0101" H 9150 10400 50  0001 C CNN
F 1 "GND" H 9155 10477 50  0000 C CNN
F 2 "" H 9150 10650 50  0001 C CNN
F 3 "" H 9150 10650 50  0001 C CNN
	1    9150 10650
	1    0    0    -1  
$EndComp
Wire Wire Line
	8900 10525 9150 10525
Wire Wire Line
	9150 10525 9150 10650
Connection ~ 8900 10525
$Comp
L power:GND #PWR0103
U 1 1 6632ED95
P 10525 10350
AR Path="/6632ED95" Ref="#PWR0103"  Part="1" 
AR Path="/692C545E/6632ED95" Ref="#PWR?"  Part="1" 
F 0 "#PWR0103" H 10525 10100 50  0001 C CNN
F 1 "GND" H 10530 10177 50  0000 C CNN
F 2 "" H 10525 10350 50  0001 C CNN
F 3 "" H 10525 10350 50  0001 C CNN
	1    10525 10350
	1    0    0    -1  
$EndComp
Wire Wire Line
	11300 10350 11300 10575
Wire Wire Line
	10525 10350 11300 10350
NoConn ~ 3950 2925
Wire Wire Line
	14225 3925 14225 4050
Wire Wire Line
	14050 4475 14125 4475
Wire Wire Line
	14125 4475 14125 4250
Wire Wire Line
	14125 4250 13750 4250
Wire Wire Line
	13750 4250 13750 3275
Connection ~ 14125 4475
Wire Wire Line
	14125 4475 15225 4475
Connection ~ 13750 3275
Wire Wire Line
	13750 3275 14225 3275
NoConn ~ 3950 2025
NoConn ~ 3550 1125
$EndSCHEMATC
