EESchema Schematic File Version 4
EELAYER 30 0
EELAYER END
$Descr A4 11693 8268
encoding utf-8
Sheet 2 4
Title ""
Date ""
Rev ""
Comp ""
Comment1 ""
Comment2 ""
Comment3 ""
Comment4 ""
$EndDescr
$Comp
L Regulator_Linear:AP1117-33 U2
U 1 1 690AAC56
P 5375 4125
F 0 "U2" H 5375 4367 50  0000 C CNN
F 1 "AP1117-33" H 5375 4276 50  0000 C CNN
F 2 "Package_TO_SOT_SMD:SOT-223-3_TabPin2" H 5375 4325 50  0001 C CNN
F 3 "http://www.diodes.com/datasheets/AP1117.pdf" H 5475 3875 50  0001 C CNN
	1    5375 4125
	1    0    0    -1  
$EndComp
Wire Wire Line
	5675 4125 6100 4125
Wire Wire Line
	5375 4425 5375 4800
Connection ~ 5375 4800
$Comp
L Device:CP1 C17
U 1 1 690AAC69
P 4700 4475
F 0 "C17" H 4815 4521 50  0000 L CNN
F 1 "10uF" H 4815 4430 50  0000 L CNN
F 2 "Capacitor_Tantalum_SMD:CP_EIA-3216-12_Kemet-S_Pad1.58x1.35mm_HandSolder" H 4700 4475 50  0001 C CNN
F 3 "~" H 4700 4475 50  0001 C CNN
	1    4700 4475
	1    0    0    -1  
$EndComp
Wire Wire Line
	4700 4325 4700 4125
Connection ~ 4700 4125
Wire Wire Line
	4700 4625 4700 4800
Wire Wire Line
	4700 4800 5150 4800
$Comp
L Device:CP1 C18
U 1 1 690AAC75
P 6100 4475
F 0 "C18" H 6215 4521 50  0000 L CNN
F 1 "10uF" H 6215 4430 50  0000 L CNN
F 2 "Capacitor_Tantalum_SMD:CP_EIA-3216-12_Kemet-S_Pad1.58x1.35mm_HandSolder" H 6100 4475 50  0001 C CNN
F 3 "~" H 6100 4475 50  0001 C CNN
	1    6100 4475
	1    0    0    -1  
$EndComp
Wire Wire Line
	6100 4125 6100 4325
Wire Wire Line
	6100 4625 6100 4800
Connection ~ 6100 4125
$Comp
L power:GND #PWR021
U 1 1 690AAC7F
P 5150 4950
F 0 "#PWR021" H 5150 4700 50  0001 C CNN
F 1 "GND" H 5155 4777 50  0000 C CNN
F 2 "" H 5150 4950 50  0001 C CNN
F 3 "" H 5150 4950 50  0001 C CNN
	1    5150 4950
	1    0    0    -1  
$EndComp
Wire Wire Line
	5150 4950 5150 4800
Connection ~ 5150 4800
Wire Wire Line
	5150 4800 5375 4800
$Comp
L Device:C C20
U 1 1 690AAC88
P 6550 4475
F 0 "C20" H 6665 4521 50  0000 L CNN
F 1 "0.1uF" H 6665 4430 50  0000 L CNN
F 2 "Capacitor_SMD:C_0603_1608Metric_Pad1.08x0.95mm_HandSolder" H 6588 4325 50  0001 C CNN
F 3 "~" H 6550 4475 50  0001 C CNN
	1    6550 4475
	1    0    0    -1  
$EndComp
Wire Wire Line
	6100 4125 6550 4125
Wire Wire Line
	6550 4325 6550 4125
Connection ~ 6550 4125
Wire Wire Line
	6550 4125 6900 4125
Wire Wire Line
	6550 4625 6550 4800
Wire Wire Line
	6550 4800 6100 4800
Connection ~ 6100 4800
$Comp
L Connector:Screw_Terminal_01x02 J5
U 1 1 690AAC97
P 4650 1175
F 0 "J5" H 4568 850 50  0000 C CNN
F 1 "Screw_Terminal_01x02" H 4568 941 50  0000 C CNN
F 2 "TerminalBlock_Phoenix:TerminalBlock_Phoenix_PT-1,5-2-3.5-H_1x02_P3.50mm_Horizontal" H 4650 1175 50  0001 C CNN
F 3 "~" H 4650 1175 50  0001 C CNN
	1    4650 1175
	-1   0    0    1   
$EndComp
Text GLabel 6900 4125 2    50   Output ~ 0
3.3V
$Comp
L Device:CP1 C8
U 1 1 690B2399
P 3975 2650
F 0 "C8" H 4090 2696 50  0000 L CNN
F 1 "330uF" H 4090 2605 50  0000 L CNN
F 2 "Capacitor_SMD:CP_Elec_8x11.9" H 3975 2650 50  0001 C CNN
F 3 "~" H 3975 2650 50  0001 C CNN
	1    3975 2650
	1    0    0    -1  
$EndComp
Wire Wire Line
	5250 2600 5250 2975
Wire Wire Line
	5250 2975 5575 2975
Wire Wire Line
	3975 2300 3975 2500
Wire Wire Line
	3975 2800 3975 2975
Wire Wire Line
	3975 2975 4575 2975
Connection ~ 5250 2975
$Comp
L Device:CP1 C16
U 1 1 690B23A5
P 4575 2650
F 0 "C16" H 4690 2696 50  0000 L CNN
F 1 "10uF" H 4690 2605 50  0000 L CNN
F 2 "Capacitor_Tantalum_SMD:CP_EIA-3216-12_Kemet-S_Pad1.58x1.35mm_HandSolder" H 4575 2650 50  0001 C CNN
F 3 "~" H 4575 2650 50  0001 C CNN
	1    4575 2650
	1    0    0    -1  
$EndComp
Wire Wire Line
	4575 2500 4575 2300
Connection ~ 4575 2300
Wire Wire Line
	4575 2800 4575 2975
Connection ~ 4575 2975
Wire Wire Line
	4575 2975 5025 2975
$Comp
L power:GND #PWR019
U 1 1 690B23BA
P 5025 3125
F 0 "#PWR019" H 5025 2875 50  0001 C CNN
F 1 "GND" H 5030 2952 50  0000 C CNN
F 2 "" H 5025 3125 50  0001 C CNN
F 3 "" H 5025 3125 50  0001 C CNN
	1    5025 3125
	1    0    0    -1  
$EndComp
Wire Wire Line
	5025 3125 5025 2975
Connection ~ 5025 2975
Wire Wire Line
	5025 2975 5250 2975
$Comp
L Device:C C19
U 1 1 690B23C3
P 6425 2650
F 0 "C19" H 6540 2696 50  0000 L CNN
F 1 "0.1uF" H 6540 2605 50  0000 L CNN
F 2 "Capacitor_SMD:C_0603_1608Metric_Pad1.08x0.95mm_HandSolder" H 6463 2500 50  0001 C CNN
F 3 "~" H 6425 2650 50  0001 C CNN
	1    6425 2650
	1    0    0    -1  
$EndComp
Wire Wire Line
	6425 2500 6425 2300
Connection ~ 6425 2300
Wire Wire Line
	6425 2300 6775 2300
Wire Wire Line
	6425 2800 6425 2975
$Comp
L power:PWR_FLAG #FLG03
U 1 1 690B23DF
P 4575 2125
F 0 "#FLG03" H 4575 2200 50  0001 C CNN
F 1 "PWR_FLAG" H 4575 2298 50  0000 C CNN
F 2 "" H 4575 2125 50  0001 C CNN
F 3 "~" H 4575 2125 50  0001 C CNN
	1    4575 2125
	1    0    0    -1  
$EndComp
Wire Wire Line
	4575 2125 4575 2300
$Comp
L power:PWR_FLAG #FLG02
U 1 1 690B23E8
P 5575 2975
F 0 "#FLG02" H 5575 3050 50  0001 C CNN
F 1 "PWR_FLAG" H 5575 3148 50  0000 C CNN
F 2 "" H 5575 2975 50  0001 C CNN
F 3 "~" H 5575 2975 50  0001 C CNN
	1    5575 2975
	1    0    0    -1  
$EndComp
Connection ~ 5575 2975
Text GLabel 5150 1075 2    50   Output ~ 0
12V
Wire Wire Line
	4850 1075 5150 1075
$Comp
L power:GND #PWR022
U 1 1 690B70DF
P 5175 1375
F 0 "#PWR022" H 5175 1125 50  0001 C CNN
F 1 "GND" H 5180 1202 50  0000 C CNN
F 2 "" H 5175 1375 50  0001 C CNN
F 3 "" H 5175 1375 50  0001 C CNN
	1    5175 1375
	1    0    0    -1  
$EndComp
Wire Wire Line
	4850 1175 5175 1175
Wire Wire Line
	5175 1175 5175 1375
Wire Wire Line
	3975 2300 4575 2300
Wire Wire Line
	4575 2300 4950 2300
Text GLabel 6775 2300 2    50   Output ~ 0
5V
Text GLabel 3725 2300 0    50   Input ~ 0
12V
Wire Wire Line
	3725 2300 3975 2300
Text GLabel 3850 4125 0    50   Input ~ 0
5V
Wire Wire Line
	5575 2975 6425 2975
Connection ~ 3975 2300
Wire Wire Line
	5375 4800 6100 4800
$Comp
L Regulator_Linear:MIC29302WU U?
U 1 1 693B8733
P 5625 5675
AR Path="/693B8733" Ref="U?"  Part="1" 
AR Path="/6906B3BE/693B8733" Ref="U3"  Part="1" 
F 0 "U3" H 5625 6042 50  0000 C CNN
F 1 "MIC29302WU" H 5625 5951 50  0000 C CNN
F 2 "Package_TO_SOT_SMD:TO-263-5_TabPin3" H 5725 5425 50  0001 L CNN
F 3 "http://ww1.microchip.com/downloads/en/devicedoc/20005685a.pdf" H 5625 5675 50  0001 C CNN
	1    5625 5675
	1    0    0    -1  
$EndComp
Wire Wire Line
	5625 5975 5625 6375
$Comp
L Device:R R?
U 1 1 693B8750
P 6450 5850
AR Path="/693B8750" Ref="R?"  Part="1" 
AR Path="/6906B3BE/693B8750" Ref="R13"  Part="1" 
F 0 "R13" H 6575 5875 50  0000 C CNN
F 1 "100k" H 6600 5775 50  0000 C CNN
F 2 "Resistor_SMD:R_0603_1608Metric_Pad0.98x0.95mm_HandSolder" V 6380 5850 50  0001 C CNN
F 3 "~" H 6450 5850 50  0001 C CNN
	1    6450 5850
	1    0    0    -1  
$EndComp
$Comp
L Device:R R?
U 1 1 693B8756
P 6450 6225
AR Path="/693B8756" Ref="R?"  Part="1" 
AR Path="/6906B3BE/693B8756" Ref="R14"  Part="1" 
F 0 "R14" H 6575 6300 50  0000 C CNN
F 1 "43k" H 6575 6200 50  0000 C CNN
F 2 "Resistor_SMD:R_0603_1608Metric_Pad0.98x0.95mm_HandSolder" V 6380 6225 50  0001 C CNN
F 3 "~" H 6450 6225 50  0001 C CNN
	1    6450 6225
	1    0    0    -1  
$EndComp
Wire Wire Line
	6450 6375 5625 6375
Connection ~ 5625 6375
Wire Wire Line
	6450 6000 6450 6050
Wire Wire Line
	6450 6050 6025 6050
Wire Wire Line
	6025 6050 6025 5775
Connection ~ 6450 6050
Wire Wire Line
	6450 6050 6450 6075
Wire Wire Line
	6025 5575 6450 5575
Wire Wire Line
	6450 5575 6450 5700
$Comp
L Device:CP1 C?
U 1 1 693B8765
P 7250 5925
AR Path="/693B8765" Ref="C?"  Part="1" 
AR Path="/6906B3BE/693B8765" Ref="C21"  Part="1" 
F 0 "C21" H 7365 5971 50  0000 L CNN
F 1 "470uF" H 7365 5880 50  0000 L CNN
F 2 "Capacitor_SMD:CP_Elec_8x11.9" H 7250 5925 50  0001 C CNN
F 3 "~" H 7250 5925 50  0001 C CNN
	1    7250 5925
	1    0    0    -1  
$EndComp
Wire Wire Line
	7250 5775 7250 5575
Connection ~ 6450 5575
Wire Wire Line
	7250 6075 7250 6375
Wire Wire Line
	6450 6375 7250 6375
Connection ~ 6450 6375
Wire Wire Line
	6450 5575 7250 5575
$Comp
L Device:C C?
U 1 1 693B8771
P 7825 5925
AR Path="/693B8771" Ref="C?"  Part="1" 
AR Path="/6906B3BE/693B8771" Ref="C22"  Part="1" 
F 0 "C22" H 7650 5925 50  0000 C CNN
F 1 "0.1uF" H 7550 6025 50  0000 C CNN
F 2 "Capacitor_SMD:C_0603_1608Metric_Pad1.08x0.95mm_HandSolder" H 7863 5775 50  0001 C CNN
F 3 "~" H 7825 5925 50  0001 C CNN
	1    7825 5925
	-1   0    0    1   
$EndComp
Wire Wire Line
	7825 5775 7825 5575
Wire Wire Line
	7825 5575 7250 5575
Connection ~ 7250 5575
Wire Wire Line
	7825 6075 7825 6375
Wire Wire Line
	7825 6375 7250 6375
Connection ~ 7250 6375
$Comp
L Device:R R?
U 1 1 693B877D
P 8525 5925
AR Path="/693B877D" Ref="R?"  Part="1" 
AR Path="/6906B3BE/693B877D" Ref="R18"  Part="1" 
F 0 "R18" H 8650 5950 50  0000 C CNN
F 1 "470" H 8675 5850 50  0000 C CNN
F 2 "Resistor_SMD:R_0603_1608Metric_Pad0.98x0.95mm_HandSolder" V 8455 5925 50  0001 C CNN
F 3 "~" H 8525 5925 50  0001 C CNN
	1    8525 5925
	1    0    0    -1  
$EndComp
Wire Wire Line
	8525 5775 8525 5575
Wire Wire Line
	8525 5575 7825 5575
Connection ~ 7825 5575
Wire Wire Line
	8525 6075 8525 6375
Wire Wire Line
	8525 6375 7825 6375
Connection ~ 7825 6375
$Comp
L power:GND #PWR?
U 1 1 693B878F
P 5625 6525
AR Path="/693B878F" Ref="#PWR?"  Part="1" 
AR Path="/6906B3BE/693B878F" Ref="#PWR023"  Part="1" 
F 0 "#PWR023" H 5625 6275 50  0001 C CNN
F 1 "GND" H 5630 6352 50  0000 C CNN
F 2 "" H 5625 6525 50  0001 C CNN
F 3 "" H 5625 6525 50  0001 C CNN
	1    5625 6525
	1    0    0    -1  
$EndComp
Wire Wire Line
	5625 6375 5625 6525
Wire Wire Line
	8525 5400 8525 5575
Connection ~ 8525 5575
Text GLabel 4725 5575 0    50   Input ~ 0
12V
Text GLabel 8525 5400 1    50   Output ~ 0
4.1V
$Comp
L Device:LED D?
U 1 1 693C5BBC
P 7875 1300
AR Path="/693C5BBC" Ref="D?"  Part="1" 
AR Path="/6906B3BE/693C5BBC" Ref="D1"  Part="1" 
F 0 "D1" H 7868 1045 50  0000 C CNN
F 1 "LED" H 7868 1136 50  0000 C CNN
F 2 "LED_SMD:LED_0603_1608Metric_Pad1.05x0.95mm_HandSolder" H 7875 1300 50  0001 C CNN
F 3 "~" H 7875 1300 50  0001 C CNN
	1    7875 1300
	0    -1   -1   0   
$EndComp
$Comp
L Device:R R?
U 1 1 693C5BC3
P 7875 1600
AR Path="/693C5BC3" Ref="R?"  Part="1" 
AR Path="/6906B3BE/693C5BC3" Ref="R17"  Part="1" 
F 0 "R17" H 7805 1554 50  0000 R CNN
F 1 "10k" H 7805 1645 50  0000 R CNN
F 2 "Resistor_SMD:R_0603_1608Metric_Pad0.98x0.95mm_HandSolder" V 7805 1600 50  0001 C CNN
F 3 "~" H 7875 1600 50  0001 C CNN
	1    7875 1600
	-1   0    0    1   
$EndComp
Wire Wire Line
	7875 1075 7875 1150
$Comp
L power:GND #PWR?
U 1 1 693C5BCA
P 7875 1850
AR Path="/693C5BCA" Ref="#PWR?"  Part="1" 
AR Path="/6906B3BE/693C5BCA" Ref="#PWR024"  Part="1" 
F 0 "#PWR024" H 7875 1600 50  0001 C CNN
F 1 "GND" H 7880 1677 50  0000 C CNN
F 2 "" H 7875 1850 50  0001 C CNN
F 3 "" H 7875 1850 50  0001 C CNN
	1    7875 1850
	1    0    0    -1  
$EndComp
Wire Wire Line
	7875 1750 7875 1850
Text GLabel 7875 1075 1    50   Input ~ 0
12V
Text Notes 8950 5950 0    50   ~ 0
Power ckt for SMI800
Wire Wire Line
	5550 2300 6425 2300
Wire Wire Line
	4700 4125 5075 4125
$Comp
L Regulator_Linear:LM1117-5.0 U1
U 1 1 65F28BE0
P 5250 2300
F 0 "U1" H 5250 2542 50  0000 C CNN
F 1 "LM1117-5.0" H 5250 2451 50  0000 C CNN
F 2 "Package_TO_SOT_SMD:SOT-223-3_TabPin2" H 5250 2300 50  0001 C CNN
F 3 "http://www.ti.com/lit/ds/symlink/lm1117.pdf" H 5250 2300 50  0001 C CNN
	1    5250 2300
	1    0    0    -1  
$EndComp
Wire Wire Line
	4725 5575 4975 5575
Wire Wire Line
	3850 4125 4700 4125
Wire Wire Line
	5225 5775 4975 5775
Wire Wire Line
	4975 5775 4975 5575
Connection ~ 4975 5575
Wire Wire Line
	4975 5575 5225 5575
$EndSCHEMATC
