EESchema Schematic File Version 4
EELAYER 30 0
EELAYER END
$Descr A4 11693 8268
encoding utf-8
Sheet 4 4
Title ""
Date ""
Rev ""
Comp ""
Comment1 ""
Comment2 ""
Comment3 ""
Comment4 ""
$EndDescr
Text Notes 10200 4575 0    50   ~ 0
Possible Q for Multiple Feedback Filter\n1) \nF0 = center frequency\n\nQ = f0/BW\nFor BW of 5 KHz\nQ = 40k/5k = 8\n\nAv=−2 * Q^2 \n= −2 * 8^2 \n= 128.... this is too high\n\nGenerally GBWF = 1 MHz for common opamps.\nSince f_unity >= 20*f0*Q^2\nTherefore maximum possible Q = 3.5\n\nWe will have to design for Q=3.5\n\n2) Filter Gain will be Av = -2*Q^2 = -24.5\n\n3) As per basic template of a multi feedback active filter\nR1a = Q = 3.5\nR1b = Q/(2*Q^2-1)  = 0.149\nR2 = 2Q = 7\nR3 = 2Q = 7\nC1 =  C2 = 1F\nThis is for omega = 1 rad/sec \n\n4) We must now find the frequency scaling factor\nomega = 2 * pi * f0\n= 2 * 3.14 * 40000 = 251327 rads/sec\n\n5) To scale for frequency, we can reduce the resistors. \nR1a = 3.5 ohm / omega = 1.39 e-5\nR1b = 0.176 ohm / omega = 5.9e-7\nR2 = 6 ohm / omega = 2.8e-5\nR3 = 6 / omega = 2.8e-5\n\n6) Further, to scale for imepdance, (Z tuning)\nwe need to scale down the resistors, \nand scale up the capacitors to maintain\n\n- Multiply C by 1e-9 = 1 nF\n\n- Divide all R by 1e-9 :\nR1a = 1.4 e4= 14k\nR1b = 7e2 = 400\nR2 = 2.4e4 = 28k\nR3 = 28k
$Bitmap
Pos 4100 1175
Scale 1.000000
Data
89 50 4E 47 0D 0A 1A 0A 00 00 00 0D 49 48 44 52 00 00 01 9A 00 00 01 1C 08 02 00 00 00 71 8D E5 
F1 00 00 00 03 73 42 49 54 08 08 08 DB E1 4F E0 00 00 00 09 70 48 59 73 00 00 0E 74 00 00 0E 74 
01 6B 24 B3 D6 00 00 20 00 49 44 41 54 78 9C EC 9D 77 5C 53 F7 FE FF 73 4E 26 D9 09 09 84 90 B0 
F7 96 25 43 45 45 14 11 1C 80 52 47 DD 5A EB 57 BD B5 AD D6 5E B5 D5 6E AB B5 D6 D1 6A BD 57 2B 
B5 0A 0A 22 32 04 9C B8 50 C4 AD 80 0A 28 4B F6 86 90 79 3E BF 3F CE BD B9 FC 40 71 14 24 C4 CF 
F3 8F 3E CA 31 84 4F 4E CE 79 9D F7 FB F3 5E 08 00 80 00 81 10 08 04 02 41 A3 D1 24 26 26 6E DC 
B8 71 CA 94 29 0B 16 2C 30 31 31 41 51 54 A1 50 C4 C7 C7 6F DD BA 75 D3 A6 4D E3 C6 8D A3 50 28 
03 BD 4C 08 E4 F9 90 06 7A 01 10 1D A2 BE BE 7E CF 9E 3D B6 B6 B6 73 E6 CC 91 4A A5 24 12 89 40 
20 90 C9 E4 F0 F0 70 85 42 61 64 64 84 20 C8 40 AF 11 02 79 21 E8 40 2F 00 A2 2B 60 18 76 EF DE 
BD E2 E2 E2 88 88 08 B1 58 8C 6B 19 81 40 40 10 C4 C8 C8 68 DE BC 79 9E 9E 9E DA 83 04 02 01 00 
80 61 18 B4 EE 21 BA 03 94 33 C8 7F 00 00 3C 7A F4 88 4C 26 DB DB DB 53 A9 D4 AE FF 84 A2 28 9D 
4E 27 93 C9 5A EB 0C C3 B0 67 CF 9E ED DF BF BF B1 B1 11 2A 1A 44 47 80 72 06 F9 1F AD AD AD 54 
2A 95 C1 60 74 75 2A 01 00 6A B5 5A AD 56 E3 B2 05 00 D0 68 34 F9 F9 F9 9F 7E FA E9 A5 4B 97 D4 
6A F5 C0 AD 17 02 F9 FF 80 72 06 F9 0F 08 82 B0 D9 6C B9 5C DE D1 D1 81 61 98 F6 B8 5C 2E DF B6 
6D DB A6 4D 9B EA EB EB 31 0C 6B 6A 6A FA FD F7 DF 17 2E 5C 98 9A 9A 2A 91 48 68 34 1A DC 50 83 
E8 08 50 CE 20 FF 01 41 10 4F 4F 4F 8D 46 73 FA F4 E9 F6 F6 76 00 00 6E 97 9D 39 73 E6 E0 C1 83 
22 91 C8 C0 C0 00 C3 B0 C3 87 0F 9F 3B 77 6E FC F8 F1 52 A9 D4 CD CD AD 9B 5B 0A 81 0C 20 30 B2 
09 F9 0F 08 82 38 3B 3B 4F 9A 34 29 3E 3E 1E 41 90 88 88 08 1A 8D 96 99 99 79 F8 F0 E1 A0 A0 A0 
B1 63 C7 D2 E9 74 02 81 30 61 C2 84 49 93 26 15 17 17 1F 3F 7E DC D2 D2 92 4C 26 0F F4 C2 21 90 
FF 00 E5 0C F2 3F 18 0C C6 27 9F 7C 62 64 64 94 96 96 16 1F 1F 0F 00 B0 B0 B0 98 3D 7B F6 A4 49 
93 F0 1C 34 02 81 60 66 66 06 00 B8 70 E1 82 91 91 91 40 20 C0 0F 42 20 BA 00 94 33 C8 FF 40 51 
54 2C 16 2F 5B B6 6C FA F4 E9 32 99 0C 00 C0 E5 72 B9 5C 2E 9D 4E D7 CA 16 8A A2 6A B5 FA EE DD 
BB 16 16 16 0C 06 63 60 17 0C 81 74 05 CA 19 E4 FF 83 48 24 B2 D9 6C 16 8B 85 C7 31 11 04 E9 B9 
D3 2F 97 CB F3 F3 F3 87 0F 1F 0E E3 00 10 9D 02 CA 19 E4 39 3C 57 C5 70 00 00 F5 F5 F5 0D 0D 0D 
F6 F6 F6 70 E3 0C A2 53 C0 8D 0F C8 6B 53 5A 5A 4A 22 91 CC CC CC A0 9C 41 74 0A 04 A6 74 43 5E 
0B 00 40 55 55 55 71 71 B1 87 87 07 93 C9 84 CE 26 44 77 80 72 06 79 6D 30 0C D3 68 34 24 12 09 
6A 19 44 A7 80 72 06 81 40 F4 04 B8 77 06 81 40 F4 04 28 67 10 08 44 4F 80 72 06 81 40 F4 04 28 
67 10 08 44 4F 80 72 06 81 40 F4 04 28 67 10 08 44 4F 80 72 06 79 3E 78 B3 B3 9E C7 F1 A4 B3 B7 
BF 1E 08 E4 A5 40 39 83 3C 07 00 C0 E9 D3 A7 57 AE 5C 79 E1 C2 05 A5 52 A9 3D AE 54 2A FF F5 AF 
7F AD 5E BD FA C9 93 27 5D 3B D6 42 20 BA 00 2C 41 87 3C 87 CE CE CE ED DB B7 5F B8 70 A1 B1 B1 
D1 D1 D1 51 28 14 E2 C7 1F 3D 7A B4 6B D7 AE A7 4F 9F 9A 99 99 2D 5A B4 08 6F E8 08 81 E8 08 D0 
3A 83 3C 07 8D 46 53 5E 5E DE D1 D1 51 5E 5E AE 52 A9 B4 A5 23 2D 2D 2D 75 75 75 6D 6D 6D 55 55 
55 D0 E5 84 E8 1A 50 CE 20 CF 07 9F A1 D9 CD A3 C4 0F C2 09 9B 10 DD 04 CA 19 04 02 D1 13 A0 9C 
41 20 10 3D 01 CA 19 04 02 D1 13 A0 9C 41 20 10 3D 01 CA 19 04 02 D1 13 A0 9C 41 20 10 3D 01 CA 
19 04 02 D1 13 60 55 C0 DB 00 AF 73 1C 44 89 5A 4A A5 B2 F7 D5 6A 34 1A 95 4A D5 B5 FE 09 F2 AE 
81 20 88 AE CD 8B 80 72 F6 36 68 69 69 F9 E7 3F FF 59 57 57 37 58 14 4D AD 56 97 97 97 F7 B2 DA 
94 94 94 C7 8F 1F C3 C1 74 EF 32 46 46 46 AB 56 AD B2 B0 B0 40 51 5D 71 F2 A0 9C BD 0D 14 0A C5 
C5 8B 17 43 43 43 CD CC CC 74 E7 BB EF 05 85 42 91 97 97 D7 DA DA FA A2 17 98 99 99 8D 18 31 82 
46 A3 BD CD 55 41 74 87 F6 F6 F6 FD FB F7 C7 C4 C4 48 A5 52 DD B9 A4 A1 9C BD 25 34 1A CD D8 B1 
63 7D 7D 7D 49 A4 41 70 CE DB DA DA F6 EF DF 5F 5D 5D FD A2 17 B8 B8 B8 CC 9C 39 93 C5 62 BD CD 
55 41 74 87 DA DA DA 43 87 0E E9 5A DD EE 20 B8 B5 F4 06 03 03 03 26 93 39 28 E4 0C 00 D0 FB 23 
97 42 A1 30 18 0C 26 93 F9 D6 96 04 D1 29 3A 3A 3A 74 C7 28 D3 A2 73 0B 82 40 20 90 37 03 CA 19 
04 02 D1 13 A0 9C 41 20 10 3D 01 CA 19 04 02 D1 13 A0 9C 41 20 10 3D 01 CA 19 04 02 D1 13 A0 9C 
41 20 10 3D 01 CA 19 04 02 D1 13 A0 9C 41 9E 03 95 4A 75 77 77 A7 D3 E9 1E 1E 1E 34 1A 4D 5B 66 
2C 95 4A 25 12 09 93 C9 74 73 73 A3 50 28 03 BB 48 08 A4 1B 83 20 43 1D F2 F6 21 93 C9 9F 7F FE 
79 48 48 C8 D0 A1 43 D9 6C B6 F6 B8 58 2C DE BA 75 EB B3 67 CF 46 8E 1C 09 E5 0C A2 6B 40 39 83 
3C 07 04 41 EC ED ED 2D 2D 2D 29 14 0A 91 48 D4 1E A7 50 28 7E 7E 7E 1A 8D 86 42 A1 E8 60 8D 0B 
E4 1D 07 CA 19 E4 F9 10 89 44 03 03 83 9E C7 C9 64 32 EC 0B D4 13 0C C3 4A 4B 4B EB EA EA BA 4E 
26 25 12 89 D6 D6 D6 5C 2E 17 4A FF DB 01 CA 19 04 D2 07 A8 D5 EA AD 5B B7 66 67 67 53 A9 54 ED 
56 A3 4A A5 B2 B6 B6 5E BB 76 AD 8B 8B 0B 7C 06 BC 05 A0 9C 41 20 7D 40 7B 7B 7B 6E 6E EE 90 21 
43 96 2E 5D 8A EF 36 02 00 2A 2B 2B D7 AF 5F 7F EC D8 31 73 73 73 3E 9F 3F D0 6B D4 7F A0 9C 41 
20 7F 17 00 40 59 59 59 43 43 83 A7 A7 A7 A3 A3 A3 B6 6F 92 54 2A B5 B2 B2 7A F2 E4 09 DE AC 5C 
A7 FA 50 EB 25 D0 A5 87 40 FE 2E 00 80 C7 8F 1F 63 18 66 6D 6D 4D A5 52 51 14 C5 37 CB 9A 9A 9A 
CA CA CA 84 42 21 99 4C 86 5A F6 16 80 D6 19 04 F2 77 D1 68 34 77 EF DE 25 91 48 E5 E5 E5 E7 CF 
9F C7 B5 AC BE BE FE C8 91 23 9D 9D 9D 13 26 4C C0 DB F6 6A 34 9A AA AA AA E2 E2 62 22 91 E8 EC 
EC CC E1 70 60 88 A0 6F 81 72 06 81 FC 5D E4 72 79 61 61 61 7B 7B FB 81 03 07 A8 54 6A 47 47 47 
5D 5D 9D B1 B1 71 40 40 C0 3F FE F1 0F 6F 6F 6F 32 99 AC 56 AB CF 9F 3F BF 65 CB 96 B6 B6 36 8D 
46 63 6B 6B BB 6A D5 2A 27 27 A7 41 D1 9D 78 B0 00 4F 25 04 F2 77 C1 9D CA 49 93 26 2D 58 B0 80 
C3 E1 54 57 57 7F F3 CD 37 34 1A 6D CE 9C 39 8E 8E 8E 78 AC B3 AA AA 6A DB B6 6D 52 A9 74 EE DC 
B9 1A 8D E6 9B 6F BE 49 49 49 31 37 37 E7 70 38 03 BD 7C FD 01 DA BA 10 C8 DF A5 A2 A2 A2 BE BE 
DE D3 D3 D3 C1 C1 C1 C6 C6 66 E8 D0 A1 1F 7F FC 71 49 49 49 76 76 B6 4A A5 C2 77 CD 1A 1B 1B 0D 
0D 0D 17 2C 58 E0 ED ED ED EB EB EB E4 E4 84 87 08 06 7A ED 7A 05 B4 CE 20 DD C1 30 AC B8 B8 B8 
A4 A4 64 D8 B0 61 0C 06 A3 DB BF B6 B7 B7 A7 A6 A6 D6 D7 D7 77 CD 17 45 51 74 E4 C8 91 F6 F6 F6 
EF 60 76 15 86 61 8F 1E 3D 52 AB D5 B6 B6 B6 B8 21 46 A1 50 FC FD FD 5D 5C 5C 12 12 12 C6 8F 1F 
6F 63 63 43 24 12 ED EC EC 7E F8 E1 07 3E 9F 4F A1 50 AA AB AB 8B 8B 8B BD BC BC DE C1 D3 D5 AF 
40 39 83 FC 7F 00 00 6A 6A 6A BE F9 E6 1B A5 52 E9 E1 E1 41 A7 D3 BB 85 E4 3A 3A 3A 7E FB ED B7 
C7 8F 1F 77 DD C6 26 12 89 7C 3E DF DA DA FA 1D BC 3F 35 1A CD FD FB F7 0D 0D 0D 4D 4C 4C B4 05 
61 0C 06 63 C2 84 09 EB D6 AD BB 72 E5 8A 44 22 61 30 18 06 06 06 34 1A 0D 00 50 5D 5D FD E3 8F 
3F 22 08 32 61 C2 84 9E 4F 0B C8 DF 01 CA 19 E4 7F A8 D5 EA BB 77 EF 6E DD BA 35 23 23 C3 CB CB 
AB AB FD A5 05 C3 B0 D6 D6 D6 98 98 98 C9 93 27 77 AD 82 B2 B0 B0 78 37 8B D2 D5 6A B5 46 A3 19 
31 62 04 8F C7 D3 4A 3F 91 48 1C 36 6C 58 60 60 60 69 69 A9 5C 2E C7 9F 0A 18 86 DD BE 7D 7B EB 
D6 AD 00 80 CF 3E FB CC C5 C5 05 C6 01 FA 16 78 36 21 FF E3 CE 9D 3B 9F 7F FE 39 97 CB ED BD 28 
07 41 10 89 44 32 64 C8 90 AE C6 05 8A A2 EF 66 6A 15 85 42 F9 EC B3 CF 10 04 E1 F3 F9 5D CF 80 
A9 A9 E9 E6 CD 9B 89 44 22 87 C3 41 10 44 A5 52 9D 3D 7B 76 DB B6 6D CE CE CE B3 67 CF B6 B3 B3 
EB 5A 0E 05 E9 13 A0 9C 41 FE 07 9D 4E 5F B2 64 89 93 93 D3 B6 6D DB AA AA AA 5E F4 32 00 80 5A 
AD 96 CB E5 5A DF 8A 44 22 BD B3 99 A2 44 22 D1 D8 D8 98 40 20 74 FB F8 64 32 D9 C4 C4 04 3F 8E 
61 D8 A9 53 A7 B6 6C D9 32 61 C2 84 E8 E8 68 53 53 53 68 97 F5 07 F0 9C 42 FE 87 B5 B5 B5 85 85 
05 8A A2 BD 6B 13 00 60 CF 9E 3D C7 8E 1D D3 6E 9F 45 47 47 2F 5E BC 18 4F 16 7D 07 79 D1 B9 C2 
8F 03 00 9A 9A 9A F6 EC D9 53 5D 5D FD F4 E9 D3 3F FE F8 83 48 24 4A A5 D2 89 13 27 72 B9 DC 77 
F3 19 D0 4F 40 39 83 FC 0F 7C F3 4B A5 52 BD F4 95 86 86 86 16 16 16 B8 89 81 20 88 A1 A1 21 4C 
70 EF 85 D6 D6 56 6B 6B 6B 0E 87 23 97 CB 2B 2B 2B 71 CF 74 A0 17 A5 87 40 39 83 BC 36 28 8A 4E 
9C 38 F1 FD F7 DF A7 D3 E9 F8 11 03 03 83 E7 36 47 83 10 FE BB D5 B8 76 ED 5A 8D 46 A3 3D 48 A5 
52 59 2C 16 34 CD FA 16 28 67 90 37 81 C9 64 0A 85 42 98 67 F0 8A 90 C9 64 43 43 C3 81 5E 85 FE 
03 1D 04 08 04 A2 27 40 39 83 40 20 7A 02 74 36 21 DD 41 10 24 30 30 B0 B1 B1 D1 C0 C0 A0 E7 E6 
8E 81 81 41 54 54 14 4C 01 85 E8 20 F0 8A 84 74 87 48 24 46 44 44 60 18 F6 DC AD 31 36 9B BD 6C 
D9 32 0A 85 F2 6E D6 00 40 74 19 28 67 90 EE 20 08 D2 CB 1E 3F 8A A2 B0 A7 0D 44 37 81 7B 67 10 
C8 6B 80 61 98 4C 26 7B 6E 35 AB 16 95 4A A5 50 28 7A 79 0D 00 A0 B3 B3 53 AD 56 F7 C3 02 DF 69 
A0 9C 41 20 AF 41 61 61 E1 CA 95 2B 73 73 73 5F 94 6C AC 56 AB 63 63 63 BF F9 E6 9B BA BA 3A 00 
C0 73 5F 53 5D 5D BD 66 CD 9A F4 F4 74 B9 5C DE 9F 8B 7D E7 80 CE 26 04 F2 AA B4 B6 B6 FE FE FB 
EF 59 59 59 1A 8D C6 CA CA 4A 28 14 76 0B 95 00 00 EE DC B9 B3 7F FF FE F2 F2 72 2F 2F AF F1 E3 
C7 53 A9 D4 6E 6F A2 50 28 FE FA EB AF 8C 8C 8C 7B F7 EE 79 78 78 48 A5 52 98 4C DB 57 40 EB 0C 
02 79 25 30 0C CB CC CC BC 76 ED 5A 64 64 E4 DD BB 77 2B 2A 2A 7A BA 93 32 99 6C E7 CE 9D D6 D6 
D6 36 36 36 17 2F 5E 6C 6F 6F EF F6 02 00 C0 ED DB B7 E3 E3 E3 A3 A3 A3 CB CB CB 1F 3D 7A F4 2A 
25 65 90 57 04 CA 19 04 F2 4A 94 97 97 1F 38 70 60 E4 C8 91 0B 16 2C 60 B3 D9 27 4F 9E EC A6 56 
00 80 CB 97 2F DF BB 77 6F C6 8C 19 0B 17 2E BC 7C F9 72 61 61 61 37 B5 52 28 14 07 0F 1E B4 B7 
B7 9F 31 63 86 BF BF FF B1 63 C7 1A 1B 1B 5F E4 93 EA 2C 0A 85 A2 B0 B0 B0 B3 B3 53 A5 52 75 AD 
DC 1A 70 A0 9C 41 20 2F 47 A5 52 1D 3C 78 90 40 20 4C 9F 3E DD C6 C6 26 3A 3A 3A 35 35 B5 B6 B6 
B6 AB 81 56 51 51 B1 7B F7 EE C0 C0 40 77 77 F7 B1 63 C7 1A 19 19 9D 3C 79 B2 A3 A3 43 FB 02 0C 
C3 52 52 52 6E DC B8 11 15 15 65 69 69 F9 FE FB EF 5F BB 76 ED E1 C3 87 83 2B 26 D0 DC DC BC 61 
C3 86 FF FB BF FF 2B 2D 2D FD EE BB EF 2E 5D BA A4 50 28 06 7A 51 FF 01 CA 19 04 F2 72 AE 5E BD 
9A 9A 9A 3A 79 F2 64 4B 4B 4B 0A 85 32 62 C4 08 B5 5A 7D FD FA 75 ED 9D 8C 61 58 72 72 72 53 53 
D3 DC B9 73 05 02 01 9F CF 0F 0A 0A BA 7C F9 72 D7 A1 0A 6D 6D 6D FB F7 EF 1F 35 6A 54 40 40 80 
81 81 81 B7 B7 37 87 C3 B9 74 E9 92 4C 26 1B B8 4F F6 7A 00 00 2E 5E BC 18 1F 1F 5F 58 58 A8 50 
28 AE 5D BB B6 6F DF BE A6 A6 26 1D 31 30 61 28 00 32 30 D4 D5 D5 ED DF BF BF A9 A9 69 A0 17 F2 
4A DC B8 71 C3 C3 C3 63 DC B8 71 78 46 9E 95 95 D5 98 31 63 E2 E2 E2 86 0E 1D 6A 69 69 89 A2 68 
55 55 D5 E1 C3 87 27 4F 9E 6C 65 65 85 D7 4B 44 44 44 24 27 27 A7 A5 A5 CD 9F 3F 9F C5 62 61 18 
96 94 94 D4 D2 D2 12 11 11 81 F7 AD E5 70 38 D3 A6 4D 8B 8D 8D 0D 0B 0B 73 73 73 43 10 E4 CE 9D 
3B E9 E9 E9 3D 77 DC 74 07 5C CE 9E 3D 7B 86 FB 98 4A A5 F2 DC B9 73 35 35 35 42 A1 50 DB CB 73 
00 81 72 06 19 18 9A 9A 9A 0E 1D 3A E4 E1 E1 C1 E5 72 07 7A 2D 2F C7 CB CB EB BD F7 DE 13 89 44 
78 5B 37 2A 95 3A 63 C6 8C 99 33 67 3E 7C F8 50 2A 95 02 00 0E 1D 3A 44 A5 52 C7 8E 1D CB 64 32 
F1 5F B1 B0 B0 18 33 66 CC F9 F3 E7 A7 4C 99 C2 64 32 CB CA CA E2 E3 E3 83 83 83 6D 6D 6D 71 BD 
43 51 74 C2 84 09 87 0F 1F CE CD CD B5 B5 B5 55 2A 95 5F 7D F5 15 8D 46 13 0A 85 BA DC 3C 8E CD 
66 77 5D 9E 85 85 05 8B C5 D2 91 05 43 39 83 0C 0C 18 86 29 14 8A B9 73 E7 3A 3A 3A EA C8 CD D0 
0B 44 22 91 C5 62 69 E7 27 20 08 62 65 65 E5 E8 E8 98 9C 9C EC ED ED FD F0 E1 C3 B8 B8 B8 D5 AB 
57 E3 33 E8 F0 D7 50 28 94 B1 63 C7 26 24 24 E4 E5 E5 F1 F9 FC DF 7F FF 9D 4C 26 C7 C4 C4 74 ED 
40 6B 6C 6C EC EF EF 9F 96 96 16 1C 1C 9C 9D 9D 5D 5B 5B FB CD 37 DF 38 3A 3A EA 82 A5 F3 22 9E 
3E 7D BA 72 E5 CA BC BC 3C 85 42 C1 E1 70 A2 A2 A2 0C 0D 0D 75 24 D7 04 CA 19 64 C0 40 10 84 C7 
E3 09 04 02 5D BE 7B 5F 84 81 81 C1 9C 39 73 36 6C D8 90 97 97 97 90 90 E0 E4 E4 14 10 10 A0 ED 
67 89 E3 EA EA 3A 6C D8 B0 63 C7 8E 31 18 8C 33 67 CE 2C 5D BA D4 C2 C2 A2 EB 87 25 93 C9 33 67 
CE 5C B0 60 C1 A9 53 A7 32 32 32 86 0F 1F EE EA EA AA 3B EA F0 5C B8 5C EE 9E 3D 7B 52 52 52 76 
EC D8 B1 76 ED DA C8 C8 48 DD 69 AA AE EB 4F 45 08 44 37 41 51 D4 DF DF 9F C7 E3 ED DD BB F7 E6 
CD 9B D1 D1 D1 02 81 A0 9B 0C 19 18 18 84 85 85 E5 E7 E7 6F DD BA D5 CC CC 6C F8 F0 E1 DD 7A F6 
22 08 62 6B 6B EB EA EA 9A 98 98 78 E7 CE 9D 91 23 47 B2 D9 6C 5D D6 32 02 81 40 26 93 1D 1C 1C 
A6 4E 9D CA E7 F3 6D 6D 6D F9 7C BE EE 18 D7 BA B2 0E 08 64 D0 C1 66 B3 A3 A2 A2 EE DC B9 33 71 
E2 C4 80 80 00 1A 8D D6 ED 05 B8 E4 99 9B 9B 97 97 97 2F 5D BA 54 22 91 F4 BC F3 A9 54 EA B4 69 
D3 9E 3D 7B 36 62 C4 08 37 37 B7 41 31 77 99 48 24 32 99 4C 22 91 A8 6B D3 08 A1 B3 09 81 BC 21 
44 22 31 32 32 92 C7 E3 0D 1D 3A B4 DB 90 4D 2D 3C 1E 6F FD FA F5 75 75 75 5E 5E 5E CF 95 2A BC 
BB DC 77 DF 7D 67 6F 6F DF B3 6A 0A F2 5A 40 39 83 40 DE 1C 43 43 C3 F0 F0 70 2A 95 FA 22 87 0B 
45 51 37 37 37 8D 46 43 A1 50 5E 24 55 0C 06 23 34 34 94 4C 26 0F C6 3D 44 9D 02 CA 19 04 F2 E6 
20 08 F2 D2 11 56 24 12 A9 F7 CE BD 08 82 F4 74 54 21 6F 00 94 33 7D 03 1F 51 5E 59 59 99 93 93 
D3 D0 D0 80 A2 A8 8F 8F 8F 93 93 13 9D 4E 87 8E 0C 44 BF 81 72 A6 6F 74 74 74 FC F9 E7 9F 7F FD 
F5 17 95 4A 15 89 44 32 99 6C EF DE BD 53 A6 4C 59 B2 64 09 DC 9A 81 E8 37 50 CE F4 07 BC C7 E9 
AE 5D BB 0E 1F 3E 1C 15 15 15 1E 1E 2E 10 08 94 4A E5 C9 93 27 7F FF FD 77 33 33 B3 69 D3 A6 75 
4B 8C 82 40 F4 89 C1 2D 67 E0 BF 74 3B 8E FC 97 01 59 D5 40 01 00 C8 CE CE 3E 78 F0 E0 E4 C9 93 
E7 CD 9B 27 12 89 48 24 12 00 20 26 26 E6 CA 95 2B D7 AF 5F 8F 88 88 80 72 06 D1 63 06 B7 9C 11 
08 84 1B 37 6E C4 C5 C5 75 EB 49 E0 E2 E2 32 79 F2 64 91 48 F4 4E 85 8A E4 72 F9 91 23 47 58 2C 
D6 D4 A9 53 4D 4C 4C F0 CF 8E 20 88 A1 A1 E1 F7 DF 7F 0F 00 D0 9D EC 6D 08 A4 3F 18 DC 72 86 61 
D8 85 0B 17 D2 D3 D3 C7 8F 1F CF E1 70 70 73 AC B3 B3 F3 C0 81 03 C5 C5 C5 6B D7 AE 7D 51 36 90 
5E D2 D2 D2 72 E7 CE 9D E1 C3 87 9B 9A 9A 76 CD 1B 40 51 D4 CC CC 0C 00 80 A2 28 00 40 A3 D1 54 
55 55 35 37 37 33 99 4C B1 58 DC B3 FB 33 E4 55 C0 43 2E 18 86 A1 28 4A 22 91 BA 5D 66 18 86 A9 
D5 6A FC 9C E3 E9 A6 BD BC 4F 67 67 67 51 51 51 51 51 51 67 67 27 82 20 E6 E6 E6 8E 8E 8E 1C 0E 
E7 9D 7A 18 F7 09 83 5B CE D4 6A F5 FD FB F7 85 42 E1 82 05 0B 44 22 11 7E 49 A9 54 2A 3A 9D 8E 
77 D7 E3 F1 78 EF 8E 9C 35 36 36 36 37 37 5B 58 58 D0 68 B4 6E 9F 5A EB 7A 2B 95 CA A3 47 8F C6 
C6 C6 36 35 35 D1 68 B4 A9 53 A7 CE 9E 3D 5B FB 24 80 BC 0A 00 80 B6 B6 B6 53 A7 4E A5 A6 A6 76 
74 74 58 58 58 44 47 47 BB BB BB 53 A9 54 7C EB A3 B2 B2 32 33 33 F3 E2 C5 8B 9D 9D 9D 4C 26 73 
E4 C8 91 63 C7 8E 7D 6E 0B 1D 00 40 55 55 D5 AF BF FE FA EC D9 B3 D0 D0 50 5B 5B DB FA FA FA 03 
07 0E 20 08 B2 78 F1 62 57 57 57 38 CC F4 B5 18 DC 72 D6 D6 D6 96 9F 9F EF EE EE 6E 62 62 C2 E7 
F3 F1 83 1A 8D 86 C3 E1 C8 E5 72 95 4A A5 23 5D E5 DE 26 DD EE 19 00 40 5D 5D 5D 71 71 B1 B5 B5 
B5 A1 A1 E1 8D 1B 37 76 EC D8 31 6E DC B8 D0 D0 D0 9B 37 6F FE F9 E7 9F AE AE AE 81 81 81 F0 B6 
79 75 14 0A C5 D6 AD 5B E3 E2 E2 B8 5C AE 81 81 C1 8D 1B 37 CE 9F 3F BF 65 CB 16 3F 3F 3F 22 91 
78 F9 F2 E5 EF BE FB AE B0 B0 50 22 91 18 18 18 3C 7D FA F4 EC D9 B3 89 89 89 EB D7 AF 77 77 77 
EF 5A 18 00 00 68 68 68 F8 F6 DB 6F 6F DF BE BD 7E FD FA A1 43 87 D2 E9 74 95 4A 25 12 89 D6 AD 
5B F7 C5 17 5F FC F8 E3 8F F6 F6 F6 70 DA FC AB 33 88 6B 36 F1 27 5B 5D 5D 9D 9D 9D 1D 8A A2 2A 
95 4A A5 52 C9 E5 F2 5B B7 6E 25 27 27 3B 3A 3A 76 EB 1B 85 FB 59 7A 2C 70 3C 1E 8F CB E5 E6 E7 
E7 CB 64 32 ED C7 54 28 14 7F FE F9 E7 F7 DF 7F 5F 57 57 87 61 D8 C3 87 0F F1 46 F5 3E 3E 3E 13 
27 4E A4 50 28 4F 9F 3E 1D 5C CD 9D 07 16 00 40 49 49 C9 89 13 27 82 82 82 B6 6F DF FE FB EF BF 
7F FD F5 D7 4D 4D 4D 19 19 19 ED ED ED 78 BF E9 FA FA FA 35 6B D6 FC F6 DB 6F 7B F6 EC D9 BB 77 
EF 87 1F 7E F8 E0 C1 83 4D 9B 36 95 97 97 77 6D C6 0D 00 C8 CA CA 4A 4F 4F 0F 0C 0C F4 F4 F4 E4 
72 B9 54 2A 95 C9 64 BA B8 B8 84 87 87 DF BE 7D 3B 25 25 A5 6B 6F 6E C8 4B 19 C4 C2 0F 00 78 F4 
E8 51 6B 6B 6B 72 72 F2 CD 9B 37 71 AB 44 A3 D1 3C 7E FC 58 20 10 7C F8 E1 87 5D 37 CE 30 0C AB 
AC AC 4C 4D 4D 8D 89 89 D1 57 0F 94 CF E7 0F 1F 3E 3C 2B 2B EB D2 A5 4B 63 C7 8E A5 D3 E9 9D 9D 
9D C9 C9 C9 07 0F 1E 9C 35 6B 96 58 2C 26 12 89 E1 E1 E1 C1 C1 C1 26 26 26 24 12 A9 AE AE 4E 26 
93 F1 78 3C DD E9 88 30 28 50 2A 95 7E 7E 7E D3 A7 4F 77 73 73 A3 52 A9 3C 1E 0F 6F AB AB 52 A9 
32 32 32 1E 3F 7E BC 7E FD FA 88 88 08 2E 97 8B A2 28 86 61 A6 A6 A6 2D 2D 2D 07 0F 1E CC CD CD 
15 8B C5 DA 02 00 B5 5A 7D FE FC F9 B6 B6 36 2F 2F 2F 16 8B A5 BD 26 29 14 8A B7 B7 37 99 4C BE 
74 E9 D2 AC 59 B3 74 BF C7 86 EE 30 88 E5 0C C3 B0 DB B7 6F 73 38 9C C0 C0 40 81 40 20 93 C9 52 
52 52 54 2A D5 27 9F 7C E2 E7 E7 27 95 4A 71 07 0A DF B2 BD 75 EB D6 F7 DF 7F 2F 10 08 A6 4D 9B 
36 D0 0B EF 2F 28 14 CA FF FD DF FF 35 36 36 7E F1 C5 17 27 4E 9C 10 08 04 E5 E5 E5 A5 A5 A5 91 
91 91 31 31 31 1C 0E 07 45 51 81 40 40 20 10 30 0C 2B 2A 2A DA B4 69 93 87 87 87 A7 A7 27 F4 34 
5F 0B 07 07 87 0D 1B 36 B0 D9 6C 3C 8A D2 D4 D4 D4 DA DA EA E8 E8 48 20 10 2E 5D BA 24 91 48 F0 
C6 41 F8 43 82 48 24 F2 F9 FC 29 53 A6 24 24 24 DC BD 7B 37 34 34 54 2B 67 18 86 55 55 55 21 08 
C2 E7 F3 BB 6D 11 E0 96 5A 7D 7D BD 52 A9 7C EB 9F 6F 10 33 88 E5 4C A9 54 3E 7A F4 C8 DA DA 7A 
CE 9C 39 22 91 08 C3 30 77 77 F7 CF 3E FB AC A1 A1 41 24 12 E1 17 0D 86 61 D5 D5 D5 87 0E 1D 3A 
76 EC D8 FD FB F7 3F F9 E4 13 BC 12 18 DF B2 6D 68 68 90 C9 64 24 12 49 20 10 F4 52 21 3C 58 40 
51 D4 CA CA 6A C3 86 0D 39 39 39 F7 EE DD 53 AB D5 EE EE EE 8B 16 2D C2 3B 02 6A 4D 30 95 4A 75 
F1 E2 C5 5D BB 76 19 1B 1B 2F 59 B2 C4 C4 C4 04 5A 67 AF 0E 5E 5F 89 5F 5D 00 80 A6 A6 A6 3D 7B 
F6 58 5A 5A 06 07 07 A3 28 5A 57 57 27 12 89 BA D9 53 28 8A 5A 58 58 B0 D9 EC FA FA FA AE 7E 3D 
82 20 2C 16 0B 00 20 93 C9 BA 8D EC 54 AB D5 1A 8D 86 CB E5 0E 8A 7E 41 BA C3 20 96 B3 C6 C6 C6 
A7 4F 9F FA F9 F9 89 44 22 1E 8F 47 20 10 46 8D 1A 35 62 C4 08 BC 23 BB 93 93 13 91 48 04 00 1C 
3F 7E 3C 3F 3F 3F 22 22 A2 A1 A1 41 1B 2A 52 28 14 89 89 89 87 0E 1D AA A9 A9 A1 50 28 E1 E1 E1 
8B 17 2F D6 F1 2E A0 AF 02 89 44 B2 B4 B4 34 31 31 09 0D 0D 05 00 90 48 24 06 83 41 26 93 B5 9F 
4B 2E 97 E3 91 CD 51 A3 46 C5 C4 C4 98 9B 9B C3 1B E6 CD C0 B7 6E B7 6D DB 56 5D 5D BD 62 C5 0A 
6B 6B 6B B9 5C 8E A2 A8 52 A9 EC 39 4E 58 A3 D1 F4 6C AA 41 26 93 FD FD FD CF 9C 39 53 5C 5C AC 
54 2A B5 56 1B 00 E0 E9 D3 A7 72 B9 DC CF CF AF AB 13 0A 79 29 83 F8 B1 5C 5E 5E 5E 57 57 E7 E4 
E4 A4 CD 9C 62 30 18 93 27 4F AE A9 A9 C9 CA CA EA EC EC 24 10 08 08 82 84 87 87 6F D8 B0 C1 D7 
D7 97 46 A3 E1 53 76 30 0C BB 78 F1 E2 81 03 07 22 22 22 B6 6E DD 3A 6F DE BC E4 E4 E4 07 0F 1E 
E8 C7 8E 38 8A A2 74 3A 5D 20 10 08 85 42 1E 8F D7 F5 16 92 CB E5 07 0E 1C 88 8D 8D 9D 35 6B D6 
FC F9 F3 2D 2C 2C A0 96 BD 19 18 86 DD BD 7B 77 ED DA B5 32 99 EC A3 8F 3E F2 F4 F4 A4 52 A9 34 
1A CD C2 C2 A2 BC BC BC A1 A1 01 C3 30 DC 76 6B 68 68 50 A9 54 85 85 85 ED ED ED 8E 8E 8E DD 3A 
67 84 87 87 07 05 05 9D 3F 7F BE A2 A2 02 BF FC 70 A7 21 39 39 D9 D5 D5 75 D2 A4 49 F8 E0 28 C8 
2B 32 58 E5 0C 00 50 54 54 04 00 B0 B5 B5 D5 DE 93 78 F7 08 5B 5B DB CC CC 4C 7C F6 1F 8A A2 12 
89 44 22 91 54 56 56 1A 1B 1B 6B 7D 2E B1 58 BC 70 E1 C2 C0 C0 40 A5 52 59 53 53 83 7B 9D 03 FA 
81 FA 1D 00 40 61 61 E1 BF FF FD 6F 22 91 58 5F 5F 9F 96 96 16 1B 1B 9B 9B 9B AB 3B 33 5F 07 0B 
00 80 BC BC BC AF BF FE 5A 22 91 7C F8 E1 87 6E 6E 6E 78 A2 1F 99 4C 0E 0E 0E 6E 68 68 88 8F 8F 
AF AD AD D5 68 34 59 59 59 CB 97 2F DF BB 77 EF EE DD BB 8D 8C 8C FC FC FC BA 26 2D 57 57 57 D3 
68 B4 35 6B D6 D8 DB DB EF DD BB 17 9F 1F 5C 57 57 B7 7B F7 6E 26 93 B9 66 CD 1A 3E 9F 5F 5F 5F 
AF 53 63 C6 75 9C C1 EA 6C 02 00 EC ED ED BF F8 E2 0B 17 17 17 6D 62 0E 3E 4A E3 B3 CF 3E 2B 2D 
2D D5 5E 37 78 0E C7 DD BB 77 AD AD AD F1 8A 45 99 4C 96 96 96 76 EC D8 31 91 48 C4 E1 70 F0 4C 
05 81 40 A0 DF 5B 48 00 80 8A 8A 0A 53 53 53 0C C3 AE 5F BF 8E 27 D6 0A 04 02 37 37 B7 81 5E DA 
60 02 CF 92 FD EE BB EF 3A 3B 3B A5 52 69 69 69 69 45 45 05 81 40 30 36 36 76 74 74 1C 3D 7A 74 
58 58 D8 E1 C3 87 8B 8A 8A 26 4D 9A A4 54 2A DB DA DA BE FF FE FB 8E 8E 8E F5 EB D7 5B 59 59 75 
DD F2 2F 2D 2D 4D 4A 4A 12 8B C5 6C 36 FB FE FD FB 25 25 25 56 56 56 25 25 25 C5 C5 C5 12 89 E4 
CE 9D 3B 89 89 89 93 27 4F EE 19 28 80 BC 88 C1 2A 67 28 8A BA BB BB F7 6C E3 45 22 91 02 03 03 
7D 7D 7D 0D 0C 0C BA 3A 59 F9 F9 F9 21 21 21 B8 A9 7F FB F6 ED 13 27 4E CC 9D 3B D7 C7 C7 87 CD 
66 EF DE BD 1B 41 10 23 23 23 FD 96 33 04 41 F0 6E F4 5D 77 76 78 3C 1E 2C 72 7A 2D 00 00 A7 4E 
9D CA CB CB 93 C9 64 0F 1F 3E D4 5E 33 21 21 21 DF 7E FB 2D 8F C7 FB F4 D3 4F 45 22 51 6A 6A EA 
FA F5 EB 31 0C 93 C9 64 4C 26 13 C3 B0 63 C7 8E 99 99 99 85 86 86 6A FD 47 B5 5A 7D F2 E4 C9 D6 
D6 56 02 81 A0 52 A9 26 4C 98 80 61 58 53 53 53 6E 6E EE 99 33 67 F0 80 55 70 70 F0 80 7D D4 41 
C8 60 95 33 02 81 40 A5 52 9F 7B 2B 76 3B 8E A7 C5 37 34 34 68 C7 B5 B6 B6 B6 36 37 37 1B 19 19 
19 1B 1B E7 E6 E6 9E 3E 7D DA C1 C1 41 EF 5B 4D 20 08 C2 66 B3 BB 55 A1 C3 6D E6 37 C0 DB DB 7B 
CB 96 2D 4A A5 B2 EB D9 93 48 24 0C 06 83 48 24 9A 9B 9B 2F 5D BA 34 22 22 E2 D1 A3 47 0A 85 82 
4C 26 DB DA DA B6 B4 B4 A4 A5 A5 E1 5B FE 5A 39 B3 B7 B7 FF EE BB EF E4 72 39 FE E3 90 21 43 28 
14 8A 8B 8B CB F7 DF 7F 8F EF 00 A0 28 EA E9 E9 09 AB 02 5E 9D 77 E2 4C 95 96 96 D2 68 34 73 73 
73 FC CA 70 73 73 F3 F4 F4 FC FA EB AF 29 14 8A 58 2C 66 32 99 78 B9 EF BB 70 6F BF 0B 9F B1 5F 
41 51 D4 C1 C1 C1 DA DA BA DB 71 22 91 88 07 CD 51 14 35 34 34 E4 72 B9 F6 F6 F6 00 00 04 41 28 
14 8A 46 A3 71 71 71 01 00 B0 D9 6C ED AF 08 04 82 90 90 10 6D FD 06 3E 2B 40 2C 16 0B 85 42 ED 
41 0A 85 02 3D CD 57 E7 9D 90 33 47 47 C7 4D 9B 36 59 5A 5A E2 73 B4 44 22 D1 86 0D 1B 4A 4A 4A 
30 0C 13 8B C5 4A A5 92 48 24 C2 10 12 E4 15 21 93 C9 2F 8D 08 13 89 C4 AE 33 04 88 44 A2 91 91 
11 AE 6E DA 83 28 8A F6 1C 11 40 24 12 A1 7E BD 31 FA 2F 67 F8 BE 98 A1 A1 A1 B6 8B 0B 89 44 B2 
B0 B0 90 48 24 04 02 01 CF 4D 23 F4 A8 DC 86 40 FA 1C 68 1A F7 37 FA 2F 67 04 02 01 45 D1 6E DB 
FC 28 8A C2 CA 1E 08 44 CF D0 E7 58 1E 04 02 79 A7 80 72 06 81 40 F4 04 28 67 7A 48 73 73 73 66 
66 66 51 51 51 D7 84 72 00 40 69 69 69 66 66 66 6D 6D 6D CF A2 C2 77 19 BC E7 8A 1E 37 C2 7B 77 
80 72 A6 6F 60 18 16 1F 1F BF 72 E5 CA 2F BE F8 A2 A1 A1 A1 6B 1F C7 EF BF FF 7E F9 F2 E5 07 0E 
1C D0 FB 8A AE D7 A2 A1 A1 61 E3 C6 8D F1 F1 F1 35 35 35 B0 A2 68 50 03 E5 4C DF D0 68 34 57 AE 
5C 79 F2 E4 49 76 76 36 9E 71 8E 23 97 CB 2F 5E BC 58 52 52 72 F9 F2 65 6D EA 26 84 40 20 54 57 
57 27 25 25 FD F8 E3 8F F3 E7 CF DF B7 6F 5F 55 55 15 14 B5 41 0A 94 33 3D 44 2E 97 03 00 E4 72 
39 DE D7 01 3F 88 61 98 42 A1 C0 30 0C FF D7 81 5D A1 4E 81 37 17 FB F4 D3 4F FD FC FC 0E 1D 3A 
B4 70 E1 C2 7F FF FB DF E5 E5 E5 FA D1 61 E5 9D E2 9D 48 D4 80 40 7A 07 45 51 57 57 D7 90 90 90 
71 E3 C6 9D 3A 75 EA D0 A1 43 49 49 49 11 11 11 53 A6 4C 31 32 32 82 39 89 83 85 C1 21 67 6A B5 
BA F7 22 24 DC 0C E9 E5 B2 C3 E7 9E BC 23 95 4C 90 37 80 48 24 1A 1A 1A F2 78 3C 1B 1B 9B 88 88 
88 B4 B4 B4 A4 A4 A4 E3 C7 8F 47 44 44 44 44 44 48 24 12 58 3B A9 FB 0C 02 67 B3 B5 B5 75 DB B6 
6D 37 6F DE 54 A9 54 CF 7D 01 3E 34 60 E7 CE 9D B5 B5 B5 2F 72 A3 CA CA CA 36 6F DE 5C 56 56 06 
83 7A 90 5E 20 91 48 7C 3E DF C5 C5 65 F1 E2 C5 9B 36 6D 1A 3B 76 6C 6A 6A EA C2 85 0B 77 EF DE 
FD E4 C9 13 E8 7E EA 38 BA FE C0 51 AB D5 49 49 49 BF FD F6 5B 6E 6E EE AE 5D BB 04 02 41 4F F3 
AA B9 B9 79 CB 96 2D 97 2F 5F E6 F1 78 31 31 31 3D DB 6C A8 D5 EA BD 7B F7 C6 C6 C6 2A 14 8A 8F 
3F FE B8 6B 19 30 04 D2 13 6D 19 B9 85 85 C5 98 31 63 CE 9C 39 93 92 92 72 FC F8 F1 B0 B0 B0 A8 
A8 28 53 53 53 68 A9 E9 26 BA 6E 9D 3D 7A F4 E8 D7 5F 7F 1D 3F 7E 7C 5E 5E DE 73 6D 2B 8D 46 F3 
C7 1F 7F 54 55 55 B9 B9 B9 9D 39 73 A6 BD BD BD DB 0B 00 00 05 05 05 59 59 59 43 86 0C 39 7B F6 
6C 7D 7D 3D 34 D0 20 AF 02 3E 84 C9 D5 D5 75 FE FC F9 3F FD F4 D3 E4 C9 93 4F 9F 3E 3D 67 CE 9C 
9F 7F FE F9 D1 A3 47 70 C6 92 0E F2 1A 72 86 67 1B D6 D4 D4 3C 7B F6 4C A9 54 BE 85 E8 58 47 47 
47 6C 6C 2C 9F CF 9F 33 67 8E 8D 8D 4D 52 52 52 5B 5B 5B B7 25 95 97 97 27 25 25 85 87 87 CF 9A 
35 EB D6 AD 5B 0F 1E 3C E8 E6 93 B6 B5 B5 ED DC B9 53 2A 95 AE 58 B1 A2 A5 A5 25 3B 3B FB 2D B7 
93 06 00 74 76 76 AA D5 6A 99 4C 06 33 00 08 FF BD 90 9A 9A 9A D4 6A 75 D7 D8 AB 6E 42 24 12 79 
3C 9E 93 93 D3 AC 59 B3 7E F8 E1 87 C8 C8 C8 EC EC EC 0F 3F FC 70 F3 E6 CD 45 45 45 2F DA 00 81 
0C 08 AF 21 67 AD AD AD 3F FF FC 73 64 64 64 78 78 F8 FA F5 EB BB 8D 74 EE 73 00 00 67 CF 9E 3D 
7D FA F4 B2 65 CB 9C 9D 9D E7 CD 9B 97 95 95 F5 E4 C9 93 AE 8A A0 50 28 FE F5 AF 7F 51 A9 D4 09 
13 26 04 07 07 3B 3B 3B 27 24 24 74 35 D0 30 0C CB CE CE BE 79 F3 E6 D2 A5 4B 87 0E 1D 1A 1E 1E 
9E 90 90 D0 DC DC FC D6 6E 21 0C C3 AE 5C B9 F2 CF 7F FE B3 AA AA EA BB EF BE 3B 71 E2 04 4C 61 
ED E8 E8 D8 B5 6B D7 CA 95 2B 2B 2B 2B F7 EC D9 D3 ED 3B D5 4D 50 14 E5 72 B9 CE CE CE 73 E6 CC 
D9 BC 79 73 64 64 64 4E 4E CE 82 05 0B 7E FC F1 C7 C2 C2 42 68 A9 E9 08 AF BA 05 00 00 48 4E 4E 
DE B9 73 E7 B3 67 CF 30 0C 7B F2 E4 09 93 C9 FC F8 E3 8F FB AF 4D 58 4D 4D CD BE 7D FB FC FD FD 
F1 4E D9 C1 C1 C1 5B B6 6C C9 C9 C9 B1 B7 B7 C7 3B C7 02 00 AE 5F BF 7E F2 E4 C9 75 EB D6 99 9B 
9B 53 A9 D4 71 E3 C6 ED D9 B3 A7 B2 B2 12 1F 91 4B 20 10 5A 5B 5B FF F8 E3 0F 7F 7F 7F 77 77 77 
06 83 31 7E FC F8 13 27 4E E4 E7 E7 1B 1A 1A BE 9D 8E 1A 32 99 EC AB AF BE BA 72 E5 8A 4C 26 BB 
7A F5 6A 4D 4D 8D 8B 8B 8B BD BD BD 7E 37 F2 EE 05 00 40 46 46 C6 8E 1D 3B CA CA CA D4 6A F5 E1 
C3 87 39 1C CE 3F FF F9 4F 0E 87 33 D0 4B 7B 39 44 22 91 C3 E1 B0 58 2C B1 58 3C 6A D4 A8 4B 97 
2E 65 64 64 64 64 64 84 84 84 44 46 46 DA DA DA C2 4E E5 03 CB AB CA 99 52 A9 3C 79 F2 64 75 75 
35 1E DC 69 6E 6E 4E 48 48 30 34 34 EC D6 AC B9 0F B9 73 E7 4E 53 53 D3 BA 75 EB 78 3C 1E 3E 29 
7A E2 C4 89 49 49 49 61 61 61 E6 E6 E6 C1 7E 35 3C 00 00 20 00 49 44 41 54 08 82 C8 E5 F2 83 07 
0F BA B8 B8 F8 F9 F9 E1 A3 74 C6 8E 1D BB 6F DF BE 93 27 4F 5A 58 58 E0 0D DA CF 9C 39 53 52 52 
F2 D1 47 1F 71 38 1C 04 41 DC DC DC DC DD DD 8F 1E 3D EA E6 E6 86 CF 03 6F 6B 6B 3B 73 E6 4C 47 
47 47 3F D9 6B 15 15 15 37 6F DE C4 DF 5F A9 54 16 17 17 EF DE BD DB C3 C3 A3 FF F6 92 35 1A 4D 
69 69 69 2F 86 F3 B3 67 CF 8E 1E 3D DA 7F 5F 5C EF 00 00 8E 1C 39 52 51 51 81 BB 69 AD AD AD C9 
C9 C9 12 89 84 CB E5 0E C8 7A 08 04 42 79 79 79 47 47 C7 AB BF 1E 45 51 5C D4 24 12 C9 F0 E1 C3 
2F 5C B8 70 F2 E4 C9 B3 67 CF 06 05 05 4D 9B 36 CD C6 C6 46 0F 46 50 0F 52 5E F5 A6 42 51 54 3B 
A7 1E A7 B9 B9 39 2B 2B AB FF 06 35 6A 34 9A 95 2B 57 3A 3A 3A E2 77 3E 89 44 9A 3A 75 6A 5A 5A 
5A 4E 4E 8E 48 24 A2 50 28 17 2F 5E CC C9 C9 F9 E1 87 1F B4 E3 7E 8D 8D 8D 23 23 23 8F 1D 3B 16 
13 13 C3 60 30 64 32 D9 81 03 07 46 8F 1E ED E4 E4 84 BF 09 8B C5 9A 3D 7B F6 C7 1F 7F 5C 52 52 
C2 E3 F1 30 0C FB E9 A7 9F 72 72 72 58 2C 56 3F 99 4B 0A 85 A2 B3 B3 53 AB 95 00 80 BB 77 EF 56 
56 56 F6 DF E5 8E 61 D8 B3 67 CF 7A 71 DF EA EA EA 32 32 32 06 D0 8E E8 16 D2 69 6F 6F 3F 75 EA 
D4 00 AE A7 A5 A5 05 9F CA FA 5A A0 28 CA 66 B3 99 4C A6 44 22 19 35 6A D4 D5 AB 57 8F 1F 3F 7E 
EA D4 A9 E0 E0 E0 A8 A8 28 47 47 47 68 A9 BD 7D 5E 55 CE 48 24 D2 98 31 63 52 52 52 2A 2B 2B 01 
00 4C 26 F3 83 0F 3E 98 32 65 4A FF B9 6C 08 82 18 1B 1B 77 ED 50 6C 65 65 E5 EE EE 9E 9E 9E 3E 
7A F4 68 14 45 7F FA E9 A7 F1 E3 C7 FB F8 F8 68 25 95 48 24 8E 1E 3D FA C0 81 03 97 2F 5F 9E 34 
69 D2 C9 93 27 9F 3D 7B B6 7A F5 6A DC 34 C3 DF 73 C8 90 21 02 81 20 33 33 D3 D1 D1 B1 B0 B0 30 
35 35 75 C5 8A 15 7E 7E 7E FD 64 2E A9 54 AA CF 3F FF 3C 33 33 B3 B3 B3 13 41 10 77 77 F7 8D 1B 
37 8A C5 E2 FE 93 33 95 4A F5 C9 27 9F D4 D4 D4 BC E8 05 B6 B6 B6 EB D7 AF E7 F3 F9 FD B4 80 97 
72 FD FA F5 7F FE F3 9F B8 09 49 A7 D3 E7 CE 9D FB DE 7B EF 75 FD A2 DF 32 05 05 05 1F 7F FC F1 
9B FD 2E 8A A2 2C 16 8B C1 60 88 C5 62 5F 5F DF AB 57 AF 9E 3C 79 72 C5 8A 15 FE FE FE EF BD F7 
9E 83 83 03 EE 37 F4 ED 82 21 2F E2 55 EF 61 04 41 82 83 83 77 EC D8 71 EC D8 B1 8E 8E 8E 88 88 
88 71 E3 C6 19 1B 1B F7 EB 57 D5 ED CD A9 54 EA CC 99 33 97 2D 5B 76 FD FA F5 D2 D2 D2 D6 D6 D6 
A9 53 A7 E2 AE A8 F6 35 B6 B6 B6 41 41 41 F1 F1 F1 A6 A6 A6 3B 77 EE 8C 8C 8C 74 76 76 EE 5A 2D 
C0 E7 F3 A7 4D 9B F6 E7 9F 7F 8E 19 33 E6 A7 9F 7E F2 F0 F0 18 33 66 8C 89 89 49 3F 7D 10 00 C0 
B7 DF 7E EB EA EA BA 63 C7 8E 49 93 26 CD 9F 3F DF C7 C7 A7 67 87 F8 3E 44 A5 52 31 99 CC 5E 3E 
0E 9D 4E 37 37 37 17 0A 85 FD B7 86 DE 31 32 32 62 32 99 49 49 49 2D 2D 2D 21 21 21 61 61 61 62 
B1 78 00 37 13 DB DA DA B4 4F C4 DE F7 1C 5E 74 56 51 14 65 32 99 76 76 76 12 89 24 30 30 30 27 
27 27 25 25 65 D9 B2 65 81 81 81 33 66 CC 70 74 74 84 EE E7 DB E1 35 4C 12 36 9B 3D 6E DC B8 A1 
43 87 62 18 C6 E5 72 BB 0D B8 7C 0B 20 08 E2 ED ED ED EC EC 7C E4 C8 91 82 82 82 A9 53 A7 6A 67 
CD 69 A1 D1 68 33 67 CE 9C 3D 7B F6 2F BF FC 82 A2 68 74 74 B4 D6 34 C3 21 12 89 93 26 4D 8A 8D 
8D DD BE 7D 7B 51 51 D1 F6 ED DB FB 75 C2 26 82 20 F6 F6 F6 B3 66 CD 8A 8B 8B 9B 36 6D 1A AE 65 
6F F3 19 F0 A2 D7 0C E0 DD C5 62 B1 C6 8C 19 E3 ED ED AD D1 68 D8 6C 36 83 C1 D0 91 C0 08 00 20 
37 37 37 2B 2B 0B DF 1F 50 28 14 24 12 09 2F 8C E3 F1 78 33 67 CE 34 31 31 E9 65 A9 B8 A8 59 5B 
5B 9B 98 98 0C 1B 36 2C 37 37 37 2D 2D 6D C9 92 25 01 01 01 D3 A6 4D 73 73 73 EB 3A FB 15 D2 1F 
BC 86 9C 21 08 62 60 60 30 80 4E 01 81 40 A0 D3 E9 E1 E1 E1 1B 36 6C 70 72 72 8A 8C 8C EC B9 9F 
8D CB 87 8B 8B CB 95 2B 57 D6 AE 5D 2B 91 48 7A 5E 7F 46 46 46 B8 4F 1A 13 13 D3 75 88 7A 3F 41 
24 12 D9 6C 36 91 48 64 B1 58 64 32 19 5E D0 04 02 81 46 A3 89 44 A2 81 5E 45 77 F0 49 4B 6A B5 
5A A5 52 01 00 F0 FF E2 F6 1A 86 61 AF F8 C5 E1 A2 C6 60 30 8C 8D 8D 7D 7C 7C 70 F7 73 F5 EA D5 
9E 9E 9E D3 A6 4D F3 F0 F0 80 A2 D6 7F 0C B2 5A 0D 14 45 C3 C2 C2 6A 6B 6B 87 0E 1D 2A 95 4A 9F 
FB A8 64 32 99 AB 56 AD BA 78 F1 E2 A4 49 93 9E EB D6 91 C9 E4 05 0B 16 30 99 CC A8 A8 28 2E 97 
0B AF 2D 08 0E 8A A2 6E 6E 6E 56 56 56 78 A4 02 97 30 FC F2 20 12 89 5C 2E F7 D5 AD 48 04 41 18 
0C 86 95 95 95 48 24 F2 F7 F7 BF 71 E3 C6 89 13 27 56 AE 5C E9 E7 E7 17 13 13 03 45 AD 9F 18 64 
72 46 20 10 F8 7C FE 82 05 0B 0C 0C 0C 5E 14 85 40 51 D4 C3 C3 C3 CE CE AE 97 78 A5 B9 B9 F9 92 
25 4B 70 A3 A9 3F 17 0B 19 64 F4 AD FF 81 8B 9A A5 A5 A5 48 24 F2 F6 F6 BE 75 EB 56 5A 5A DA AA 
55 AB 5C 5D 5D A7 4F 9F EE E5 E5 C5 60 30 A0 A8 F5 21 83 4F CE 10 04 79 69 8E 12 85 42 E9 3D E4 
8A 37 4E E8 D3 75 41 20 CF 07 41 10 3A 9D 6E 61 61 61 6C 6C EC E9 E9 79 F3 E6 CD 94 94 94 B5 6B 
D7 BA BA BA C6 C4 C4 E0 A2 A6 23 BB 87 83 9D C1 27 67 10 C8 60 04 17 35 73 73 73 63 63 63 2F 2F 
AF DB B7 6F 67 64 64 7C F6 D9 67 B8 A5 E6 EB EB DB 7B 3C 1A F2 2A 40 39 83 40 DE 1E 78 3C CD CC 
CC CC C8 C8 C8 D3 D3 F3 F6 ED DB E9 E9 E9 1B 37 6E B4 B5 B5 8D 8E 8E 0E 08 08 E8 BF 8C EE 77 01 
28 67 10 C8 DB 06 17 35 89 44 22 14 0A 3D 3C 3C EE DD BB 97 92 92 B2 71 E3 46 27 27 A7 69 D3 A6 
05 04 04 30 99 4C 28 6A 6F 00 94 33 7D 03 8F 84 64 65 65 B9 BA BA 76 F5 5F 68 34 9A B3 B3 73 75 
75 B5 BB BB FB DB 29 BF 87 F4 0E 82 20 34 1A 0D 17 35 37 37 B7 07 0F 1E A4 A7 A7 7F FD F5 D7 96 
96 96 D3 A6 4D 0B 0A 0A 82 96 DA EB 02 E5 4C DF 20 12 89 33 66 CC 30 31 31 B1 B3 B3 EB DA BC 97 
46 A3 7D F1 C5 17 93 27 4F 0E 0C 0C EC BF 3E 28 90 D7 05 17 35 53 53 53 A1 50 E8 E2 E2 92 9F 9F 
9F 92 92 F2 D3 4F 3F 1D 3D 7A 34 2A 2A 6A F8 F0 E1 DD 6A A5 21 BD 00 E5 4C 0F 91 4A A5 D1 D1 D1 
54 2A B5 6B 83 00 3C A9 CA DE DE DE C0 C0 00 A6 A7 E8 1A 08 82 50 A9 54 B1 58 2C 14 0A 9D 9C 9C 
F2 F3 F3 33 33 33 7F F8 E1 87 C3 87 0F CF 98 31 23 28 28 A8 5B 71 0B E4 B9 0C 1A 39 C3 1B EC E0 
29 DA 24 12 A9 F7 54 7E 7C 6E 53 6B 6B 6B 6D 6D AD 52 A9 A4 D3 E9 C6 C6 C6 78 8E CF BB 70 4D E0 
89 E9 3D 8F 93 C9 E4 FE EB 80 02 F9 FB 20 08 42 A1 50 C4 62 B1 A1 A1 A1 8B 8B 4B 78 78 78 7A 7A 
FA D6 AD 5B 0F 1E 3C 18 15 15 35 66 CC 18 3E 9F 0F 2D B5 5E 18 04 72 06 00 68 6C 6C CC CE CE 4E 
4B 4B 6B 6C 6C 24 10 08 43 86 0C 09 0B 0B 73 71 71 A1 52 A9 3D E5 09 00 D0 D0 D0 90 90 90 F0 F0 
E1 43 47 47 47 16 8B 55 52 52 52 55 55 35 7E FC F8 A0 A0 20 98 B8 08 D1 71 70 F7 D3 C4 C4 44 20 
10 38 38 38 14 14 14 64 64 64 FC FA EB AF 49 49 49 53 A6 4C 19 3D 7A B4 40 20 80 A2 F6 5C 74 5D 
CE F0 69 00 5F 7D F5 D5 85 0B 17 38 1C 8E 91 91 91 46 A3 89 8D 8D 4D 4A 4A 5A B1 62 45 74 74 74 
B7 B2 4D 5C CB BE F9 E6 9B 82 82 82 15 2B 56 78 7A 7A 52 A9 D4 96 96 96 84 84 84 AF BE FA 6A C9 
92 25 3D 7F 05 02 D1 4D C8 64 B2 48 24 E2 F3 F9 8E 8E 8E 61 61 61 99 99 99 BF FE FA EB 91 23 47 
22 23 23 43 43 43 A1 A5 D6 13 5D 97 33 99 4C B6 7D FB F6 EC EC EC 19 33 66 4C 98 30 41 20 10 68 
34 9A FC FC FC 9F 7F FE 79 CB 96 2D 22 91 28 38 38 B8 6B 9C 4E AD 56 C7 C7 C7 1F 3B 76 EC A3 8F 
3E 0A 08 08 C0 4B 32 B9 5C 6E 4C 4C 4C 76 76 F6 AE 5D BB 9C 9D 9D 3D 3D 3D E1 60 31 C8 60 81 42 
A1 88 44 22 43 43 43 7B 7B FB 88 88 88 D4 D4 D4 7D FB F6 25 26 26 4E 9E 3C 39 24 24 C4 C8 C8 08 
5E CC 5A 74 FA 44 00 00 1E 3F 7E 9C 96 96 36 7E FC F8 F9 F3 E7 9B 9A 9A E2 7B D8 A6 A6 A6 34 1A 
ED 83 0F 3E 38 7E FC B8 9F 9F 5F 57 39 6B 6B 6B 4B 49 49 01 00 0C 1F 3E 9C C5 62 E1 7E 25 8A A2 
26 26 26 C3 87 0F FF F1 C7 1F AF 5C B9 E2 EC EC 0C AF 00 C8 E0 02 B7 D4 04 02 81 95 95 D5 F8 F1 
E3 4F 9F 3E BD 7F FF FE 84 84 84 A9 53 A7 E2 A2 F6 36 C3 3B 00 80 B7 33 82 4B DB D1 E4 15 77 BD 
75 FA AE 06 00 DC B8 71 A3 A5 A5 65 FC F8 F1 26 26 26 5A 0D A2 D3 E9 FE FE FE 1E 1E 1E 77 EE DC 
69 6F 6F EF DA 15 A3 A1 A1 A1 AC AC 8C CF E7 77 33 C5 49 24 92 B9 B9 B9 46 A3 29 2E 2E 86 B3 AC 
21 83 14 12 89 64 6C 6C CC E7 F3 ED ED ED 43 43 43 B3 B2 B2 62 63 63 8F 1E 3D 1A 11 11 11 1E 1E 
FE 76 2C 35 00 C0 C3 87 0F E3 E3 E3 EB EA EA F2 F3 F3 3D 3D 3D FB A9 2D 8D 42 A1 38 79 F2 64 4E 
4E 0E 99 4C 9E 3E 7D BA 9D 9D DD 4B 03 59 BA 2E 67 55 55 55 54 2A D5 C4 C4 A4 DB C3 87 4E A7 5B 
5A 5A 3E 7A F4 48 A1 50 E0 6D AA F0 E3 B8 8A F7 1C FC 81 BF 06 8F 1C C1 50 00 64 50 43 26 93 85 
42 21 8F C7 B3 B6 B6 1E 37 6E DC D9 B3 67 8F 1C 39 92 9C 9C 3C 71 E2 C4 F1 E3 C7 8B C5 E2 7E 15 
B5 FA FA FA 35 6B D6 E4 E4 E4 34 36 36 6E D9 B2 85 C7 E3 45 46 46 E2 C3 D5 FA 10 B9 5C BE 71 E3 
C6 E3 C7 8F D7 D4 D4 20 08 72 E6 CC 99 5F 7E F9 65 C8 90 21 BD 2B 9A 4E CB 19 81 40 20 91 48 6A 
B5 FA B9 F6 94 52 A9 24 93 C9 78 B3 50 ED 41 43 43 43 89 44 F2 E0 C1 83 96 96 16 0C C3 B4 06 1A 
00 A0 BA BA 9A 48 24 3A 3A 3A C2 64 05 88 1E 40 22 91 B4 A2 36 6A D4 A8 B3 67 CF 26 24 24 24 27 
27 87 85 85 4D 9C 38 B1 9F 0A DA 31 0C 4B 4C 4C CC C9 C9 A9 AB AB C3 C3 74 7F FC F1 87 BB BB BB 
A9 A9 69 DF FE B9 BC BC BC C4 C4 C4 92 92 12 7C 88 4F 5E 5E DE F6 ED DB 7F FC F1 C7 DE FB E0 EB 
B4 9C E1 AD 65 D5 6A F5 C3 87 0F 9D 9D 9D 0D 0C 0C 14 0A 45 55 55 95 48 24 EA E8 E8 B8 7F FF BE 
BD BD 7D B7 04 2B 16 8B 35 73 E6 CC 75 EB D6 5D BB 76 CD CE CE 0E FF 57 00 40 73 73 F3 C5 8B 17 
BD BC BC 02 02 02 60 89 0F 44 6F 20 91 48 02 81 80 CB E5 DA D8 D8 04 07 07 6F DB B6 ED E7 9F 7F 
8E 8D 8D ED BF 67 F6 B3 67 CF 1A 1B 1B F1 2D 2D 00 C0 D5 AB 57 E7 CE 9D DB E7 E3 2F 9A 9B 9B 4B 
4B 4B B5 03 C9 D4 6A 75 61 61 A1 42 A1 E8 FD B7 74 5A CE 50 14 1D 32 64 88 85 85 C5 1F 7F FC 61 
6F 6F EF EA EA 5A 51 51 F1 E5 97 5F 8A C5 62 2A 95 5A 59 59 B9 68 D1 A2 AE 4F 21 00 40 7B 7B 7B 
48 48 48 75 75 F5 A9 53 A7 8C 8C 8C 42 43 43 E9 74 7A 4D 4D 4D 6C 6C 2C 91 48 5C B5 6A 15 9F CF 
57 AB D5 28 8A EA B1 CB A9 56 AB EB EA EA B8 5C 6E CF B9 04 78 12 1F 6E BA 76 3D CE 60 30 84 42 
21 8C 90 0C 46 00 00 72 B9 FC EE DD BB F8 0C 0D 6F 6F EF 88 88 08 36 9B DD 4F 7F EE D6 AD 5B DB 
B7 6F C7 33 40 09 04 82 97 97 D7 C2 85 0B FB 7C EA 73 79 79 F9 B7 DF 7E 5B 5D 5D AD 0D 05 D8 D9 
D9 BD 74 D6 9F AE 5F BE 62 B1 78 F9 F2 E5 1B 36 6C F8 E8 A3 8F 22 22 22 C4 62 31 9B CD 8E 8F 8F 
EF E8 E8 18 39 72 64 40 40 40 B7 4F 78 EE DC 39 3A 9D EE E7 E7 C7 E1 70 D2 D2 D2 7C 7D 7D 69 34 
DA 99 33 67 64 32 D9 D4 A9 53 39 1C 4E 42 42 42 74 74 B4 B1 B1 F1 40 7D A2 FE 06 C3 B0 5B B7 6E 
6D D9 B2 65 D5 AA 55 3D E7 13 6B 34 9A FD FB F7 1F 3D 7A B4 DB 64 C9 A0 A0 A0 8D 1B 37 C2 96 96 
83 8E CE CE CE 9C 9C 9C 43 87 0E 3D 78 F0 C0 CD CD ED CB 2F BF 74 77 77 37 36 36 EE BF 40 A7 A7 
A7 E7 A5 4B 97 2E 5E BC A8 50 28 B8 5C EE DC B9 73 27 4C 98 D0 E7 7B 67 32 99 AC BA BA FA C0 81 
03 95 95 95 04 02 C1 CB CB 6B C9 92 25 5D 6B 90 9F 8B AE CB 19 99 4C 9E 30 61 02 8D 46 8B 8D 8D 
3D 70 E0 80 42 A1 50 28 14 F8 E0 8C 1B 37 6E EC DB B7 6F F9 F2 E5 46 46 46 DA 0F 59 54 54 14 1B 
1B 4B 20 10 54 2A 95 4C 26 5B BD 7A 35 86 61 25 25 25 87 0F 1F C6 6F 6C 32 99 3C 7E FC F8 AE D1 
03 BD 01 2F ED CA CD CD FD FA EB AF EF DE BD FB E1 87 1F 3E 37 94 5E 55 55 D5 DE DE 3E 76 EC D8 
AE 7E BA 83 83 03 F4 C1 07 11 00 80 B6 B6 B6 2B 57 AE C4 C7 C7 17 17 17 3B 3B 3B AF 5B B7 CE C5 
C5 45 28 14 F6 F7 14 02 13 13 93 6D DB B6 9D 3B 77 AE BE BE DE C7 C7 C7 CF CF EF B5 A6 28 BC 22 
54 2A 75 F9 F2 E5 DE DE DE 77 EE DC 21 93 C9 21 21 21 CE CE CE 83 3B B2 49 20 10 10 04 61 B3 D9 
A1 A1 A1 6E 6E 6E 8F 1F 3F 6E 6B 6B 23 10 08 62 B1 98 C1 60 5C B8 70 A1 B8 B8 B8 5B 64 D3 D5 D5 
35 24 24 44 A9 54 12 08 04 32 99 8C DF B1 CE CE CE 61 61 61 2A 95 8A 40 20 70 38 1C 7D 6D FB A9 
54 2A FF FC F3 CF 43 87 0E 75 76 76 F6 8C ED 6A 01 00 98 9A 9A 2E 5C B8 B0 EB 98 54 0A 85 D2 E7 
0F 58 48 7F A0 15 B2 B8 B8 B8 C7 8F 1F 7B 79 79 AD 5E BD DA C5 C5 45 24 12 3D B7 E6 AF CF C1 E3 
69 52 A9 54 AD 56 33 18 8C 7E 4A 15 40 10 C4 C8 C8 68 EC D8 B1 C3 87 0F 47 10 84 C5 62 BD CA 4E 
88 AE CB 19 E1 BF 5D 89 AD AD AD A5 52 29 7E 97 92 48 24 14 45 2D 2D 2D DB DA DA BA 4E C9 44 10 
64 F8 F0 E1 9E 9E 9E 5A 7F 9B C7 E3 91 48 A4 90 90 90 61 C3 86 E1 07 51 14 ED 36 69 58 6F 50 28 
14 25 25 25 D1 D1 D1 44 22 71 CB 96 2D BD BC 92 4C 26 F3 78 3C 43 43 43 BD 3C 0F FA 0A 00 40 26 
93 9D 3E 7D 3A 31 31 F1 E9 D3 A7 1E 1E 1E F8 C0 01 A1 50 F8 76 84 4C 0B 8A A2 FD B7 37 D7 95 D7 
9D 44 33 08 E4 0C 07 EF A0 D2 F5 08 97 CB ED D9 35 85 C1 60 F4 6C E6 C5 62 B1 DE 85 3A 4D 03 03 
83 0F 3E F8 80 CD 66 5F BB 76 AD F7 AD 93 D2 D2 D2 9D 3B 77 6A 9D 4D 3E 9F 3F 75 EA 54 3E 9F 0F 
D5 4D 37 C1 43 F3 D9 D9 D9 09 09 09 E5 E5 E5 9E 9E 9E EF BF FF BE 83 83 C3 DB 17 32 1D 67 D0 C8 
D9 73 81 5F 64 57 48 24 92 99 99 19 81 40 78 E9 46 46 75 75 75 7C 7C BC D6 7A 37 37 37 1F 37 6E 
9C BE 1A AD 83 1A 00 40 4B 4B CB B9 73 E7 8E 1E 3D 5A 51 51 E1 ED ED FD FE FB EF 3B 39 39 19 19 
19 C1 84 F0 9E 0C 6E 39 83 74 05 BF B8 5F A5 92 CE C1 C1 E1 F3 CF 3F D7 3A 9B 78 68 05 DE 1B 3A 
05 9E 52 73 E6 CC 99 84 84 84 BA BA 3A 2F 2F AF 45 8B 16 E1 1D 86 A1 90 BD 08 28 67 EF 22 6C 36 
DB DD DD DD C4 C4 04 FF 11 F9 2F 03 BB 2A 08 0E 86 61 F5 F5 F5 B8 45 56 5F 5F 1F 10 10 B0 64 C9 
12 7B 7B 7B A1 50 48 26 93 E1 D7 D4 0B 50 CE DE 45 10 04 41 51 54 BF 73 89 07 23 F8 1E 59 6A 6A 
EA F1 E3 C7 1B 1A 1A FC FD FD 97 2E 5D EA E0 E0 20 10 08 A0 90 BD 0A 50 CE 20 90 81 07 C3 B0 DA 
DA DA CC CC CC C4 C4 C4 F6 F6 F6 61 C3 86 8D 1B 37 CE DA DA 9A CF E7 43 21 7B 75 A0 9C E9 21 34 
1A 0D AF 03 7B EE 6D C0 E3 F1 84 42 21 9C 7E A2 23 E0 42 96 9E 9E 9E 9C 9C 2C 93 C9 02 02 02 82 
83 83 ED EC EC 0C 0D 0D 61 AF 84 D7 05 CA 99 1E E2 E1 E1 B1 73 E7 4E A9 54 DA 53 B3 50 14 9D 37 
6F 9E 5C 2E 87 71 CC 01 07 17 B2 94 94 94 13 27 4E 74 76 76 06 06 06 86 86 86 5A 5B 5B E3 C9 92 
F0 DB 79 03 A0 9C E9 1B 78 0A B5 83 83 C3 73 77 F7 51 14 35 35 35 05 00 C0 36 F3 03 88 46 A3 A9 
AC AC CC C8 C8 38 76 EC 18 00 60 E4 C8 91 23 47 8E B4 B2 B2 C2 5D CB 81 5E DD 20 06 CA 99 1E D2 
7B 98 12 06 31 5F 05 BC 4D 05 99 4C EE C3 2E 23 78 4F EA AA AA AA E4 E4 E4 93 27 4F AA D5 EA E1 
C3 87 8F 1A 35 CA D6 D6 16 B7 C8 FA EA 0F BD B3 C0 33 08 81 3C 07 B5 5A BD 6D DB B6 80 80 00 7F 
7F FF 3E 29 CE D7 68 34 15 15 15 27 4E 9C 48 4B 4B 23 10 08 C1 C1 C1 41 41 41 56 56 56 1C 0E 07 
BA 96 7D 05 94 33 08 E4 39 E0 BD 49 8C 8C 8C 7C 7C 7C FE A6 9C A9 D5 EA F2 F2 F2 63 C7 8E 65 66 
66 D2 68 B4 B1 63 C7 0E 1B 36 CC CA CA 8A CB E5 42 8B AC 6F 81 67 13 02 79 3E 4A A5 52 A5 52 BD 
F1 BC 22 BC 5F 53 59 59 59 52 52 52 56 56 16 89 44 1A 3B 76 EC A8 51 A3 2C 2C 2C 70 8B AC 6F 57 
0B 21 40 39 83 40 B4 00 00 6A 6B 6B 8B 8A 8A 54 2A 95 52 A9 6C 68 68 28 2A 2A BA 74 E9 12 8D 46 
63 30 18 4E 4E 4E AF DE 4A 4C AD 56 97 94 94 1C 3F 7E 3C 3D 3D 9D C3 E1 44 44 44 0C 1B 36 CC CC 
CC 8C CD 66 43 21 EB 3F E0 99 85 40 FE C7 B5 6B D7 0E 1C 38 D0 D6 D6 86 61 58 71 71 71 7B 7B FB 
ED DB B7 89 44 A2 B1 B1 F1 BA 75 EB AC AD AD 7B CF D7 03 00 A8 D5 EA E2 E2 E2 C4 C4 C4 EC EC 6C 
06 83 11 1D 1D 1D 18 18 68 61 61 C1 66 B3 61 AE 5F 7F 03 E5 0C A2 A3 BC 85 A9 B4 DD FE 16 82 20 
FE FE FE F8 3C 56 85 42 B1 6A D5 AA 11 23 46 4C 98 30 C1 C0 C0 80 42 A1 48 24 92 5E B2 5B 70 D7 
12 17 B2 53 A7 4E B1 58 AC 29 53 A6 04 04 04 98 9B 9B B3 58 2C 28 64 6F 07 28 67 6F 8F E2 E2 62 
0F 0F 0F 7D ED 85 DB E7 28 95 CA FD FB F7 57 55 55 F5 D2 59 B7 4F A8 AD AD 6D 69 69 C1 FF DF D0 
D0 10 1F 98 20 97 CB 59 2C 96 44 22 71 75 75 C5 3B E8 F5 A2 65 2A 95 EA D1 A3 47 71 71 71 17 2E 
5C 30 36 36 9E 31 63 86 9F 9F 9F 54 2A 85 42 F6 96 81 72 F6 36 60 B3 D9 53 A6 4C D9 BF 7F FF 93 
27 4F DE 7B EF 3D 1B 1B 1B 98 2D F9 52 D4 6A 75 42 42 02 8F C7 33 35 35 ED 57 51 90 CB E5 5A 4B 
50 9B 94 47 24 12 59 2C 16 83 C1 20 12 89 2F 12 32 00 80 4A A5 CA CF CF 3F 76 EC D8 95 2B 57 78 
3C DE 8C 19 33 02 02 02 CC CC CC 58 2C 16 4C 54 7E FB 40 39 7B 1B 18 18 18 2C 5F BE 7C C8 90 21 
87 0F 1F BE 78 F1 E2 CC 99 33 27 4D 9A C4 E7 F3 E1 15 DF 0B F8 98 C1 A9 53 A7 8E 1D 3B B6 5F C7 
B2 E4 E7 E7 5F BB 76 AD DB 41 32 99 BC 72 E5 4A A9 54 FA A2 61 68 2A 95 EA C1 83 07 09 09 09 E7 
CF 9F 97 48 24 33 66 CC F0 F5 F5 95 4A A5 4C 26 13 5A 64 03 05 94 B3 B7 01 82 20 22 91 28 2C 2C 
CC D9 D9 F9 D4 A9 53 71 71 71 E9 E9 E9 4B 96 2C 09 0C 0C 84 03 47 7A 01 9F F6 60 62 62 D2 E7 53 
69 BB 52 57 57 F7 DC E2 56 4F 4F 4F 7C 2A 45 D7 E3 B8 45 76 FB F6 ED 84 84 84 EB D7 AF 8B C5 E2 
45 8B 16 F9 F8 F8 98 9A 9A 42 8B 6C C0 81 72 F6 96 40 10 84 C1 60 38 38 38 18 1B 1B BB BB BB EF 
DF BF 7F CD 9A 35 1F 7D F4 51 54 54 14 54 34 DD A4 9B 49 08 00 50 28 14 77 EF DE 4D 4C 4C BC 7A 
F5 AA 58 2C 5E B0 60 81 97 97 97 44 22 61 30 18 50 C8 74 81 C1 2A 67 F8 B5 85 6F 12 93 C9 E4 41 
B1 15 85 AF F9 FA F5 EB 59 59 59 B9 B9 B9 C6 C6 C6 E6 E6 E6 30 0B 69 50 A0 50 28 6E DD BA 15 17 
17 97 97 97 67 6D 6D FD C1 07 1F 78 7A 7A 4A 24 12 3A 9D 0E 85 4C 77 18 7C F7 12 9E EB 98 95 95 
95 91 91 51 5F 5F 8F 20 88 9B 9B 5B 58 58 98 AF AF 6F 7F 0F 4C 7D 63 00 00 AD AD AD 57 AE 5C 49 
48 48 28 2A 2A 72 74 74 5C B9 72 A5 9F 9F 9F B5 B5 F5 A0 10 E2 77 16 00 40 67 67 E7 8D 1B 37 12 
12 12 EE DD BB 67 66 66 B6 6C D9 32 4F 4F 4F B1 58 0C 85 4C 07 19 64 72 06 00 28 2D 2D FD EA AB 
AF 2E 5D BA 24 10 08 C4 62 B1 46 A3 49 49 49 C9 CA CA 5A B8 70 E1 EC D9 B3 59 2C 96 EE 28 1A 00 
00 9F C4 73 F5 EA D5 B8 B8 B8 E2 E2 E2 21 43 86 7C FA E9 A7 CE CE CE 02 81 00 8F 9A 0D F4 1A 21 
CF 07 EF A8 71 E3 C6 8D 23 47 8E E4 E5 E5 39 3A 3A 2E 5E BC D8 D3 D3 D3 D4 D4 D4 C0 C0 00 0A 99 
6E 32 C8 E4 4C 26 93 6D DF BE FD F2 E5 CB B3 67 CF 0E 0D 0D 35 34 34 C4 30 AC A8 A8 68 DB B6 6D 
3B 77 EE 34 35 35 0D 0B 0B 7B 51 28 EA 2D A3 D1 68 4A 4B 4B 53 53 53 D3 D2 D2 3A 3B 3B 87 0C 19 
B2 6E DD 3A 27 27 27 A1 50 48 A3 D1 74 47 73 21 DD C0 85 EC F2 E5 CB 89 89 89 F9 F9 F9 76 76 76 
9F 7C F2 09 3E 29 06 0A 99 8E 33 98 E4 0C 00 50 54 54 74 F2 E4 C9 D0 D0 D0 D9 B3 67 E3 E9 48 00 
00 89 44 42 A5 52 17 2D 5A 74 FC F8 F1 11 23 46 E8 82 9C A9 54 AA B8 B8 B8 BF FE FA 0B 9F C1 EE 
E1 E1 61 67 67 67 6C 6C 0C 47 8A E9 32 00 80 B6 B6 B6 DC DC 5C 5C C8 6C 6D 6D FF F1 8F 7F B8 B9 
B9 89 C5 62 9D DD C7 80 74 65 30 C9 19 86 61 B7 6F DF 6E 6D 6D 1D 33 66 8C 48 24 C2 3D 35 7C 3A 
BA 97 97 97 87 87 C7 83 07 0F DA DB DB 75 61 9A B7 46 A3 29 28 28 B8 77 EF 9E 8F 8F 8F 97 97 97 
AF AF 2F 9D 4E 1F F0 55 41 7A 41 2E 97 9F 3E 7D FA E8 D1 A3 85 85 85 AE AE AE B8 90 E1 39 22 D0 
22 1B 2C 0C 26 39 23 10 08 D5 D5 D5 54 2A D5 C4 C4 A4 DB AE 13 9D 4E B7 B4 B4 BC 73 E7 8E 52 A9 
04 00 0C B8 70 90 C9 E4 45 8B 16 39 39 39 65 66 66 FE F0 C3 0F 93 26 4D 9A 30 61 82 58 2C 86 1B 
FF BA 89 42 A1 F8 FC F3 CF 15 0A 85 B3 B3 F3 E7 9F 7F EE EC EC 6C 64 64 04 2D B2 41 C7 20 93 33 
2A 95 8A 37 6F E9 56 9F 8C 47 A0 A8 54 AA 8E 34 F6 24 12 89 16 16 16 42 A1 D0 D7 D7 37 39 39 39 
25 25 25 2D 2D 6D FC F8 F1 11 11 11 2F 15 B5 F6 F6 F6 F4 F4 F4 B6 B6 B6 AE 07 85 42 A1 9F 9F 9F 
40 20 80 96 42 9F C3 E5 72 6D 6C 6C EC EC EC 42 42 42 5C 5C 5C 4C 4C 4C 5E 34 04 0B A2 E3 0C 26 
39 43 10 C4 CE CE 0E F7 E3 3C 3C 3C 48 24 92 42 A1 28 2D 2D 95 48 24 9D 9D 9D F7 EF DF 77 70 70 
C0 AB 85 75 01 04 41 98 4C A6 AD AD ED FC F9 F3 47 8F 1E 7D FA F4 E9 B4 B4 B4 B4 B4 B4 D0 D0 D0 
C8 C8 48 53 53 D3 E7 0A 13 00 A0 A4 A4 64 F3 E6 CD 42 A1 50 5B 05 85 61 58 69 69 A9 93 93 D3 BA 
75 EB 5E F4 8B 90 37 46 2C 16 FF FC F3 CF 2C 16 4B 20 10 40 21 1B D4 0C 26 39 43 51 D4 DD DD DD 
DE DE FE C0 81 03 B6 B6 B6 3E 3E 3E B5 B5 B5 DF 7E FB 2D 93 C9 64 30 18 95 95 95 0B 17 2E D4 A9 
44 0D 02 81 80 20 88 A1 A1 21 97 CB 35 37 37 1F 33 66 CC C5 8B 17 4F 9D 3A 95 93 93 13 13 13 33 
62 C4 08 1E 8F D7 B3 86 A6 A0 A0 A0 AE AE 6E C5 8A 15 DE DE DE 78 92 2D 86 61 57 AE 5C D9 B4 69 
D3 94 29 53 F0 78 C2 00 7D 1A FD 84 42 A1 38 38 38 10 08 04 9D BA 72 20 6F C0 60 92 33 02 81 60 
64 64 B4 7C F9 F2 0D 1B 36 AC 5E BD 3A 24 24 C4 D4 D4 94 44 22 A5 A4 A4 74 74 74 04 04 04 FC FD 
B6 EE FD 04 91 48 14 08 04 3C 1E CF D2 D2 32 20 20 20 21 21 61 CB 96 2D 09 09 09 2B 57 AE 74 77 
77 EF EA 7B 6A 34 9A 7B F7 EE F1 78 3C 3C 18 8A 6F 11 62 18 A6 50 28 54 2A 55 7D 7D 7D 7F 77 CB 
79 37 81 42 A6 1F 0C 32 39 23 93 C9 21 21 21 54 2A F5 D0 A1 43 C7 8F 1F 97 CB E5 0A 85 82 C5 62 
19 1B 1B 3F 78 F0 E0 B7 DF 7E FB F4 D3 4F C5 62 B1 6E 5E 9D 44 22 11 37 D3 F0 EC DF 0B 17 2E 8C 
1B 37 CE C9 C9 A9 AB 9C C9 E5 F2 C2 C2 42 A9 54 AA F5 34 F1 6D C1 73 E7 CE 91 48 24 89 44 02 33 
6F 21 90 17 31 C8 E4 8C 40 20 B0 58 AC D1 A3 47 3B 3A 3A 96 96 96 B6 B7 B7 13 08 04 A1 50 48 A7 
D3 AF 5D BB F6 F8 F1 63 0C C3 FA 2A B2 09 FE 0B 86 61 78 1B 2C 14 45 DF EC 9D F1 9E CB 8F 1F 3F 
3E 7F FE FC E9 D3 A7 9B 9B 9B 87 0E 1D 3A 74 E8 D0 A0 A0 A0 6E BD 22 9A 9A 9A 9E 3C 79 42 A3 D1 
FE F8 E3 0F 3C B7 03 00 50 58 58 78 E3 C6 8D E8 E8 68 47 47 47 6D 8D 27 00 40 A9 54 5E B8 70 C1 
D5 D5 D5 C8 C8 08 41 90 F2 F2 F2 6B D7 AE 8D 1E 3D 5A 17 52 55 20 90 B7 CF E0 93 33 02 81 60 60 
60 60 69 69 29 95 4A 71 CF 0B 6F B0 67 61 61 D1 DA DA 2A 14 0A FB 64 A7 1C AF B2 CC CB CB 2B 2C 
2C C4 85 83 C7 E3 05 04 04 58 58 58 BC 56 2A 2C 00 40 26 93 5D BF 7E 3D 3B 3B FB FC F9 F3 5C 2E 
D7 D9 D9 79 F4 E8 D1 36 36 36 86 86 86 DD B2 CC 01 00 65 65 65 75 75 75 76 76 76 25 25 25 28 8A 
DE BB 77 AF BE BE 7E DC B8 71 AB 56 AD 0A 08 08 10 08 04 F8 9F C6 DF 36 31 31 F1 C8 91 23 9B 36 
6D 12 0A 85 04 02 21 37 37 F7 D8 B1 63 BE BE BE 78 3F 55 08 E4 5D 63 50 CA 19 81 40 40 10 A4 5B 
BA 03 9B CD EE AB 38 00 00 E0 E9 D3 A7 3F FD F4 93 5C 2E 9F 3E 7D BA 54 2A 95 C9 64 59 59 59 9F 
7E FA E9 CC 99 33 27 4C 98 F0 2A 0D B2 35 1A 4D 79 79 F9 AD 5B B7 92 92 92 CA CB CB 4D 4C 4C 66 
CE 9C E9 EB EB 6B 6C 6C CC E3 F1 C8 64 72 CF 77 00 00 3C 7A F4 08 00 B0 6C D9 32 57 57 57 04 41 
0A 0A 0A D6 AE 5D 4B A5 52 87 0D 1B 66 62 62 82 6B 9F 4A A5 2A 28 28 F8 D7 BF FE 75 F2 E4 49 53 
53 53 26 93 89 A2 A8 5A AD BE 73 E7 0E 3E 28 A8 CF C7 77 43 20 83 02 BD BA E2 FB 4A CB 9A 9A 9A 
36 6D DA 74 F3 E6 CD 0D 1B 36 E0 09 FD 1A 8D 86 C3 E1 14 17 17 6F DD BA 95 CB E5 8E 1E 3D BA F7 
98 83 4A A5 8A 8F 8F 3F 74 E8 90 4C 26 F3 F4 F4 8C 89 89 B1 B1 B1 11 89 44 BD 77 F8 D3 68 34 F7 
EF DF 17 0A 85 CE CE CE 96 96 96 28 8A 1A 1B 1B 4F 9D 3A 35 31 31 31 2C 2C 4C 28 14 E2 7F F4 FE 
FD FB 9B 37 6F A6 50 28 3C 1E CF DE DE 1E CF 4D 51 28 14 05 05 05 46 46 46 9B 37 6F 7E F6 EC 99 
8F 8F CF CC 99 33 45 22 11 CC EA 80 BC 3B C0 6B BD 3B 00 80 CB 97 2F A7 A7 A7 7B 7A 7A 7A 7B 7B 
E3 BD 92 29 14 8A 99 99 59 74 74 74 55 55 55 7C 7C 7C 6B 6B 6B EF 73 86 34 1A 4D 7E 7E FE BD 7B 
F7 EC EC EC 66 CD 9A 35 72 E4 48 3B 3B 3B 0E 87 D3 BB B8 E0 71 00 7C 88 19 2E CD 74 3A 7D CA 94 
29 2A 95 2A 39 39 B9 BD BD 1D FF A3 1C 0E 67 C9 92 25 FF F8 C7 3F B8 5C AE 93 93 13 9E 2A D5 D0 
D0 50 56 56 76 EF DE 3D 53 53 53 37 37 B7 23 47 8E 24 25 25 C9 64 B2 BE 3D 39 10 88 2E 33 30 D6 
19 BE 1B F5 36 27 8F F5 02 89 44 EA EA 97 69 34 9A 9C 9C 9C 96 96 96 6E 53 97 88 44 A2 B3 B3 33 
93 C9 BC 76 ED 5A 5B 5B 9B A1 A1 61 2F EF 49 26 93 17 2E 5C 28 95 4A 8F 1F 3F FE E5 97 5F 4E 9A 
34 29 3A 3A 9A CD 66 F7 3E D9 AC AE AE AE B2 B2 32 3C 3C 5C DB 72 03 41 10 4B 4B CB 61 C3 86 9D 
3B 77 6E C1 82 05 B8 2F 29 91 48 4C 4D 4D CB CA CA 64 32 99 BD BD 3D 6E B2 95 95 95 75 76 76 2E 
5E BC 78 FC F8 F1 44 22 B1 AA AA EA CA 95 2B 53 A7 4E 65 30 18 30 2C 00 79 47 18 18 39 2B 2B 2B 
FB F1 C7 1F 9B 9A 9A 06 E4 AF 77 63 DC B8 71 D1 D1 D1 5D CB 09 1A 1A 1A 30 0C EB 39 E7 95 4E A7 
53 A9 D4 C6 C6 46 8D 46 D3 7B FC 94 48 24 5A 5A 5A 4E 9F 3E DD C3 C3 E3 EC D9 B3 F1 F1 F1 D7 AF 
5F 8F 8C 8C 1C 3A 74 68 2F A2 A6 56 AB 83 83 83 47 8D 1A D5 35 DC 49 A5 52 63 62 62 48 24 52 67 
67 27 1E FA A0 50 28 18 86 3D 79 F2 04 EF 26 42 22 91 F0 4D 37 3B 3B BB E0 E0 60 13 13 13 00 80 
40 20 A8 AE AE 1E D4 49 6A 08 82 50 28 94 9C 9C 1C 3F 3F BF FE 1E E6 04 D1 0F 06 46 CE B8 5C AE 
AF AF AF D6 7B 1A 58 EC ED ED BB 46 15 10 04 11 0A 85 08 82 34 37 37 6B 34 9A AE AF 54 2A 95 0A 
85 02 DF C3 7A A9 C9 83 20 08 97 CB F5 F1 F1 B1 B1 B1 F1 F6 F6 4E 4B 4B FB E6 9B 6F AC AD AD 97 
2E 5D EA EE EE DE B3 8B 11 82 20 66 66 66 AB 56 AD 62 B3 D9 5D 37 E6 50 14 1D 3A 74 A8 9D 9D 1D 
9B CD D6 AE 13 00 F0 E0 C1 03 3C AA 80 A2 28 EE DB 4A 24 12 DC 9F 6D 6B 6B 7B F0 E0 81 85 85 C5 
A0 2E D9 A1 52 A9 4B 97 2E FD EB AF BF 3E FB EC B3 C9 93 27 87 86 86 6A 7D 70 08 E4 B9 0C 8C 9C 
B1 58 AC C9 93 27 EB 88 ED 60 60 60 D0 55 CE 88 44 E2 C8 91 23 FF FC F3 CF FB F7 EF CB E5 72 6D 
5B 05 00 C0 E3 C7 8F 65 32 59 44 44 C4 AB DF 57 24 12 49 28 14 06 05 05 39 38 38 E4 E7 E7 A7 A7 
A7 AF 59 B3 C6 CF CF 2F 26 26 C6 D1 D1 B1 5B 3C 81 46 A3 99 98 98 3C 77 85 06 06 06 5D 8F E0 FA 
65 67 67 87 FB 92 72 B9 FC DE BD 7B 34 1A AD B1 B1 11 45 D1 94 94 94 F2 F2 F2 F9 F3 E7 0F EA A1 
2A 24 12 29 2C 2C CC C6 C6 E6 E8 D1 A3 7B F7 EE CD C9 C9 99 36 6D DA 90 21 43 BA 9D 0A 08 44 CB 
C0 C8 19 8A A2 1C 0E 67 40 FE F4 4B 01 00 78 7A 7A CE 9E 3D FB CC 99 33 37 6F DE 0C 08 08 30 30 
30 C0 37 B6 E2 E2 E2 3C 3C 3C A6 4E 9D 4A A7 D3 5F 2B 59 97 46 A3 99 99 99 89 44 22 07 07 87 B3 
67 CF 66 66 66 7E F2 C9 27 D3 A6 4D 8B 8A 8A EA 59 B6 F9 2A 74 76 76 16 15 15 F9 F9 F9 E1 56 5E 
63 63 63 67 67 27 9D 4E 5F BB 76 2D 82 20 95 95 95 D3 A6 4D D3 D9 92 AF 57 87 C5 62 79 78 78 88 
44 A2 BB 77 EF C6 C5 C5 AD 5D BB 76 C2 84 09 33 67 CE 34 36 36 86 11 5B 48 4F 88 1B 36 6C 18 E8 
35 E8 16 35 35 35 75 75 75 5E 5E 5E 2C 16 EB D2 A5 4B 1C 0E 47 2C 16 37 37 37 EF DD BB 97 4E A7 
CF 9E 3D 5B 24 12 3D 7B F6 8C CF E7 BF D6 6E 0E 82 20 24 12 89 CB E5 5A 5A 5A 8A C5 E2 47 8F 1E 
25 26 26 72 38 1C 27 27 A7 37 10 1D B5 5A 4D 24 12 87 0D 1B 86 A7 0D 77 76 76 1A 1A 1A 46 46 46 
F2 78 3C 81 40 30 65 CA 94 71 E3 C6 E9 47 37 21 14 45 59 2C 16 1E FD A8 AC AC 3C 7A F4 A8 46 A3 
F1 F0 F0 E8 D7 C9 9B 90 41 8A 5E E5 9D F5 09 8D 8D 8D DF 7F FF 3D 9F CF 97 CB E5 45 45 45 CE CE 
CE DE DE DE 75 75 75 D7 AE 5D 63 B3 D9 8D 8D 8D 35 35 35 B8 13 F4 5A BD 18 F1 0E F4 E5 E5 E5 19 
19 19 19 19 19 4D 4D 4D C3 86 0D F3 F5 F5 7D 33 03 8A 4E A7 47 47 47 D3 E9 74 5C 52 05 02 C1 C4 
89 13 0D 0C 0C EC ED ED 55 2A 15 83 C1 D0 8F 2E DE F8 8C DE F2 F2 F2 4B 97 E7 CE E1 20 00 00 14 
C0 49 44 41 54 2E 25 25 25 D5 D6 D6 7A 7A 7A 8E 1C 39 12 FA 9B 90 E7 02 E5 AC 3B 08 82 94 94 94 
5C BD 7A 95 40 20 A8 54 AA 8E 8E 0E BC A2 A8 A6 A6 A6 A0 A0 80 40 20 A8 D5 EA 90 90 90 57 7F 43 
FC D7 EF DD BB 77 E4 C8 91 1B 37 6E 18 18 18 04 05 05 0D 1F 3E 5C 22 91 88 C5 E2 37 CB DD EF E6 
AD 93 48 24 16 8B 45 20 10 F0 FF EA 01 F8 4C D2 87 0F 1F 26 25 25 65 67 67 13 89 C4 80 80 80 91 
23 47 9A 99 99 49 24 92 C1 EE 44 43 FA 09 44 17 62 8B 7F 13 BC C0 BB A4 A4 A4 A5 A5 C5 CC CC 4C 
28 14 FE 9D A0 7E 47 47 47 61 61 A1 5C 2E C7 7F 94 4A A5 62 B1 B8 A3 A3 E3 D1 A3 47 4A A5 12 3F 
68 65 65 65 64 64 F4 D2 BF A2 56 AB EB EB EB B3 B2 B2 4E 9C 38 51 5B 5B 6B 63 63 13 12 12 62 6F 
6F 2F 95 4A 79 3C 1E 91 48 D4 03 03 AA CF 51 AB D5 2D 2D 2D E7 CF 9F 4F 4A 4A 2A 2B 2B 93 4A A5 
21 21 21 4E 4E 4E 66 66 66 7C 3E FF B9 C5 61 10 08 8E 3E C8 99 5A AD 4E 4A 4A BA 76 ED 1A 8B C5 
AA AB AB 5B B6 6C 99 AD AD ED 1B 2B 9A B6 91 06 FE 23 DE 48 03 EF AB A1 7D CD 4B 5B 6B 00 00 1E 
3E 7C 18 17 17 77 E3 C6 0D A5 52 E9 EB EB EB E5 E5 E5 E4 E4 04 A7 34 F6 02 00 A0 BC BC 3C 3E 3E 
3E 27 27 A7 B9 B9 D9 DB DB DB DB DB DB D9 D9 59 2A 95 C2 99 A4 90 57 41 1F 9C CD D6 D6 D6 8C 8C 
8C A9 53 A7 5A 5B 5B EF DA B5 EB FA F5 EB 16 16 16 6F 7C F5 E3 BD 80 7A 1E 7C AD 37 EC EC EC DC 
B1 63 47 66 66 A6 BF BF FF FC F9 F3 1D 1C 1C B8 5C 2E 1C AF D9 3B 6A B5 7A DF BE 7D 07 0F 1E F4 
F0 F0 58 B1 62 85 A7 A7 A7 40 20 80 83 94 20 AF 8E 3E 44 36 51 14 B5 B2 B2 72 77 77 67 B3 D9 27 
4E 9C B0 B5 B5 ED DA 17 6C A0 96 64 60 60 D0 D0 D0 50 50 50 C0 64 32 2D 2D 2D 0D 0D 0D 61 8B 8B 
DE 41 10 84 4E A7 B7 B4 B4 14 14 14 34 36 36 3A 39 39 89 44 22 38 FB 0A F2 EA E8 83 9C 11 89 44 
A1 50 88 61 58 5C 5C DC B3 67 CF 26 4F 9E DC 57 5D CF DE 18 14 45 C5 62 B1 B7 B7 B7 40 20 C8 CE 
CE C6 DB 7F DB D9 D9 0D EA 34 FD FE 06 41 10 23 23 23 4F 4F 4F 67 67 E7 FB F7 EF 27 25 25 15 17 
17 73 B9 5C 3C 27 06 9E 37 C8 4B D1 87 BD 33 3C 74 B8 6F DF BE FC FC FC 99 33 67 7A 7B 7B EB 48 
52 12 3E 55 BB B4 B4 34 3B 3B FB C0 81 03 BF FD F6 DB 90 21 43 F4 72 0F 48 AD 56 6B E3 24 5A F0 
4E 24 AF 2B 43 78 4C B3 AC AC EC DA B5 6B 19 19 19 65 65 65 C3 87 0F 9F 32 65 8A AB AB AB 8E 7C 
AD 10 9D 45 1F E4 4C A1 50 EC DB B7 AF A0 A0 20 2A 2A CA C3 C3 83 C1 60 E8 94 5B 87 61 58 49 49 
49 78 78 F8 DE BD 7B FD FD FD 75 6A 6D 7D 02 5E 40 FA C3 0F 3F B4 B4 B4 68 C5 0B 00 60 6A 6A FA 
DE 7B EF F9 FB FB F7 2C 50 7D 29 18 86 75 74 74 94 97 97 E7 E5 E5 9D 39 73 A6 A2 A2 62 D4 A8 51 
D3 A7 4F 37 33 33 7B 9B EE 27 7E 77 68 3B 0E E0 21 20 68 27 EA 2C 3A 24 67 00 80 C6 C6 C6 DC DC 
DC B6 B6 36 A1 50 38 64 C8 10 6D F3 09 00 80 46 A3 A9 A9 A9 B9 7D FB 76 47 47 07 95 4A F5 F0 F0 
30 31 31 C1 C3 F6 65 65 65 8B 17 2F 26 10 08 56 56 56 34 1A 2D 34 34 74 E4 C8 91 3D 53 93 30 0C 
CB CF CF 27 12 89 B6 B6 B6 6F 59 53 AA AB AB 47 8D 1A F5 FB EF BF EB A5 9C 61 18 76 E8 D0 A1 2F 
BE F8 62 CE 9C 39 52 A9 14 BF DB D5 6A 75 7A 7A BA 42 A1 D8 B5 6B 97 B9 B9 F9 9B F9 FE 18 86 C9 
64 B2 8A 8A 8A BC BC BC C3 87 0F 23 08 12 12 12 12 13 13 63 64 64 F4 A2 37 C4 30 AC BE BE 3E 37 
37 57 26 93 99 9A 9A BA BA BA E2 DD 7A 09 FF 4D CA AD AA AA BA 73 E7 8E 5C 2E 67 30 18 1E 1E 1E 
46 46 46 2F 1A 35 8D 61 58 63 63 E3 D5 AB 57 9F 3E 7D 8A A2 28 DE 7D 20 20 20 40 22 91 C0 7C 11 
DD 44 57 6E 2D 0C C3 72 73 73 7F FA E9 A7 07 0F 1E A8 D5 6A 12 89 E4 ED ED BD 7E FD 7A 2B 2B 2B 
14 45 9B 9B 9B E3 E3 E3 E3 E3 E3 AB AA AA 30 0C 43 51 D4 D0 D0 70 CA 94 29 33 66 CC 10 89 44 86 
86 86 5F 7F FD 35 81 40 40 51 14 45 51 91 48 D4 53 32 00 00 45 45 45 6B D7 AE 1D 39 72 A4 B9 B9 
B9 FE 69 CA 00 A2 D1 68 1E 3C 78 C0 62 B1 22 22 22 AC AD AD B5 A3 8E 59 2C D6 17 5F 7C 51 51 51 
21 95 4A DF 4C CE 50 14 65 32 99 76 76 76 62 B1 D8 D2 D2 72 F7 EE DD 3B 77 EE 6C 6B 6B 5B B6 6C 
19 97 CB 7D EE 4A CE 9C 39 F3 EB AF BF 3E 7C F8 50 A3 D1 50 A9 D4 A0 A0 A0 4F 3E F9 C4 CC CC 0C 
45 D1 DA DA DA D8 D8 D8 D4 D4 D4 9A 9A 1A 0C C3 88 44 A2 48 24 8A 8E 8E 9E 3A 75 2A DE 43 A5 EB 
5B 61 18 76 FF FE FD 5F 7E F9 85 C3 E1 4C 9A 34 49 24 12 B5 B5 B5 A5 A4 A4 1C 3F 7E 7C CE 9C 39 
A3 47 8F C6 07 D3 BC D9 19 83 F4 13 BA 72 57 37 37 37 EF DC B9 B3 A4 A4 64 DE BC 79 52 A9 34 27 
27 27 29 29 C9 DE DE 7E F9 F2 E5 14 0A 65 F7 EE DD 7F FE F9 A7 95 95 D5 B2 65 CB 8C 8D 8D 9B 9A 
9A D2 D3 D3 77 EF DE 5D 5B 5B BB 7A F5 6A 3E 9F EF E9 E9 A9 7D 2B DC 29 D0 FE 88 3F 93 AF 5F BF 
FE CB 2F BF 9C 3F 7F DE D5 D5 55 77 0C 52 FD 40 A1 50 E4 E7 E7 5B 58 58 88 44 22 6D AF 11 3C 4D 
0F 1F 82 F5 77 DE 1C C3 B0 DA DA 5A 7C 86 FC C3 87 0F DD DC DC 46 8C 18 F1 DC 22 27 BC 4D C0 CE 
9D 3B EB EB EB 97 2C 59 22 14 0A CF 9D 3B 97 96 96 E6 E8 E8 38 7B F6 6C 02 81 B0 6D DB B6 E4 E4 
64 07 07 87 99 33 67 72 B9 DC DA DA DA D4 D4 D4 5F 7E F9 A5 B5 B5 F5 83 0F 3E E0 F1 78 5D 3D E5 
8A 8A 8A 4D 9B 36 55 55 55 7D F1 C5 17 5E 5E 5E 06 06 06 1A 8D 86 C9 64 7E F9 E5 97 9B 37 6F 16 
08 04 5E 5E 5E B0 38 41 D7 D0 15 39 AB AE AE CE CF CF 7F EF BD F7 66 CD 9A C5 E1 70 7C 7C 7C 1E 
3D 7A 74 EB D6 AD CE CE CE 82 82 82 43 87 0E 79 79 79 7D F4 D1 47 D6 D6 D6 54 2A 55 A5 52 05 06 
06 7E FB ED B7 47 8F 1E 0D 0A 0A 0A 09 09 E9 E5 C2 02 00 A4 A7 A7 EF D8 B1 A3 EB CD 06 E9 2B 00 
00 F5 F5 F5 15 15 15 C3 87 0F C7 30 0C 1F 15 88 61 D8 CD 9B 37 F7 EF DF 6F 6F 6F AF 9D 0D 8A 57 
AD 6A 34 1A 12 89 44 A1 50 5E 6A AF 01 00 1A 1A 1A D2 D2 D2 92 93 93 5B 5B 5B 87 0E 1D 1A 15 15 
E5 E2 E2 62 6E 6E FE A2 AF BB A4 A4 A4 BC BC 7C F1 E2 C5 51 51 51 0C 06 63 C8 90 21 F9 F9 F9 77 
EF DE 95 CB E5 37 6F DE 3C 7E FC F8 D8 B1 63 E7 CD 9B 67 69 69 49 A1 50 14 0A 85 BF BF FF C6 8D 
1B FF FA EB 2F 7F 7F FF C0 C0 C0 AE ED E4 32 33 33 B3 B3 B3 17 2C 58 E0 EA EA 8A 77 61 22 12 89 
D6 D6 D6 E1 E1 E1 6B D6 AC 39 71 E2 84 BD BD 7D 57 05 84 E8 02 BA 22 67 12 89 E4 D7 5F 7F 35 33 
33 C3 7B BF 08 85 42 2A 95 8A 5F 2E 67 CE 9C 91 CB E5 B3 67 CF 76 71 71 C1 37 95 0D 0C 0C 1C 1C 
1C 16 2D 5A 94 9B 9B 7B E1 C2 85 61 C3 86 F5 FE 9C A4 50 28 78 2E 6B 61 61 21 BC FE FA 9C D2 D2 
D2 FA FA FA D4 D4 D4 3B 77 EE E0 33 A5 00 00 14 0A 45 2A 95 E2 0D 48 08 04 82 52 A9 3C 7D FA 74 
5C 5C 5C 55 55 95 89 89 C9 DC B9 73 03 02 02 9E 1B A9 C4 AD E9 C7 8F 1F E7 E4 E4 9C 38 71 42 2E 
97 07 05 05 05 05 05 59 59 59 E1 A9 C8 BD E8 A0 BD BD FD 6F BF FD 66 6D 6D 6D 68 68 88 B7 E1 C4 
07 C4 60 18 96 99 99 89 F7 F5 D5 B6 30 31 30 30 70 73 73 9B 37 6F DE 47 1F 7D 94 9B 9B EB E5 E5 
A5 95 33 B5 5A 7D F9 F2 E5 CE CE 4E 37 37 B7 AE DD C9 C9 64 32 DE 7A 33 37 37 B7 BD BD 9D C7 E3 
F5 FD D9 84 FC 0D 74 45 CE 58 2C 96 8F 8F 0F 1E 39 D2 68 34 97 2F 5F 7E F6 EC D9 EC D9 B3 29 14 
4A 61 61 A1 40 20 E8 D6 C1 82 48 24 BA B8 B8 98 9A 9A 3E 79 F2 04 1F 3B F0 22 9D 42 10 24 20 20 
80 48 24 E2 76 01 94 B3 BE 05 00 50 50 50 40 22 91 E6 CF 9F 6F 61 61 81 61 58 6A 6A 6A 6E 6E EE 
CA 95 2B 43 42 42 CC CD CD A9 54 2A 00 E0 EA D5 AB 3B 76 EC 70 73 73 1B 35 6A D4 85 0B 17 B6 6D 
DB 26 91 48 6C 6C 6C BA 69 93 5C 2E BF 7F FF FE B1 63 C7 F2 F2 F2 48 24 92 9F 9F DF 88 11 23 1C 
1D 1D 5F 25 09 19 41 10 3E 9F AF BD 8A 54 2A D5 E9 D3 A7 55 2A D5 C8 91 23 51 14 7D FC F8 B1 44 
22 91 4A A5 5D AF 22 32 99 EC ED ED CD E5 72 9F 3E 7D AA 52 A9 B4 C7 31 0C 6B 6A 6A 42 10 44 1B 
46 D0 82 77 2B 69 6B 6B EB D6 A9 18 A2 0B E8 8A 9C 69 AB 88 D4 6A F5 95 2B 57 7E FF FD F7 E8 E8 
E8 61 C3 86 91 C9 64 99 4C 46 A3 D1 7A C6 92 68 34 1A 8D 46 C3 83 E8 DA 83 78 D6 92 F6 52 23 93 
C9 64 32 19 DF 36 6E 6D 6D 7D 8B 1F E8 5D 41 A3 D1 14 16 16 1A 1A 1A 86 87 87 5B 59 59 11 08 04 
67 67 E7 4F 3F FD F4 DE BD 7B D1 D1 D1 78 5D 17 DE 20 C0 C7 C7 67 C6 8C 19 62 B1 D8 DC DC 7C C5 
8A 15 D5 D5 D5 F8 F0 BD AE 6F 15 1B 1B 1B 1B 1B 2B 91 48 66 CC 98 E1 EC EC 6C 66 66 F6 A2 99 A4 
CF 05 BF 8A F0 C1 3A A7 4E 9D 3A 7C F8 F0 AC 59 B3 BC BD BD 51 14 95 CB E5 3C 1E AF A7 26 E2 F2 
84 5B 94 DA 83 44 22 51 20 10 60 18 D6 DA DA DA AD 67 B2 5C 2E 57 A9 54 46 46 46 B0 5C 41 07 D1 
15 39 23 FC 37 1B 36 3D 3D 3D 2E 2E 6E F4 E8 D1 53 A6 4C 11 08 04 2A 95 4A 28 14 16 15 15 B5 B7 
B7 E3 31 4D BC 3E 9C 48 24 36 37 37 37 35 35 59 5B 5B 77 BD DC 95 4A E5 E6 CD 9B F3 F2 F2 D4 6A 
35 81 40 F8 F0 C3 0F 43 42 42 DE 20 EF 09 F2 8A C8 64 B2 87 0F 1F E2 2D 46 70 BF CC C9 C9 29 2A 
2A EA 97 5F 7E B9 76 ED 5A 68 68 28 8D 46 23 12 89 A1 A1 A1 00 00 1E 8F A7 52 A9 9E 3E 7D CA 64 
32 19 0C 46 4F B7 91 C9 64 B6 B7 B7 17 17 17 CB E5 72 6B 6B 6B 2E 97 FB BA 21 51 00 40 7B 7B FB 
FF 6B EF 7E 43 9A EA E2 38 80 EF DE DD B9 CD E5 CC E9 9C AB 6C 95 D6 CA D2 2C 99 26 FE 49 8D 32 
93 04 2B C2 17 41 24 FD 87 82 82 28 22 08 82 82 88 20 28 AC C8 0A 8B EA C9 E8 45 7F A9 65 19 58 
59 56 D4 5E F4 8F 2C 33 D3 52 23 DB 6A BB 6B DB DD 7D 5E 1C 18 63 BA 3D 7B 72 D6 ED F6 FD BC 8A 
6D 8D BB ED F8 BD E7 9E 7B CE F9 D5 D7 D7 5F BF 7E BD A2 A2 A2 BC BC 5C A3 D1 38 1C 8E B8 B8 B8 
DE DE 5E 87 C3 41 62 8B DC A3 A0 28 AA A7 A7 C7 E1 70 E8 74 3A FF A4 93 4A A5 25 25 25 66 B3 F9 
C5 8B 17 B3 67 CF F6 5D 14 7B BD DE 17 2F 5E B8 DD EE 92 92 12 8C C3 0A 90 50 E2 8C E7 79 BB DD 
5E 5B 5B 7B F7 EE DD 8A 8A 8A B9 73 E7 92 85 4A 0C C3 E4 E4 E4 5C B9 72 A5 A9 A9 29 39 39 59 A9 
54 5A 2C 96 E6 E6 E6 C2 C2 C2 C7 8F 1F F7 F6 F6 E6 E5 E5 F9 DF E7 A2 69 3A 3F 3F 7F DC B8 71 1C 
C7 51 14 95 9A 9A 2A CA 59 F8 C2 41 EA 7B 2E 5A B4 C8 57 54 21 2A 2A 6A D6 AC 59 C7 8E 1D BB 7C 
F9 F2 8C 19 33 C8 60 68 52 52 92 DB ED 3E 73 E6 4C 43 43 03 19 46 20 53 70 FC DF 8A A6 E9 D2 D2 
D2 11 23 46 34 36 36 9E 3F 7F FE D9 B3 67 0B 17 2E CC CA CA 1A 30 F8 06 44 4A 3E 1F 3A 74 88 F4 
0D 8B 8B 8B E3 E3 E3 69 9A 56 28 14 D9 D9 D9 87 0E 1D 7A F2 E4 89 5E AF 57 28 14 CD CD CD CF 9F 
3F 2F 28 28 B8 7E FD 3A C7 71 26 93 29 60 20 AF B8 B8 78 C1 82 05 77 EE DC 99 35 6B 56 56 56 96 
5C 2E F7 7A BD EF DF BF BF 70 E1 C2 CC 99 33 4B 4B 4B B1 44 41 80 84 12 67 2E 97 AB AE AE CE 6C 
36 2F 5D BA 34 3F 3F 5F A5 52 39 9D 4E 9A A6 65 32 59 71 71 F1 94 29 53 F6 EF DF CF 71 DC BC 79 
F3 5C 2E 57 4B 4B 4B 7D 7D 7D 77 77 77 7E 7E 7E C0 7D 00 86 61 72 73 73 49 D7 4C 22 91 C8 E5 72 
C4 D9 D0 E1 79 9E 8C 3A 91 EA C5 E4 41 52 92 AA A8 A8 E8 F6 ED DB ED ED ED 09 09 09 A4 E3 43 51 
94 5E AF D7 E9 74 8F 1E 3D 1A 36 6C 58 FF F5 4F 14 45 C5 C7 C7 E7 E5 E5 4D 9C 38 71 FA F4 E9 66 
B3 79 FB F6 ED 46 A3 B1 AA AA CA 64 32 F9 D7 3C 0D 76 30 2C CB D6 D4 D4 3C 7E FC 78 D9 B2 65 26 
93 49 A9 54 3A 9D 4E A9 54 CA 30 4C 79 79 F9 C5 8B 17 F7 EE DD FB ED DB B7 D2 D2 52 8F C7 73 F3 
E6 CD 7F FE F9 A7 A3 A3 A3 BC BC DC FF 3E 80 44 22 69 6F 6F E7 38 6E E5 CA 95 0D 0D 0D E7 CF 9F 
97 CB E5 19 19 19 DD DD DD 75 75 75 19 19 19 25 25 25 34 4D 77 74 74 60 02 A3 D0 08 E5 C7 B0 58 
2C 47 8F 1E FD F8 F1 23 CB B2 27 4E 9C 20 0D 77 E2 C4 89 5B B6 6C 19 31 62 C4 E6 CD 9B F7 EE DD 
BB 6F DF BE B3 67 CF D2 34 DD DE DE FE F1 E3 47 8F C7 33 79 F2 64 DF 45 28 79 1F 8A A2 70 DA FC 
95 8C 46 E3 81 03 07 D2 D3 D3 FD 4F 2A 72 B9 7C E5 CA 95 73 E6 CC 31 18 0C 64 EC 8C 4C 06 CC CD 
CD 1D 3F 7E 3C 99 B5 5F 56 56 36 E0 4C 54 99 4C 96 94 94 34 7B F6 EC F4 F4 74 8B C5 62 36 9B 77 
ED DA 95 92 92 52 55 55 95 93 93 13 A2 36 15 CF F3 F7 EE DD 3B 7D FA B4 CD 66 B3 D9 6C BE ED 98 
B2 B3 B3 D7 AF 5F 3F 6E DC B8 2D 5B B6 EC DB B7 6F CF 9E 3D A7 4E 9D E2 38 AE AD AD AD B7 B7 D7 
E3 F1 B0 2C 1B D0 8A 3E 7D FA 74 F0 E0 C1 D8 D8 58 87 C3 F1 E6 CD 9B BC BC BC B4 B4 B4 8E 8E 8E 
87 0F 1F 6A 34 9A 0F 1F 3E 74 75 75 55 57 57 93 22 A7 43 F0 A5 C2 4F 12 CA 8F 61 B7 DB 27 4D 9A 
64 30 18 FC 3B 53 64 FF 09 72 BD B9 73 E7 CE A6 A6 A6 96 96 16 BB DD AE D5 6A D3 D3 D3 5D 2E 57 
63 63 E3 E1 C3 87 B7 6D DB D6 7F 56 77 7F 52 A9 74 E6 CC 99 46 A3 11 FD B5 48 A1 28 2A 29 29 49 
AB D5 32 0C E3 7F 3D 48 D3 74 4A 4A 0A E9 BC 90 5D CC 12 13 13 E7 CE 9D AB 52 A9 C8 D0 D5 7F CE 
64 8E 8E 8E 1E 3B 76 AC 5E AF CF CC CC B4 58 2C 0D 0D 0D 3B 77 EE 2C 2C 2C 5C B8 70 E1 F8 F1 E3 
83 CD CB B1 DB ED 99 99 99 2C CB FA FF C4 E4 C5 51 51 51 45 45 45 3A 9D EE EE DD BB 0F 1F 3E 74 
3A 9D 7A BD 3E 23 23 C3 6A B5 36 35 35 9D 3C 79 72 E3 C6 8D 1A 8D C6 F7 B9 5E BE 7C 49 96 A0 72 
1C C7 B2 2C 19 0C E9 E9 E9 69 6D 6D A5 28 8A 6C 80 3C C8 6F 0F 22 4E 28 6B 36 6D 36 DB 97 2F 5F 
02 EE 22 29 14 0A B2 A4 4E 22 91 70 1C F7 FD FB 77 AB D5 4A 4E F5 6A B5 DA EB F5 B6 B7 B7 7F FF 
FE DD 64 32 F9 D7 30 0F C6 EB F5 7E FA F4 49 A9 54 92 DA BA 43 F5 49 06 22 EE 35 9B A1 B9 DD EE 
9A 9A 9A 4B 97 2E 91 15 9D B7 6E DD BA 71 E3 C6 A6 4D 9B CA CA CA C2 A9 60 42 26 DF 76 77 77 37 
34 34 5C BE 7C B9 B7 B7 77 CD 9A 35 95 95 95 03 FE E2 7D 7D 7D 56 AB 35 A0 15 45 47 47 FB F6 5B 
F7 78 3C A4 15 71 1C 47 D3 B4 5A AD 76 B9 5C 6D 6D 6D 12 89 64 DA B4 69 BE 7E BD D5 6A F5 ED A5 
4E 51 D4 98 31 63 12 13 13 BF 7E FD FA F6 ED 5B 32 9F 83 A6 E9 D4 D4 54 32 30 37 E8 6F 08 22 46 
28 7F 5A 6A B5 5A AD 56 87 78 81 54 2A 8D 8D 8D 0D A8 CE A9 D1 68 3C 1E 4F 98 6B 4D C8 1E 64 83 
3A 4A F8 FF 18 86 A9 A8 A8 B0 5A AD E7 CE 9D 73 B9 5C C3 87 0F 5F BD 7A 75 61 61 61 F8 B7 9B 19 
86 E1 79 BE AB AB EB DD BB 77 7D 7D 7D 21 BA 45 71 71 71 A1 A7 B6 92 DA 80 01 EB 3D B5 5A 2D C7 
71 FE 63 67 6A B5 3A 2B 2B CB 77 A6 27 13 D9 E2 E3 E3 35 1A 4D C0 83 61 7E 04 F8 35 84 12 67 3F 
47 2A 95 E2 CA 51 E0 C8 9D 81 15 2B 56 94 97 97 BB DD 6E 52 34 33 26 26 26 9C 7E 0D 59 9C 74 F1 
E2 C5 27 4F 9E C8 64 B2 C5 8B 17 4F 9D 3A 95 AC A0 8C E0 11 F6 6F 45 C1 36 58 47 7E 09 DC 9F 1D 
67 F0 47 20 7B 57 E8 74 3A 49 78 A1 40 86 05 6E DE BC 79 E7 CE 9D D6 D6 D6 94 94 94 F9 F3 E7 E7 
E4 E4 8C 1E 3D 3A 36 36 16 3B FA 42 30 88 33 F8 15 C2 EC DA 90 CD 39 EE DD BB 77 EB D6 2D 96 65 
53 53 53 57 AD 5A 95 99 99 A9 D5 6A D5 6A 35 7A E2 10 1A E2 0C 84 C2 B7 C8 29 2E 2E CE 64 32 91 
22 C1 09 09 09 28 E5 07 61 42 2B 01 01 89 8E 8E B6 D9 6C 9D 9D 9D A9 A9 A9 E9 E9 E9 A4 C2 26 B2 
0C C2 84 DE 19 08 85 6F 91 D3 85 0B 17 8E 1C 39 F2 E0 C1 83 45 8B 16 09 A7 90 0D 08 1F CE 7B 20 
14 BE 45 4E 1B 36 6C 58 BB 76 AD D3 E9 DC B1 63 87 C5 62 C1 84 55 08 13 E2 0C 04 84 A2 A8 A8 A8 
A8 D1 A3 47 97 95 95 AD 5B B7 EE CB 97 2F 9D 9D 9D D8 59 0C C2 84 38 03 C1 A1 28 4A A5 52 19 0C 
06 99 4C 16 B0 13 19 40 08 88 33 00 10 09 C4 19 00 88 04 E2 0C 00 44 02 71 06 00 22 81 38 03 00 
91 40 9C 01 80 48 20 CE 00 40 24 10 67 00 20 12 88 33 00 10 09 C4 19 00 88 04 E2 0C 00 44 02 71 
06 00 22 81 38 03 00 91 40 9C 01 80 48 20 CE 00 40 24 10 67 00 20 12 88 33 00 10 09 C4 19 00 88 
04 2A 39 45 00 D9 FD 39 C4 1E D0 5E AF 97 E7 79 9E E7 BD 5E AF D7 EB 0D F6 B2 30 6B EB 02 C0 80 
10 67 83 C5 F3 FC D3 A7 4F AF 5D BB C6 B2 6C B0 D7 D8 ED F6 CF 9F 3F 1F 3F 7E DC 6C 36 07 AB 1A 
49 51 54 7E 7E 7E 41 41 01 EA B0 01 FC 1C C4 59 64 FC F8 F1 C3 E9 74 06 7B 96 A6 E9 CA CA CA 98 
98 18 97 CB 15 E2 4D 78 9E 47 EF 0C E0 A7 21 CE 06 8B A2 A8 09 13 26 2C 5F BE 9C 5C 51 0E E6 AD 
86 0F 1F 2E 93 C9 22 75 60 00 7F 1B C4 59 04 A8 54 2A 95 4A 45 FE CD 71 DC FF AA A5 C6 30 0C C3 
E0 57 00 88 00 FC 21 45 92 D7 EB BD 74 E9 D2 D5 AB 57 43 5C 78 06 C8 CD CD 5D B2 64 49 4C 4C CC 
90 1E 18 C0 DF 00 71 16 49 14 45 19 0C 86 69 D3 A6 B9 DD EE 30 FF 8B D1 68 C4 05 26 40 44 20 CE 
22 89 A2 A8 49 93 26 19 0C 86 F0 2F 36 95 4A A5 5C 2E 1F D2 A3 02 F8 4B 20 CE 22 4C A1 50 90 99 
16 3C CF 3B 1C 0E 87 C3 D1 3F DA E4 72 79 4C 4C 4C B0 19 1B 00 F0 73 10 67 43 85 E3 B8 DA DA DA 
1B 37 6E FC F8 F1 23 E0 A9 8C 8C 8C AD 5B B7 6A 34 1A 4C CB 00 88 20 C4 D9 50 A1 69 BA A8 A8 C8 
60 30 70 1C 17 F0 54 62 62 A2 4A A5 42 96 01 44 16 E2 6C A8 D0 34 3D 79 F2 64 A3 D1 38 E0 53 18 
FE 07 88 38 C4 D9 10 C2 9C B2 10 38 8E 6B 6D 6D FD FA F5 6B B0 DB 26 2C CB 7E FB F6 ED F5 EB D7 
2D 2D 2D 51 51 51 C1 DE 47 AF D7 8F 1C 39 12 DF 33 48 24 12 6A 90 13 D9 01 7E 8E CD 66 DB BD 7B 
F7 B3 67 CF FA 5F 8C 13 1C C7 BD 7D FB 56 AB D5 AA D5 EA 10 B7 4D 4A 4A 4A AA AB AB 63 63 63 87 
EC 48 E1 8F 81 38 83 DF C3 ED 76 BF 7A F5 CA 6A B5 86 68 81 E1 2C 62 D5 E9 74 63 C6 8C C1 C5 3B 
48 10 67 F0 1B 0D 7E 95 AB 44 22 A1 69 1A 37 55 80 40 9C C1 EF C7 B2 6C 63 63 63 5F 5F 5F 98 AD 
71 D4 A8 51 39 39 39 4A A5 72 A8 0F 0C FE 2C 18 40 85 DF CF 6E B7 DF BF 7F BF A3 A3 23 C4 DE 96 
FE D2 D2 D2 A6 4E 9D AA 50 28 D0 2F 03 7F E8 9D C1 EF E7 72 B9 DE BF 7F EF 74 3A C3 6C 8D 2A 95 
2A 39 39 19 E3 65 10 00 71 06 42 E1 6B 8A 21 DA A4 AF 3B 86 7E 19 F4 87 38 03 61 E9 EA EA 3A 73 
E6 8C D5 6A 0D 78 3C 31 31 B1 AA AA 2A 3E 3E 1E 41 06 C1 60 EC 0C 84 85 61 18 8F C7 E3 76 BB 03 
4E B4 D8 79 1C FE 13 7A 67 20 2C 6E B7 BB A7 A7 87 E3 B8 80 96 29 97 CB 13 12 12 30 FB 1F 42 40 
9C 01 80 48 60 CB 2D 00 10 09 C4 19 00 88 04 E2 0C 00 44 02 71 06 00 22 81 38 03 00 91 40 9C 01 
80 48 20 CE 00 40 24 10 67 00 20 12 88 33 00 10 09 C4 19 00 88 04 E2 0C 00 44 02 71 06 00 22 F1 
2F EF 52 60 30 58 83 1C 98 00 00 00 00 49 45 4E 44 AE 42 60 82 
EndData
$EndBitmap
Wire Wire Line
	3800 3425 5325 3425
Wire Wire Line
	5325 2875 5325 3125
Wire Wire Line
	3800 2875 4025 2875
Wire Wire Line
	3800 3325 4750 3325
Wire Wire Line
	4825 3125 4825 3225
Wire Wire Line
	4100 3225 3900 3225
Wire Wire Line
	5200 3125 5325 3125
Wire Wire Line
	4450 3225 4400 3225
$Comp
L Device:C C?
U 1 1 679F3ED9
P 4250 3225
AR Path="/679F3ED9" Ref="C?"  Part="1" 
AR Path="/679F16BE/679F3ED9" Ref="C?"  Part="1" 
AR Path="/685B1068/679F3ED9" Ref="C?"  Part="1" 
AR Path="/685D71B0/679F3ED9" Ref="C?"  Part="1" 
AR Path="/6915B170/691AAF6E/679F3ED9" Ref="C?"  Part="1" 
AR Path="/6915B170/691AAF72/679F3ED9" Ref="C?"  Part="1" 
AR Path="/6915B170/691AAF76/679F3ED9" Ref="C?"  Part="1" 
AR Path="/695CC68F/679F3ED9" Ref="C33"  Part="1" 
F 0 "C33" V 4500 3225 50  0000 C CNN
F 1 "1nF" V 4400 3225 50  0000 C CNN
F 2 "Capacitor_SMD:C_0603_1608Metric_Pad1.08x0.95mm_HandSolder" H 4288 3075 50  0001 C CNN
F 3 "~" H 4250 3225 50  0001 C CNN
	1    4250 3225
	0    -1   -1   0   
$EndComp
Wire Wire Line
	4825 3225 4750 3225
$Comp
L Device:R R?
U 1 1 679F3ED1
P 4600 3225
AR Path="/679F3ED1" Ref="R?"  Part="1" 
AR Path="/679F16BE/679F3ED1" Ref="R?"  Part="1" 
AR Path="/685B1068/679F3ED1" Ref="R?"  Part="1" 
AR Path="/685D71B0/679F3ED1" Ref="R?"  Part="1" 
AR Path="/6915B170/691AAF6E/679F3ED1" Ref="R?"  Part="1" 
AR Path="/6915B170/691AAF72/679F3ED1" Ref="R?"  Part="1" 
AR Path="/6915B170/691AAF76/679F3ED1" Ref="R?"  Part="1" 
AR Path="/695CC68F/679F3ED1" Ref="R24"  Part="1" 
F 0 "R24" V 4775 3225 50  0000 C CNN
F 1 "7.5k" V 4700 3225 50  0000 C CNN
F 2 "Resistor_SMD:R_0603_1608Metric_Pad0.98x0.95mm_HandSolder" V 4530 3225 50  0001 C CNN
F 3 "~" H 4600 3225 50  0001 C CNN
	1    4600 3225
	0    -1   -1   0   
$EndComp
Connection ~ 4825 3225
Wire Wire Line
	4825 3225 5325 3225
Wire Wire Line
	4900 3125 4825 3125
$Comp
L Device:R R?
U 1 1 679F3EC9
P 5050 3125
AR Path="/679F3EC9" Ref="R?"  Part="1" 
AR Path="/679F16BE/679F3EC9" Ref="R?"  Part="1" 
AR Path="/685B1068/679F3EC9" Ref="R?"  Part="1" 
AR Path="/685D71B0/679F3EC9" Ref="R?"  Part="1" 
AR Path="/6915B170/691AAF6E/679F3EC9" Ref="R?"  Part="1" 
AR Path="/6915B170/691AAF72/679F3EC9" Ref="R?"  Part="1" 
AR Path="/6915B170/691AAF76/679F3EC9" Ref="R?"  Part="1" 
AR Path="/695CC68F/679F3EC9" Ref="R25"  Part="1" 
F 0 "R25" V 5225 3125 50  0000 C CNN
F 1 "150k" V 5150 3125 50  0000 C CNN
F 2 "Resistor_SMD:R_0603_1608Metric_Pad0.98x0.95mm_HandSolder" V 4980 3125 50  0001 C CNN
F 3 "~" H 5050 3125 50  0001 C CNN
	1    5050 3125
	0    -1   -1   0   
$EndComp
Text Label 3800 2875 2    50   ~ 0
A1
Connection ~ 5325 3125
$Comp
L SamacSys_Parts:MCP6004-I_SL IC?
U 1 1 679F3E89
P 5325 3125
AR Path="/679F3E89" Ref="IC?"  Part="1" 
AR Path="/679F16BE/679F3E89" Ref="IC?"  Part="1" 
AR Path="/685B1068/679F3E89" Ref="IC?"  Part="1" 
AR Path="/685D71B0/679F3E89" Ref="IC?"  Part="1" 
AR Path="/6915B170/691AAF6E/679F3E89" Ref="IC?"  Part="1" 
AR Path="/6915B170/691AAF72/679F3E89" Ref="IC?"  Part="1" 
AR Path="/6915B170/691AAF76/679F3E89" Ref="IC?"  Part="1" 
AR Path="/695CC68F/679F3E89" Ref="IC6"  Part="1" 
F 0 "IC6" H 5975 3390 50  0000 C CNN
F 1 "MCP6004-I_SL" H 5975 3299 50  0000 C CNN
F 2 "SamacSys_Parts:SOIC127P600X175-14N" H 6475 3225 50  0001 L CNN
F 3 "https://datasheet.datasheetarchive.com/originals/distributors/Datasheets-DGA24/1612149.pdf" H 6475 3125 50  0001 L CNN
F 4 "1MHz Low Power Quad Op Amplifier" H 6475 3025 50  0001 L CNN "Description"
F 5 "1.75" H 6475 2925 50  0001 L CNN "Height"
F 6 "579-MCP6004-I/SL" H 6475 2825 50  0001 L CNN "Mouser Part Number"
F 7 "https://www.mouser.co.uk/ProductDetail/Microchip-Technology/MCP6004-I-SL?qs=n%2FfJlMG9rCZ2%2F%2FCryvZ52w%3D%3D" H 6475 2725 50  0001 L CNN "Mouser Price/Stock"
F 8 "Microchip" H 6475 2625 50  0001 L CNN "Manufacturer_Name"
F 9 "MCP6004-I/SL" H 6475 2525 50  0001 L CNN "Manufacturer_Part_Number"
	1    5325 3125
	1    0    0    -1  
$EndComp
Text HLabel 3800 3225 0    50   Input ~ 0
40kHz_Raw_IP
$Comp
L power:GND #PWR?
U 1 1 67A02546
P 4450 5150
AR Path="/67A02546" Ref="#PWR?"  Part="1" 
AR Path="/679F16BE/67A02546" Ref="#PWR?"  Part="1" 
AR Path="/685B1068/67A02546" Ref="#PWR?"  Part="1" 
AR Path="/685D71B0/67A02546" Ref="#PWR?"  Part="1" 
AR Path="/6915B170/691AAF6E/67A02546" Ref="#PWR?"  Part="1" 
AR Path="/6915B170/691AAF72/67A02546" Ref="#PWR?"  Part="1" 
AR Path="/6915B170/691AAF76/67A02546" Ref="#PWR?"  Part="1" 
AR Path="/695CC68F/67A02546" Ref="#PWR029"  Part="1" 
F 0 "#PWR029" H 4450 4900 50  0001 C CNN
F 1 "GND" H 4455 4977 50  0000 C CNN
F 2 "" H 4450 5150 50  0001 C CNN
F 3 "" H 4450 5150 50  0001 C CNN
	1    4450 5150
	1    0    0    -1  
$EndComp
Wire Wire Line
	5325 3525 4750 3525
$Comp
L Device:R R?
U 1 1 679F8ED3
P 5075 4050
AR Path="/679F8ED3" Ref="R?"  Part="1" 
AR Path="/679F16BE/679F8ED3" Ref="R?"  Part="1" 
AR Path="/685B1068/679F8ED3" Ref="R?"  Part="1" 
AR Path="/685D71B0/679F8ED3" Ref="R?"  Part="1" 
AR Path="/6915B170/691AAF6E/679F8ED3" Ref="R?"  Part="1" 
AR Path="/6915B170/691AAF72/679F8ED3" Ref="R?"  Part="1" 
AR Path="/6915B170/691AAF76/679F8ED3" Ref="R?"  Part="1" 
AR Path="/695CC68F/679F8ED3" Ref="R27"  Part="1" 
F 0 "R27" V 5250 4050 50  0000 C CNN
F 1 "28k" V 5175 4050 50  0000 C CNN
F 2 "Resistor_SMD:R_0603_1608Metric_Pad0.98x0.95mm_HandSolder" V 5005 4050 50  0001 C CNN
F 3 "~" H 5075 4050 50  0001 C CNN
	1    5075 4050
	0    -1   -1   0   
$EndComp
Wire Wire Line
	5325 4450 5325 4050
Wire Wire Line
	5325 3725 5325 4050
Connection ~ 5325 4050
Wire Wire Line
	5325 4050 5225 4050
$Comp
L Device:C C?
U 1 1 679FA7A3
P 4850 4450
AR Path="/679FA7A3" Ref="C?"  Part="1" 
AR Path="/679F16BE/679FA7A3" Ref="C?"  Part="1" 
AR Path="/685B1068/679FA7A3" Ref="C?"  Part="1" 
AR Path="/685D71B0/679FA7A3" Ref="C?"  Part="1" 
AR Path="/6915B170/691AAF6E/679FA7A3" Ref="C?"  Part="1" 
AR Path="/6915B170/691AAF72/679FA7A3" Ref="C?"  Part="1" 
AR Path="/6915B170/691AAF76/679FA7A3" Ref="C?"  Part="1" 
AR Path="/695CC68F/679FA7A3" Ref="C35"  Part="1" 
F 0 "C35" V 5100 4450 50  0000 C CNN
F 1 "1nF" V 5000 4450 50  0000 C CNN
F 2 "Capacitor_SMD:C_0603_1608Metric_Pad1.08x0.95mm_HandSolder" H 4888 4300 50  0001 C CNN
F 3 "~" H 4850 4450 50  0001 C CNN
	1    4850 4450
	0    -1   -1   0   
$EndComp
Wire Wire Line
	4700 4450 4450 4450
Wire Wire Line
	5000 4450 5325 4450
Text Label 3675 4050 2    50   ~ 0
A1
Wire Wire Line
	4450 4450 4450 4550
Wire Wire Line
	4450 4050 4400 4050
Connection ~ 4450 4450
Wire Wire Line
	4450 4050 4450 4450
Connection ~ 4450 4050
Wire Wire Line
	4500 4050 4450 4050
Wire Wire Line
	4875 4050 4925 4050
Wire Wire Line
	4875 4050 4800 4050
Connection ~ 4875 4050
Wire Wire Line
	4875 3625 4875 4050
Wire Wire Line
	5325 3625 4875 3625
$Comp
L Device:R R?
U 1 1 679FA2BF
P 4450 4700
AR Path="/679FA2BF" Ref="R?"  Part="1" 
AR Path="/679F16BE/679FA2BF" Ref="R?"  Part="1" 
AR Path="/685B1068/679FA2BF" Ref="R?"  Part="1" 
AR Path="/685D71B0/679FA2BF" Ref="R?"  Part="1" 
AR Path="/6915B170/691AAF6E/679FA2BF" Ref="R?"  Part="1" 
AR Path="/6915B170/691AAF72/679FA2BF" Ref="R?"  Part="1" 
AR Path="/6915B170/691AAF76/679FA2BF" Ref="R?"  Part="1" 
AR Path="/695CC68F/679FA2BF" Ref="R23"  Part="1" 
F 0 "R23" V 4625 4700 50  0000 C CNN
F 1 "400" V 4550 4700 50  0000 C CNN
F 2 "Resistor_SMD:R_0603_1608Metric_Pad0.98x0.95mm_HandSolder" V 4380 4700 50  0001 C CNN
F 3 "~" H 4450 4700 50  0001 C CNN
	1    4450 4700
	1    0    0    -1  
$EndComp
$Comp
L Device:C C?
U 1 1 679F9FB7
P 4650 4050
AR Path="/679F9FB7" Ref="C?"  Part="1" 
AR Path="/679F16BE/679F9FB7" Ref="C?"  Part="1" 
AR Path="/685B1068/679F9FB7" Ref="C?"  Part="1" 
AR Path="/685D71B0/679F9FB7" Ref="C?"  Part="1" 
AR Path="/6915B170/691AAF6E/679F9FB7" Ref="C?"  Part="1" 
AR Path="/6915B170/691AAF72/679F9FB7" Ref="C?"  Part="1" 
AR Path="/6915B170/691AAF76/679F9FB7" Ref="C?"  Part="1" 
AR Path="/695CC68F/679F9FB7" Ref="C34"  Part="1" 
F 0 "C34" V 4900 4050 50  0000 C CNN
F 1 "1nF" V 4800 4050 50  0000 C CNN
F 2 "Capacitor_SMD:C_0603_1608Metric_Pad1.08x0.95mm_HandSolder" H 4688 3900 50  0001 C CNN
F 3 "~" H 4650 4050 50  0001 C CNN
	1    4650 4050
	0    -1   -1   0   
$EndComp
$Comp
L Device:R R?
U 1 1 679F9681
P 4250 4050
AR Path="/679F9681" Ref="R?"  Part="1" 
AR Path="/679F16BE/679F9681" Ref="R?"  Part="1" 
AR Path="/685B1068/679F9681" Ref="R?"  Part="1" 
AR Path="/685D71B0/679F9681" Ref="R?"  Part="1" 
AR Path="/6915B170/691AAF6E/679F9681" Ref="R?"  Part="1" 
AR Path="/6915B170/691AAF72/679F9681" Ref="R?"  Part="1" 
AR Path="/6915B170/691AAF76/679F9681" Ref="R?"  Part="1" 
AR Path="/695CC68F/679F9681" Ref="R22"  Part="1" 
F 0 "R22" V 4400 4050 50  0000 C CNN
F 1 "14k" V 4325 4050 50  0000 C CNN
F 2 "Resistor_SMD:R_0603_1608Metric_Pad0.98x0.95mm_HandSolder" V 4180 4050 50  0001 C CNN
F 3 "~" H 4250 4050 50  0001 C CNN
	1    4250 4050
	0    -1   -1   0   
$EndComp
Wire Wire Line
	4750 3525 4750 3325
Connection ~ 4750 3325
Wire Wire Line
	4750 3325 5325 3325
Text Label 5325 4650 2    50   ~ 0
A2
Wire Wire Line
	5325 4450 5325 4650
Connection ~ 5325 4450
Wire Wire Line
	8150 3975 7950 3975
Wire Wire Line
	7125 3725 7125 3625
Wire Wire Line
	6750 3725 6625 3725
Wire Wire Line
	7125 3625 7200 3625
$Comp
L Device:R R?
U 1 1 6859B2F4
P 7350 3625
AR Path="/6859B2F4" Ref="R?"  Part="1" 
AR Path="/679F16BE/6859B2F4" Ref="R?"  Part="1" 
AR Path="/685B1068/6859B2F4" Ref="R?"  Part="1" 
AR Path="/685D71B0/6859B2F4" Ref="R?"  Part="1" 
AR Path="/6915B170/691AAF6E/6859B2F4" Ref="R?"  Part="1" 
AR Path="/6915B170/691AAF72/6859B2F4" Ref="R?"  Part="1" 
AR Path="/6915B170/691AAF76/6859B2F4" Ref="R?"  Part="1" 
AR Path="/695CC68F/6859B2F4" Ref="R30"  Part="1" 
F 0 "R30" V 7525 3625 50  0000 C CNN
F 1 "7.5k" V 7450 3625 50  0000 C CNN
F 2 "Resistor_SMD:R_0603_1608Metric_Pad0.98x0.95mm_HandSolder" V 7280 3625 50  0001 C CNN
F 3 "~" H 7350 3625 50  0001 C CNN
	1    7350 3625
	0    1    1    0   
$EndComp
Connection ~ 7125 3625
Wire Wire Line
	7125 3625 6625 3625
Wire Wire Line
	7050 3725 7125 3725
$Comp
L Device:R R?
U 1 1 6859B2FD
P 6900 3725
AR Path="/6859B2FD" Ref="R?"  Part="1" 
AR Path="/679F16BE/6859B2FD" Ref="R?"  Part="1" 
AR Path="/685B1068/6859B2FD" Ref="R?"  Part="1" 
AR Path="/685D71B0/6859B2FD" Ref="R?"  Part="1" 
AR Path="/6915B170/691AAF6E/6859B2FD" Ref="R?"  Part="1" 
AR Path="/6915B170/691AAF72/6859B2FD" Ref="R?"  Part="1" 
AR Path="/6915B170/691AAF76/6859B2FD" Ref="R?"  Part="1" 
AR Path="/695CC68F/6859B2FD" Ref="R29"  Part="1" 
F 0 "R29" V 7075 3725 50  0000 C CNN
F 1 "150k" V 7000 3725 50  0000 C CNN
F 2 "Resistor_SMD:R_0603_1608Metric_Pad0.98x0.95mm_HandSolder" V 6830 3725 50  0001 C CNN
F 3 "~" H 6900 3725 50  0001 C CNN
	1    6900 3725
	0    1    1    0   
$EndComp
Wire Wire Line
	6625 3975 6625 3725
Connection ~ 6625 3725
Text Label 9200 4000 0    50   ~ 0
A2
Wire Wire Line
	6625 3525 8125 3525
$Comp
L Device:C C?
U 1 1 6866F231
P 6200 2125
AR Path="/6866F231" Ref="C?"  Part="1" 
AR Path="/679F16BE/6866F231" Ref="C?"  Part="1" 
AR Path="/685B1068/6866F231" Ref="C?"  Part="1" 
AR Path="/6915B170/691AAF6E/6866F231" Ref="C?"  Part="1" 
AR Path="/6915B170/691AAF72/6866F231" Ref="C?"  Part="1" 
AR Path="/6915B170/691AAF76/6866F231" Ref="C?"  Part="1" 
AR Path="/695CC68F/6866F231" Ref="C37"  Part="1" 
F 0 "C37" V 6475 2175 50  0000 C CNN
F 1 "0.1uF" V 6375 2175 50  0000 C CNN
F 2 "Capacitor_SMD:C_0603_1608Metric_Pad1.08x0.95mm_HandSolder" H 6238 1975 50  0001 C CNN
F 3 "~" H 6200 2125 50  0001 C CNN
	1    6200 2125
	-1   0    0    1   
$EndComp
Wire Wire Line
	6200 2275 6200 2400
Wire Wire Line
	4450 4850 4450 5150
Wire Notes Line
	4475 3275 5200 3275
Wire Notes Line
	5200 3275 5200 2700
Wire Notes Line
	5200 2700 4475 2700
Wire Notes Line
	4475 2700 4475 3275
Text Notes 4525 2800 0    50   ~ 0
1st stage Gain
Wire Notes Line
	5200 3725 5200 5525
Wire Notes Line
	5200 5525 3475 5525
Wire Notes Line
	3475 5525 3475 3725
Wire Notes Line
	3475 3725 5200 3725
Text Notes 3675 4775 0    50   ~ 0
Band pass Filter
Wire Notes Line
	7475 3575 7475 4275
Wire Notes Line
	7475 4275 6725 4275
Wire Notes Line
	6725 4275 6725 3575
Wire Notes Line
	6725 3575 7475 3575
Text Notes 6825 4200 0    50   ~ 0
Final amplifier
Text HLabel 8150 3975 2    50   Output ~ 0
40kHz_Filt_Amp_OP
$Comp
L Connector:TestPoint TN?
U 1 1 68684604
P 5675 4450
AR Path="/68684604" Ref="TN?"  Part="1" 
AR Path="/679F16BE/68684604" Ref="Tb?"  Part="1" 
AR Path="/685B1068/68684604" Ref="Tb?"  Part="1" 
AR Path="/6915B170/691AAF6E/68684604" Ref="Tc?"  Part="1" 
AR Path="/6915B170/691AAF72/68684604" Ref="Tb?"  Part="1" 
AR Path="/6915B170/691AAF76/68684604" Ref="Tb?"  Part="1" 
AR Path="/695CC68F/68684604" Ref="TW3"  Part="1" 
F 0 "TW3" H 5600 4675 50  0000 L CNN
F 1 "TestPoint" H 5475 4750 50  0000 L CNN
F 2 "TestPoint:TestPoint_THTPad_1.0x1.0mm_Drill0.5mm" H 5875 4450 50  0001 C CNN
F 3 "~" H 5875 4450 50  0001 C CNN
	1    5675 4450
	1    0    0    -1  
$EndComp
Wire Wire Line
	5675 4450 5325 4450
Wire Wire Line
	4025 2800 4025 2875
Connection ~ 4025 2875
Wire Wire Line
	4025 2875 5325 2875
$Comp
L Connector:TestPoint Tb?
U 1 1 6868892B
P 7950 4075
AR Path="/6868892B" Ref="Tb?"  Part="1" 
AR Path="/679F16BE/6868892B" Ref="Tc?"  Part="1" 
AR Path="/685B1068/6868892B" Ref="Tc?"  Part="1" 
AR Path="/6915B170/691AAF6E/6868892B" Ref="Td?"  Part="1" 
AR Path="/6915B170/691AAF72/6868892B" Ref="Tc?"  Part="1" 
AR Path="/6915B170/691AAF76/6868892B" Ref="Tc?"  Part="1" 
AR Path="/695CC68F/6868892B" Ref="TW4"  Part="1" 
F 0 "TW4" H 7875 4300 50  0000 L CNN
F 1 "TestPoint" H 7750 4375 50  0000 L CNN
F 2 "TestPoint:TestPoint_THTPad_1.0x1.0mm_Drill0.5mm" H 8150 4075 50  0001 C CNN
F 3 "~" H 8150 4075 50  0001 C CNN
	1    7950 4075
	-1   0    0    1   
$EndComp
Wire Wire Line
	7950 4075 7950 3975
Connection ~ 7950 3975
Wire Wire Line
	7950 3975 6625 3975
Wire Wire Line
	3325 2875 3325 3050
Wire Wire Line
	3325 3050 3900 3050
Wire Wire Line
	3900 3050 3900 3225
Connection ~ 3900 3225
Wire Wire Line
	3900 3225 3800 3225
Text GLabel 6200 1750 1    50   Input ~ 0
WG_US_Power_3.3V
Text GLabel 3800 3425 0    50   Input ~ 0
WG_US_Power_3.3V
$Comp
L Device:R R?
U 1 1 69C64A96
P 1200 3175
AR Path="/69C64A96" Ref="R?"  Part="1" 
AR Path="/679F16BE/69C64A96" Ref="R?"  Part="1" 
AR Path="/685B1068/69C64A96" Ref="R?"  Part="1" 
AR Path="/685D71B0/69C64A96" Ref="R?"  Part="1" 
AR Path="/6915B170/691AAF6E/69C64A96" Ref="R?"  Part="1" 
AR Path="/6915B170/691AAF72/69C64A96" Ref="R?"  Part="1" 
AR Path="/6915B170/691AAF76/69C64A96" Ref="R?"  Part="1" 
AR Path="/695CC68F/69C64A96" Ref="R19"  Part="1" 
F 0 "R19" V 1375 3175 50  0000 C CNN
F 1 "100k" V 1300 3175 50  0000 C CNN
F 2 "Resistor_SMD:R_0603_1608Metric_Pad0.98x0.95mm_HandSolder" V 1130 3175 50  0001 C CNN
F 3 "~" H 1200 3175 50  0001 C CNN
	1    1200 3175
	1    0    0    -1  
$EndComp
$Comp
L Device:R R?
U 1 1 69C65171
P 1200 3600
AR Path="/69C65171" Ref="R?"  Part="1" 
AR Path="/679F16BE/69C65171" Ref="R?"  Part="1" 
AR Path="/685B1068/69C65171" Ref="R?"  Part="1" 
AR Path="/685D71B0/69C65171" Ref="R?"  Part="1" 
AR Path="/6915B170/691AAF6E/69C65171" Ref="R?"  Part="1" 
AR Path="/6915B170/691AAF72/69C65171" Ref="R?"  Part="1" 
AR Path="/6915B170/691AAF76/69C65171" Ref="R?"  Part="1" 
AR Path="/695CC68F/69C65171" Ref="R20"  Part="1" 
F 0 "R20" V 1375 3600 50  0000 C CNN
F 1 "100k" V 1300 3600 50  0000 C CNN
F 2 "Resistor_SMD:R_0603_1608Metric_Pad0.98x0.95mm_HandSolder" V 1130 3600 50  0001 C CNN
F 3 "~" H 1200 3600 50  0001 C CNN
	1    1200 3600
	1    0    0    -1  
$EndComp
Text GLabel 1200 2825 1    50   Input ~ 0
WG_US_Power_3.3V
Wire Wire Line
	1200 2825 1200 3025
Wire Wire Line
	1200 3325 1200 3375
$Comp
L power:GND #PWR?
U 1 1 69C684D1
P 1200 3950
AR Path="/69C684D1" Ref="#PWR?"  Part="1" 
AR Path="/679F16BE/69C684D1" Ref="#PWR?"  Part="1" 
AR Path="/685B1068/69C684D1" Ref="#PWR?"  Part="1" 
AR Path="/685D71B0/69C684D1" Ref="#PWR?"  Part="1" 
AR Path="/6915B170/691AAF6E/69C684D1" Ref="#PWR?"  Part="1" 
AR Path="/6915B170/691AAF72/69C684D1" Ref="#PWR?"  Part="1" 
AR Path="/6915B170/691AAF76/69C684D1" Ref="#PWR?"  Part="1" 
AR Path="/695CC68F/69C684D1" Ref="#PWR028"  Part="1" 
F 0 "#PWR028" H 1200 3700 50  0001 C CNN
F 1 "GND" H 1205 3777 50  0000 C CNN
F 2 "" H 1200 3950 50  0001 C CNN
F 3 "" H 1200 3950 50  0001 C CNN
	1    1200 3950
	1    0    0    -1  
$EndComp
Wire Wire Line
	1200 3750 1200 3850
Wire Wire Line
	1200 3375 1725 3375
Connection ~ 1200 3375
Wire Wire Line
	1200 3375 1200 3450
$Comp
L Device:C C?
U 1 1 69C6BB27
P 800 3625
AR Path="/69C6BB27" Ref="C?"  Part="1" 
AR Path="/679F16BE/69C6BB27" Ref="C?"  Part="1" 
AR Path="/685B1068/69C6BB27" Ref="C?"  Part="1" 
AR Path="/6915B170/691AAF6E/69C6BB27" Ref="C?"  Part="1" 
AR Path="/6915B170/691AAF72/69C6BB27" Ref="C?"  Part="1" 
AR Path="/6915B170/691AAF76/69C6BB27" Ref="C?"  Part="1" 
AR Path="/695CC68F/69C6BB27" Ref="C31"  Part="1" 
F 0 "C31" V 1075 3675 50  0000 C CNN
F 1 "1uF" V 975 3675 50  0000 C CNN
F 2 "Capacitor_SMD:C_0603_1608Metric_Pad1.08x0.95mm_HandSolder" H 838 3475 50  0001 C CNN
F 3 "~" H 800 3625 50  0001 C CNN
	1    800  3625
	-1   0    0    1   
$EndComp
Wire Wire Line
	1200 3375 800  3375
Wire Wire Line
	800  3375 800  3475
Wire Wire Line
	800  3775 800  3850
Wire Wire Line
	800  3850 1200 3850
Connection ~ 1200 3850
Wire Wire Line
	1200 3850 1200 3950
Text Label 1725 3375 0    50   ~ 0
Vref_1.65V
Text Label 3800 3325 2    50   ~ 0
Vref_1.65V
Text Label 8400 3525 0    50   ~ 0
Vref_1.65V
$Comp
L Connector:TestPoint TN?
U 1 1 686873BB
P 4025 2800
AR Path="/686873BB" Ref="TN?"  Part="1" 
AR Path="/679F16BE/686873BB" Ref="Ta?"  Part="1" 
AR Path="/685B1068/686873BB" Ref="Ta?"  Part="1" 
AR Path="/6915B170/691AAF6E/686873BB" Ref="Tb?"  Part="1" 
AR Path="/6915B170/691AAF72/686873BB" Ref="Ta?"  Part="1" 
AR Path="/6915B170/691AAF76/686873BB" Ref="Ta?"  Part="1" 
AR Path="/695CC68F/686873BB" Ref="TW2"  Part="1" 
F 0 "TW2" H 3950 3025 50  0000 L CNN
F 1 "TestPoint" H 3825 3100 50  0000 L CNN
F 2 "TestPoint:TestPoint_THTPad_1.0x1.0mm_Drill0.5mm" H 4225 2800 50  0001 C CNN
F 3 "~" H 4225 2800 50  0001 C CNN
	1    4025 2800
	1    0    0    -1  
$EndComp
$Comp
L Connector:TestPoint Ta?
U 1 1 69202F03
P 3325 2875
AR Path="/69202F03" Ref="Ta?"  Part="1" 
AR Path="/679F16BE/69202F03" Ref="Ta?"  Part="1" 
AR Path="/685B1068/69202F03" Ref="Ta?"  Part="1" 
AR Path="/6915B170/691AAF6E/69202F03" Ref="Ta?"  Part="1" 
AR Path="/6915B170/691AAF72/69202F03" Ref="Ta?"  Part="1" 
AR Path="/6915B170/691AAF76/69202F03" Ref="Ta?"  Part="1" 
AR Path="/695CC68F/69202F03" Ref="TW1"  Part="1" 
F 0 "TW1" H 3250 3100 50  0000 L CNN
F 1 "TestPoint" H 3125 3175 50  0000 L CNN
F 2 "TestPoint:TestPoint_THTPad_1.0x1.0mm_Drill0.5mm" H 3525 2875 50  0001 C CNN
F 3 "~" H 3525 2875 50  0001 C CNN
	1    3325 2875
	1    0    0    -1  
$EndComp
$Comp
L Device:Jumper_NC_Dual JP2
U 1 1 69DD346A
P 9200 3625
F 0 "JP2" V 9154 3727 50  0000 L CNN
F 1 "Jumper_NC_Dual" V 9245 3727 50  0000 L CNN
F 2 "Jumper:SolderJumper-3_P1.3mm_Open_Pad1.0x1.5mm_NumberLabels" H 9200 3625 50  0001 C CNN
F 3 "~" H 9200 3625 50  0001 C CNN
	1    9200 3625
	0    1    1    0   
$EndComp
Wire Wire Line
	9200 4000 9200 3875
Text Label 9200 3275 0    50   ~ 0
A1
Wire Wire Line
	9200 3275 9200 3375
$Comp
L Device:R R?
U 1 1 65B4D5DB
P 6900 3125
AR Path="/65B4D5DB" Ref="R?"  Part="1" 
AR Path="/679F16BE/65B4D5DB" Ref="R?"  Part="1" 
AR Path="/685B1068/65B4D5DB" Ref="R?"  Part="1" 
AR Path="/685D71B0/65B4D5DB" Ref="R?"  Part="1" 
AR Path="/6915B170/691AAF6E/65B4D5DB" Ref="R?"  Part="1" 
AR Path="/6915B170/691AAF72/65B4D5DB" Ref="R?"  Part="1" 
AR Path="/6915B170/691AAF76/65B4D5DB" Ref="R?"  Part="1" 
AR Path="/695CC68F/65B4D5DB" Ref="R32"  Part="1" 
F 0 "R32" V 7075 3125 50  0000 C CNN
F 1 "150k" V 7000 3125 50  0000 C CNN
F 2 "Resistor_SMD:R_0603_1608Metric_Pad0.98x0.95mm_HandSolder" V 6830 3125 50  0001 C CNN
F 3 "~" H 6900 3125 50  0001 C CNN
	1    6900 3125
	0    -1   -1   0   
$EndComp
Wire Wire Line
	6750 3125 6700 3125
$Comp
L Device:R R?
U 1 1 65B511ED
P 7375 3225
AR Path="/65B511ED" Ref="R?"  Part="1" 
AR Path="/679F16BE/65B511ED" Ref="R?"  Part="1" 
AR Path="/685B1068/65B511ED" Ref="R?"  Part="1" 
AR Path="/685D71B0/65B511ED" Ref="R?"  Part="1" 
AR Path="/6915B170/691AAF6E/65B511ED" Ref="R?"  Part="1" 
AR Path="/6915B170/691AAF72/65B511ED" Ref="R?"  Part="1" 
AR Path="/6915B170/691AAF76/65B511ED" Ref="R?"  Part="1" 
AR Path="/695CC68F/65B511ED" Ref="R33"  Part="1" 
F 0 "R33" V 7550 3225 50  0000 C CNN
F 1 "1.5k" V 7475 3225 50  0000 C CNN
F 2 "Resistor_SMD:R_0603_1608Metric_Pad0.98x0.95mm_HandSolder" V 7305 3225 50  0001 C CNN
F 3 "~" H 7375 3225 50  0001 C CNN
	1    7375 3225
	0    -1   -1   0   
$EndComp
Wire Wire Line
	6625 3225 7125 3225
Wire Wire Line
	7050 3125 7125 3125
Wire Wire Line
	7125 3125 7125 3225
Connection ~ 7125 3225
Wire Wire Line
	7125 3225 7225 3225
Text HLabel 8750 2750 2    50   Input ~ 0
Phase_Diff_V
Wire Wire Line
	7525 3225 7600 3225
$Comp
L Device:R R?
U 1 1 65B56807
P 7875 3325
AR Path="/65B56807" Ref="R?"  Part="1" 
AR Path="/679F16BE/65B56807" Ref="R?"  Part="1" 
AR Path="/685B1068/65B56807" Ref="R?"  Part="1" 
AR Path="/685D71B0/65B56807" Ref="R?"  Part="1" 
AR Path="/6915B170/691AAF6E/65B56807" Ref="R?"  Part="1" 
AR Path="/6915B170/691AAF72/65B56807" Ref="R?"  Part="1" 
AR Path="/6915B170/691AAF76/65B56807" Ref="R?"  Part="1" 
AR Path="/695CC68F/65B56807" Ref="R35"  Part="1" 
F 0 "R35" V 8050 3325 50  0000 C CNN
F 1 "1.5k" V 7975 3325 50  0000 C CNN
F 2 "Resistor_SMD:R_0603_1608Metric_Pad0.98x0.95mm_HandSolder" V 7805 3325 50  0001 C CNN
F 3 "~" H 7875 3325 50  0001 C CNN
	1    7875 3325
	0    -1   -1   0   
$EndComp
Wire Wire Line
	8125 3325 8025 3325
Connection ~ 8125 3525
$Comp
L Device:R R?
U 1 1 65B5A650
P 7875 3050
AR Path="/65B5A650" Ref="R?"  Part="1" 
AR Path="/679F16BE/65B5A650" Ref="R?"  Part="1" 
AR Path="/685B1068/65B5A650" Ref="R?"  Part="1" 
AR Path="/685D71B0/65B5A650" Ref="R?"  Part="1" 
AR Path="/6915B170/691AAF6E/65B5A650" Ref="R?"  Part="1" 
AR Path="/6915B170/691AAF72/65B5A650" Ref="R?"  Part="1" 
AR Path="/6915B170/691AAF76/65B5A650" Ref="R?"  Part="1" 
AR Path="/695CC68F/65B5A650" Ref="R34"  Part="1" 
F 0 "R34" V 8050 3050 50  0000 C CNN
F 1 "150k" V 7975 3050 50  0000 C CNN
F 2 "Resistor_SMD:R_0603_1608Metric_Pad0.98x0.95mm_HandSolder" V 7805 3050 50  0001 C CNN
F 3 "~" H 7875 3050 50  0001 C CNN
	1    7875 3050
	0    -1   -1   0   
$EndComp
Wire Wire Line
	7600 3225 7600 2750
Wire Wire Line
	7725 3325 7675 3325
Wire Wire Line
	8125 3325 8125 3525
Wire Wire Line
	7725 3050 7675 3050
Wire Wire Line
	7675 3050 7675 3325
Connection ~ 7675 3325
Wire Wire Line
	7675 3325 6625 3325
$Comp
L power:GND #PWR?
U 1 1 65B681F8
P 8300 3075
AR Path="/65B681F8" Ref="#PWR?"  Part="1" 
AR Path="/679F16BE/65B681F8" Ref="#PWR?"  Part="1" 
AR Path="/685B1068/65B681F8" Ref="#PWR?"  Part="1" 
AR Path="/6915B170/691AAF6E/65B681F8" Ref="#PWR?"  Part="1" 
AR Path="/6915B170/691AAF72/65B681F8" Ref="#PWR?"  Part="1" 
AR Path="/6915B170/691AAF76/65B681F8" Ref="#PWR?"  Part="1" 
AR Path="/695CC68F/65B681F8" Ref="#PWR041"  Part="1" 
F 0 "#PWR041" H 8300 2825 50  0001 C CNN
F 1 "GND" H 8305 2902 50  0000 C CNN
F 2 "" H 8300 3075 50  0001 C CNN
F 3 "" H 8300 3075 50  0001 C CNN
	1    8300 3075
	1    0    0    -1  
$EndComp
Wire Wire Line
	8025 3050 8300 3050
Wire Wire Line
	8300 3050 8300 3075
Wire Wire Line
	6625 3425 6650 3425
Wire Wire Line
	6650 3425 6650 2400
$Comp
L Device:C C?
U 1 1 65B6CFF4
P 7275 2450
AR Path="/65B6CFF4" Ref="C?"  Part="1" 
AR Path="/679F16BE/65B6CFF4" Ref="C?"  Part="1" 
AR Path="/685B1068/65B6CFF4" Ref="C?"  Part="1" 
AR Path="/685D71B0/65B6CFF4" Ref="C?"  Part="1" 
AR Path="/6915B170/691AAF6E/65B6CFF4" Ref="C?"  Part="1" 
AR Path="/6915B170/691AAF72/65B6CFF4" Ref="C?"  Part="1" 
AR Path="/6915B170/691AAF76/65B6CFF4" Ref="C?"  Part="1" 
AR Path="/695CC68F/65B6CFF4" Ref="C42"  Part="1" 
F 0 "C42" H 7075 2375 50  0000 C CNN
F 1 "0.1uF" H 7075 2450 50  0000 C CNN
F 2 "Capacitor_SMD:C_0603_1608Metric_Pad1.08x0.95mm_HandSolder" H 7313 2300 50  0001 C CNN
F 3 "~" H 7275 2450 50  0001 C CNN
	1    7275 2450
	-1   0    0    1   
$EndComp
Wire Wire Line
	7125 3125 7125 2300
Wire Wire Line
	7125 2300 7275 2300
Connection ~ 7125 3125
$Comp
L power:GND #PWR?
U 1 1 65B701D4
P 7275 2600
AR Path="/65B701D4" Ref="#PWR?"  Part="1" 
AR Path="/679F16BE/65B701D4" Ref="#PWR?"  Part="1" 
AR Path="/685B1068/65B701D4" Ref="#PWR?"  Part="1" 
AR Path="/6915B170/691AAF6E/65B701D4" Ref="#PWR?"  Part="1" 
AR Path="/6915B170/691AAF72/65B701D4" Ref="#PWR?"  Part="1" 
AR Path="/6915B170/691AAF76/65B701D4" Ref="#PWR?"  Part="1" 
AR Path="/695CC68F/65B701D4" Ref="#PWR040"  Part="1" 
F 0 "#PWR040" H 7275 2350 50  0001 C CNN
F 1 "GND" H 7280 2427 50  0000 C CNN
F 2 "" H 7275 2600 50  0001 C CNN
F 3 "" H 7275 2600 50  0001 C CNN
	1    7275 2600
	1    0    0    -1  
$EndComp
Wire Wire Line
	6650 2400 6200 2400
Wire Wire Line
	6700 3125 6700 2175
Wire Wire Line
	6700 2175 7875 2175
Connection ~ 6700 3125
Wire Wire Line
	6700 3125 6625 3125
Text HLabel 8125 2175 2    50   Output ~ 0
Phase_Diff_Amp_V
Wire Notes Line
	6650 2075 9400 2075
Wire Notes Line
	9400 2075 9400 2950
Wire Notes Line
	9400 2950 8525 2950
Wire Notes Line
	8525 2950 8525 3425
Wire Notes Line
	8525 3425 6675 3425
Wire Notes Line
	6675 3425 6675 2075
$Comp
L Connector:TestPoint Tb?
U 1 1 65E4A03B
P 7875 2175
AR Path="/65E4A03B" Ref="Tb?"  Part="1" 
AR Path="/679F16BE/65E4A03B" Ref="Tb?"  Part="1" 
AR Path="/685B1068/65E4A03B" Ref="Tb?"  Part="1" 
AR Path="/6915B170/691AAF6E/65E4A03B" Ref="Tb?"  Part="1" 
AR Path="/6915B170/691AAF72/65E4A03B" Ref="Tb?"  Part="1" 
AR Path="/6915B170/691AAF76/65E4A03B" Ref="Tb?"  Part="1" 
AR Path="/695CC68F/65E4A03B" Ref="TW6"  Part="1" 
F 0 "TW6" H 7800 2400 50  0000 L CNN
F 1 "TestPoint" H 7675 2475 50  0000 L CNN
F 2 "TestPoint:TestPoint_THTPad_1.0x1.0mm_Drill0.5mm" H 8075 2175 50  0001 C CNN
F 3 "~" H 8075 2175 50  0001 C CNN
	1    7875 2175
	-1   0    0    1   
$EndComp
Connection ~ 7875 2175
Wire Wire Line
	7875 2175 8125 2175
Wire Wire Line
	8125 3525 8400 3525
$Comp
L Connector:TestPoint TW?
U 1 1 65EAB71B
P 8575 2750
AR Path="/65EAB71B" Ref="TW?"  Part="1" 
AR Path="/679F16BE/65EAB71B" Ref="TW?"  Part="1" 
AR Path="/685B1068/65EAB71B" Ref="TW?"  Part="1" 
AR Path="/6915B170/691AAF6E/65EAB71B" Ref="TW?"  Part="1" 
AR Path="/6915B170/691AAF72/65EAB71B" Ref="TW?"  Part="1" 
AR Path="/6915B170/691AAF76/65EAB71B" Ref="TW?"  Part="1" 
AR Path="/695CC68F/65EAB71B" Ref="TW5"  Part="1" 
F 0 "TW5" H 8500 2975 50  0000 L CNN
F 1 "TestPoint" H 8375 3050 50  0000 L CNN
F 2 "TestPoint:TestPoint_THTPad_1.0x1.0mm_Drill0.5mm" H 8775 2750 50  0001 C CNN
F 3 "~" H 8775 2750 50  0001 C CNN
	1    8575 2750
	1    0    0    -1  
$EndComp
Wire Wire Line
	7600 2750 8575 2750
Connection ~ 8575 2750
Wire Wire Line
	8575 2750 8750 2750
Connection ~ 6200 2400
Wire Wire Line
	6200 2400 6000 2400
Wire Wire Line
	6000 2475 6000 2400
$Comp
L power:GND #PWR?
U 1 1 6866F237
P 6000 2475
AR Path="/6866F237" Ref="#PWR?"  Part="1" 
AR Path="/679F16BE/6866F237" Ref="#PWR?"  Part="1" 
AR Path="/685B1068/6866F237" Ref="#PWR?"  Part="1" 
AR Path="/6915B170/691AAF6E/6866F237" Ref="#PWR?"  Part="1" 
AR Path="/6915B170/691AAF72/6866F237" Ref="#PWR?"  Part="1" 
AR Path="/6915B170/691AAF76/6866F237" Ref="#PWR?"  Part="1" 
AR Path="/695CC68F/6866F237" Ref="#PWR030"  Part="1" 
F 0 "#PWR030" H 6000 2225 50  0001 C CNN
F 1 "GND" H 6005 2302 50  0000 C CNN
F 2 "" H 6000 2475 50  0001 C CNN
F 3 "" H 6000 2475 50  0001 C CNN
	1    6000 2475
	1    0    0    -1  
$EndComp
Wire Wire Line
	6200 1750 6200 1975
Wire Wire Line
	7850 3625 9100 3625
Wire Wire Line
	7500 3625 7550 3625
$Comp
L Device:C C?
U 1 1 6859B2ED
P 7700 3625
AR Path="/6859B2ED" Ref="C?"  Part="1" 
AR Path="/679F16BE/6859B2ED" Ref="C?"  Part="1" 
AR Path="/685B1068/6859B2ED" Ref="C?"  Part="1" 
AR Path="/685D71B0/6859B2ED" Ref="C?"  Part="1" 
AR Path="/6915B170/691AAF6E/6859B2ED" Ref="C?"  Part="1" 
AR Path="/6915B170/691AAF72/6859B2ED" Ref="C?"  Part="1" 
AR Path="/6915B170/691AAF76/6859B2ED" Ref="C?"  Part="1" 
AR Path="/695CC68F/6859B2ED" Ref="C38"  Part="1" 
F 0 "C38" V 7950 3625 50  0000 C CNN
F 1 "1nF" V 7850 3625 50  0000 C CNN
F 2 "Capacitor_SMD:C_0603_1608Metric_Pad1.08x0.95mm_HandSolder" H 7738 3475 50  0001 C CNN
F 3 "~" H 7700 3625 50  0001 C CNN
	1    7700 3625
	0    1    1    0   
$EndComp
Wire Wire Line
	3675 4050 3750 4050
Wire Wire Line
	4050 4050 4100 4050
$Comp
L Device:C C?
U 1 1 68672C6E
P 3900 4050
AR Path="/68672C6E" Ref="C?"  Part="1" 
AR Path="/679F16BE/68672C6E" Ref="C?"  Part="1" 
AR Path="/685B1068/68672C6E" Ref="C?"  Part="1" 
AR Path="/685D71B0/68672C6E" Ref="C?"  Part="1" 
AR Path="/6915B170/691AAF6E/68672C6E" Ref="C?"  Part="1" 
AR Path="/6915B170/691AAF72/68672C6E" Ref="C?"  Part="1" 
AR Path="/6915B170/691AAF76/68672C6E" Ref="C?"  Part="1" 
AR Path="/695CC68F/68672C6E" Ref="C32"  Part="1" 
F 0 "C32" V 4150 4050 50  0000 C CNN
F 1 "1nF" V 4050 4050 50  0000 C CNN
F 2 "Capacitor_SMD:C_0603_1608Metric_Pad1.08x0.95mm_HandSolder" H 3938 3900 50  0001 C CNN
F 3 "~" H 3900 4050 50  0001 C CNN
	1    3900 4050
	0    -1   -1   0   
$EndComp
$EndSCHEMATC
